{
    "fields": [
        {
            "name": "BEN_NIR_PSA",
            "description": "Identifiant anonyme du patient dans le SNIIRAM",
            "type": "string",
            "nomenclature": "-",
            "length": "17",
            "format": "default",
            "dateCreated": "",
            "dateDeleted": "",
            "dateMissing": [],
            "observation": "",
            "regle_gestion": "",
            "type_oracle": "string"
        },
        {
            "name": "BEN_RNG_GEM",
            "description": "rang de naissance du bénéficiaire",
            "type": "number",
            "nomenclature": "IR_BER_V",
            "length": "2",
            "format": "default",
            "dateCreated": "",
            "dateDeleted": "",
            "dateMissing": [],
            "observation": "",
            "regle_gestion": "La règle de calcul du rang du bénéficiaire dans le SNIIRAM est la suivante :\n- le rang de louvreur de droits est toujours égal à 1,\n- si un ayant droit a la même date de naissance que louvreur de droits, son rang est égal à 2,\n- un enfant né dune naissance unique a un rang égal à 1,\n- lorsquil y a des naissances multiples, chaque enfant est différencié par son rang (1 pour le 1er, 2 pour le second, ).",
            "type_oracle": "number"
        },
        {
            "name": "BEN_NIR_ANO",
            "description": "NIR pseudonymisé du bénéficiaire",
            "type": "string",
            "nomenclature": "-",
            "length": "17",
            "format": "default",
            "dateCreated": "",
            "dateDeleted": "",
            "dateMissing": [],
            "observation": "",
            "regle_gestion": "",
            "type_oracle": "string"
        },
        {
            "name": "BEN_IDT_ANO",
            "description": "Identifiant bénéficiaire anonymisé",
            "type": "string",
            "nomenclature": "-",
            "length": "18",
            "format": "default",
            "dateCreated": "",
            "dateDeleted": "",
            "dateMissing": [],
            "observation": "",
            "regle_gestion": "",
            "type_oracle": "string"
        },
        {
            "name": "BEN_EXO_MTF",
            "description": "Motif d’exonération du ticket modérateur",
            "type": "number",
            "nomenclature": "-",
            "length": "8",
            "format": "default",
            "dateCreated": "",
            "dateDeleted": "",
            "dateMissing": [],
            "observation": "",
            "regle_gestion": "",
            "type_oracle": "number"
        },
        {
            "name": "BEN_EXO_DTD",
            "description": "Date de début d’exonération",
            "type": "date",
            "nomenclature": "-",
            "length": null,
            "format": "default",
            "dateCreated": "",
            "dateDeleted": "",
            "dateMissing": [],
            "observation": "",
            "regle_gestion": "",
            "type_oracle": "date"
        },
        {
            "name": "BEN_EXO_DTF",
            "description": "Date de fin d’exonération",
            "type": "date",
            "nomenclature": "-",
            "length": null,
            "format": "default",
            "dateCreated": "",
            "dateDeleted": "",
            "dateMissing": [],
            "observation": "",
            "regle_gestion": "",
            "type_oracle": "date"
        },
        {
            "name": "IND_RNM_BEN",
            "description": "Top RNIAM",
            "type": "string",
            "nomenclature": "-",
            "length": "1",
            "format": "default",
            "dateCreated": "",
            "dateDeleted": "",
            "dateMissing": [],
            "observation": "",
            "regle_gestion": "",
            "type_oracle": "string"
        }
    ],
    "name": "IR_ETM_R",
    "title": "Table historique des exonérations du ticket modérateur liées à la personne",
    "produit": "DCIR_DCIRS",
    "missingValues": [
        ""
    ],
    "foreignKeys": [
        {
            "fields": [
                "BEN_NIR_PSA",
                "BEN_RNG_GEM"
            ],
            "reference": {
                "resource": "IR_BEN_R",
                "fields": [
                    "BEN_NIR_PSA",
                    "BEN_RNG_GEM"
                ]
            }
        },
        {
            "fields": [
                "BEN_IDT_ANO"
            ],
            "reference": {
                "resource": "IR_IBA_R",
                "fields": [
                    "BEN_IDT_ANO"
                ]
            }
        }
    ],
    "history": {
        "dateCreated": "",
        "dateDeleted": "",
        "dateMissing": []
    },
    "champ": "",
    "observation": ""
}