{
    "fields": [
        {
            "name": "ORG_CLE_NEW",
            "description": "Code de l'organisme de liquidation",
            "type": "string",
            "nomenclature": "IR_ORG_V",
            "length": "9",
            "format": "default",
            "dateCreated": "2006",
            "dateDeleted": "",
            "dateMissing": [],
            "observation": "",
            "regle_gestion": "",
            "type_oracle": "string"
        },
        {
            "name": "PHA_ACT_PRU",
            "description": "Prix unitaire du médicament codé en CIP",
            "type": "number",
            "nomenclature": "-",
            "length": "10,5",
            "format": "default",
            "dateCreated": "2006",
            "dateDeleted": "",
            "dateMissing": [],
            "observation": "",
            "regle_gestion": "",
            "type_oracle": "number"
        },
        {
            "name": "PHA_ACT_QSN",
            "description": "Quantité affinée signée (= nombre de boites facturées)",
            "type": "number",
            "nomenclature": "-",
            "length": "4",
            "format": "default",
            "dateCreated": "2006",
            "dateDeleted": "",
            "dateMissing": [],
            "observation": "",
            "regle_gestion": "",
            "type_oracle": "number"
        },
        {
            "name": "PHA_CPA_PCP",
            "description": "Condition particulière de prise en charge",
            "type": "string",
            "nomenclature": "-",
            "length": "3",
            "format": "default",
            "dateCreated": "",
            "dateDeleted": "",
            "dateMissing": [],
            "observation": "",
            "regle_gestion": "",
            "type_oracle": "string"
        },
        {
            "name": "PHA_DEC_PRU",
            "description": "Prix unitaire de l'unité déconditionnée délivrée",
            "type": "number",
            "nomenclature": "-",
            "length": "9,2",
            "format": "default",
            "dateCreated": "",
            "dateDeleted": "",
            "dateMissing": [],
            "observation": "",
            "regle_gestion": "Cette variable contient le prix unitaire de l'unité délivrée dans le cadre du déconditionnement (PHA_DEC_TOP = D). Ce prix unitaire correspond au prix du conditionnement divisé par le nombre d'unités de ce conditionnement. Cette zone doit obligatoirement être renseignée si le top déconditionnement est égal à la valeur D (PHA_DEC_TOP = D).  Exemple fictif :  Un pharmacien délivre 20 comprimés d'un produit SUBUTEX 0,4MG CPR (CIP 13 = 3400933944421). Le produit est conditionné par boîte de 7 comprimés. Le prix unitaire du comprimé = 2,89 euros (prix de la boite) - 7 = 0,41 euro (règle darrondi).",
            "type_oracle": "number"
        },
        {
            "name": "PHA_DEC_QSU",
            "description": "Quantité complète de déconditionnement signée",
            "type": "number",
            "nomenclature": "-",
            "length": "4",
            "format": "default",
            "dateCreated": "",
            "dateDeleted": "",
            "dateMissing": [],
            "observation": "",
            "regle_gestion": "Cette variable correspond au nombre d'unités fractionnées de médicament délivrées (exemple : le nombre de comprimés) dans le cadre du déconditionnement (PHA_DEC_TOP = D).",
            "type_oracle": "number"
        },
        {
            "name": "PHA_DEC_TOP",
            "description": "Top déconditionnement",
            "type": "string",
            "nomenclature": "IR_TDU_V",
            "length": "1",
            "format": "default",
            "dateCreated": "",
            "dateDeleted": "",
            "dateMissing": [],
            "observation": "",
            "regle_gestion": "",
            "type_oracle": "string"
        },
        {
            "name": "PHA_IDE_CPL",
            "description": "Préfixe du code CIP",
            "type": "number",
            "nomenclature": "-",
            "length": "6",
            "format": "default",
            "dateCreated": "2006",
            "dateDeleted": "",
            "dateMissing": [],
            "observation": "",
            "regle_gestion": "",
            "type_oracle": "number"
        },
        {
            "name": "PHA_MOD_PRN",
            "description": "Mode de prescription",
            "type": "string",
            "nomenclature": "IR_MDP_V",
            "length": "1",
            "format": "default",
            "dateCreated": "",
            "dateDeleted": "",
            "dateMissing": [],
            "observation": "",
            "regle_gestion": "",
            "type_oracle": "string"
        },
        {
            "name": "PHA_ORD_NUM",
            "description": "Numéro d'ordre de la prestation affinée pharmacie",
            "type": "number",
            "nomenclature": "-",
            "length": "4",
            "format": "default",
            "dateCreated": "2006",
            "dateDeleted": "",
            "dateMissing": [],
            "observation": "",
            "regle_gestion": "",
            "type_oracle": "number"
        },
        {
            "name": "PHA_PRS_C13",
            "description": "Code CIP de la pharmacie de ville (13 Caractères)",
            "type": "number",
            "nomenclature": "IR_PHA_R",
            "length": "13",
            "format": "default",
            "dateCreated": "2006",
            "dateDeleted": "",
            "dateMissing": [],
            "observation": "",
            "regle_gestion": "",
            "type_oracle": "number"
        },
        {
            "name": "PHA_PRS_IDE",
            "description": "Code CIP de la pharmacie de ville (ancien code sur 7 Caractères)",
            "type": "number",
            "nomenclature": "IR_PHA_R",
            "length": "7",
            "format": "default",
            "dateCreated": "2006",
            "dateDeleted": "",
            "dateMissing": [],
            "observation": "",
            "regle_gestion": "",
            "type_oracle": "number"
        },
        {
            "name": "PHA_SEQ_RNV",
            "description": "Séquence de renouvellement",
            "type": "number",
            "nomenclature": "IR_SEQ_V",
            "length": "2",
            "format": "default",
            "dateCreated": "2006",
            "dateDeleted": "",
            "dateMissing": [],
            "observation": "",
            "regle_gestion": "",
            "type_oracle": "number"
        },
        {
            "name": "PHA_SUB_MTF",
            "description": "Motif de substitution du médicament",
            "type": "number",
            "nomenclature": "IR_SUB_V",
            "length": "1",
            "format": "default",
            "dateCreated": "2006",
            "dateDeleted": "",
            "dateMissing": [],
            "observation": "",
            "regle_gestion": "",
            "type_oracle": "number"
        },
        {
            "name": "DCT_ORD_NUM",
            "description": "numéro d'ordre du décompte dans l'organisme",
            "type": "number",
            "nomenclature": "-",
            "length": "9",
            "format": "default",
            "dateCreated": "2006",
            "dateDeleted": "",
            "dateMissing": [],
            "observation": "",
            "regle_gestion": "",
            "type_oracle": "number"
        },
        {
            "name": "FLX_DIS_DTD",
            "description": "Date de mise à disposition des données",
            "type": "date",
            "nomenclature": "IR_DTE_V",
            "length": "8",
            "format": "default",
            "dateCreated": "2006",
            "dateDeleted": "",
            "dateMissing": [],
            "observation": "",
            "regle_gestion": "",
            "type_oracle": "date"
        },
        {
            "name": "FLX_EMT_NUM",
            "description": "numéro d'émetteur du flux",
            "type": "number",
            "nomenclature": "IR_NEM_T",
            "length": "4",
            "format": "default",
            "dateCreated": "2006",
            "dateDeleted": "",
            "dateMissing": [],
            "observation": "",
            "regle_gestion": "",
            "type_oracle": "number"
        },
        {
            "name": "FLX_EMT_ORD",
            "description": "numéro de séquence du flux",
            "type": "number",
            "nomenclature": "-",
            "length": "4",
            "format": "default",
            "dateCreated": "2006",
            "dateDeleted": "",
            "dateMissing": [],
            "observation": "",
            "regle_gestion": "",
            "type_oracle": "number"
        },
        {
            "name": "FLX_EMT_TYP",
            "description": "Type d'émetteur",
            "type": "number",
            "nomenclature": "IR_TYT_V",
            "length": "2",
            "format": "default",
            "dateCreated": "2006",
            "dateDeleted": "",
            "dateMissing": [],
            "observation": "",
            "regle_gestion": "",
            "type_oracle": "number"
        },
        {
            "name": "FLX_TRT_DTD",
            "description": "Date d'entrée des données dans le système d'information",
            "type": "date",
            "nomenclature": "IR_DTE_V",
            "length": "8",
            "format": "default",
            "dateCreated": "2006",
            "dateDeleted": "",
            "dateMissing": [],
            "observation": "",
            "regle_gestion": "",
            "type_oracle": "date"
        },
        {
            "name": "ORG_CLE_NUM",
            "description": "organisme de liquidation des prestations (avant fusion des caisses)",
            "type": "string",
            "nomenclature": "IR_ORG_V",
            "length": "9",
            "format": "default",
            "dateCreated": "2006",
            "dateDeleted": "",
            "dateMissing": [],
            "observation": "",
            "regle_gestion": "",
            "type_oracle": "string"
        },
        {
            "name": "PRS_ORD_NUM",
            "description": "Numéro d'ordre de la prestation dans le décompte",
            "type": "number",
            "nomenclature": "-",
            "length": "5",
            "format": "default",
            "dateCreated": "2006",
            "dateDeleted": "",
            "dateMissing": [],
            "observation": "",
            "regle_gestion": "",
            "type_oracle": "number"
        },
        {
            "name": "REM_TYP_AFF",
            "description": "type de remboursement affiné",
            "type": "number",
            "nomenclature": "-",
            "length": "8",
            "format": "default",
            "dateCreated": "2006",
            "dateDeleted": "",
            "dateMissing": [],
            "observation": "",
            "regle_gestion": "",
            "type_oracle": "number"
        }
    ],
    "name": "ER_PHA_F",
    "title": "Table des données de codage de pharmacie",
    "produit": "DCIR",
    "missingValues": [
        ""
    ],
    "foreignKeys": [
        {
            "fields": [
                "DCT_ORD_NUM",
                "FLX_DIS_DTD",
                "FLX_EMT_NUM",
                "FLX_EMT_ORD",
                "FLX_EMT_TYP",
                "FLX_TRT_DTD",
                "ORG_CLE_NUM",
                "PRS_ORD_NUM",
                "REM_TYP_AFF"
            ],
            "reference": {
                "resource": "ER_PRS_F",
                "fields": [
                    "DCT_ORD_NUM",
                    "FLX_DIS_DTD",
                    "FLX_EMT_NUM",
                    "FLX_EMT_ORD",
                    "FLX_EMT_TYP",
                    "FLX_TRT_DTD",
                    "ORG_CLE_NUM",
                    "PRS_ORD_NUM",
                    "REM_TYP_AFF"
                ]
            }
        }
    ],
    "history": {
        "dateCreated": "",
        "dateDeleted": "",
        "dateMissing": []
    },
    "champ": "",
    "observation": ""
}