{
    "fields": [
        {
            "name": "BEN_AMA_COD",
            "description": "Age du bénéficiaire en mois (si < 2 ans) ou années (si >= 2 ans)",
            "type": "number",
            "nomenclature": "IR_AMA_V",
            "length": "4",
            "format": "default",
            "dateCreated": "2006",
            "dateDeleted": "",
            "dateMissing": [],
            "observation": "",
            "regle_gestion": "",
            "type_oracle": "number"
        },
        {
            "name": "BEN_CDI_NIR",
            "description": "Code d'identification du NIR",
            "type": "string",
            "nomenclature": "IR_NIR_V",
            "length": "2",
            "format": "default",
            "dateCreated": "2006",
            "dateDeleted": "",
            "dateMissing": [],
            "observation": "",
            "regle_gestion": "",
            "type_oracle": "string"
        },
        {
            "name": "BEN_CMU_CAT",
            "description": "Catégorie d'organisme complémentaire CMU",
            "type": "string",
            "nomenclature": "IR_COC_V",
            "length": "1",
            "format": "default",
            "dateCreated": "2006",
            "dateDeleted": "",
            "dateMissing": [],
            "observation": "",
            "regle_gestion": "",
            "type_oracle": "string"
        },
        {
            "name": "BEN_CMU_ORG",
            "description": "Code de l'organisme complémentaire",
            "type": "string",
            "nomenclature": "IR_ORG_V",
            "length": "9",
            "format": "default",
            "dateCreated": "2006",
            "dateDeleted": "",
            "dateMissing": [],
            "observation": "",
            "regle_gestion": "",
            "type_oracle": "string"
        },
        {
            "name": "BEN_CMU_TOP",
            "description": "Top bénéficiaire de la CMU complémentaire",
            "type": "string",
            "nomenclature": "-",
            "length": "1",
            "format": "default",
            "dateCreated": "2006",
            "dateDeleted": "",
            "dateMissing": [],
            "observation": "",
            "regle_gestion": "",
            "type_oracle": "string"
        },
        {
            "name": "BEN_DCD_AME",
            "description": "Année et mois de décès du bénéficiaire",
            "type": "string",
            "nomenclature": "-",
            "length": "6",
            "format": "default",
            "dateCreated": "2006",
            "dateDeleted": "",
            "dateMissing": [],
            "observation": "",
            "regle_gestion": "",
            "type_oracle": "string"
        },
        {
            "name": "BEN_DCD_DTE",
            "description": "Date de décès du bénéficiaire",
            "type": "date",
            "nomenclature": "IR_DTE_V",
            "length": "8",
            "format": "default",
            "dateCreated": "2006",
            "dateDeleted": "",
            "dateMissing": [],
            "observation": "",
            "regle_gestion": "",
            "type_oracle": "date"
        },
        {
            "name": "BEN_EHP_TOP",
            "description": "Identification hospitalisation en EHPAD ou en EMS",
            "type": "string",
            "nomenclature": "IR_HAD_V",
            "length": "1",
            "format": "default",
            "dateCreated": "2006",
            "dateDeleted": "",
            "dateMissing": [],
            "observation": "",
            "regle_gestion": "",
            "type_oracle": "string"
        },
        {
            "name": "BEN_IAT_CAT",
            "description": "Catégorie du bénéficiaire (Invalidité - Rente accident du travail)",
            "type": "string",
            "nomenclature": "IR_CBI_V",
            "length": "2",
            "format": "default",
            "dateCreated": "2006",
            "dateDeleted": "",
            "dateMissing": [],
            "observation": "",
            "regle_gestion": "",
            "type_oracle": "string"
        },
        {
            "name": "BEN_NAI_ANN",
            "description": "Année de naissance du bénéficiaire",
            "type": "string",
            "nomenclature": "-",
            "length": "4",
            "format": "default",
            "dateCreated": "2006",
            "dateDeleted": "",
            "dateMissing": [],
            "observation": "",
            "regle_gestion": "",
            "type_oracle": "string"
        },
        {
            "name": "BEN_PAI_CMU",
            "description": "Type de procédure de paiement CMU",
            "type": "string",
            "nomenclature": "IR_TCM_V",
            "length": "1",
            "format": "default",
            "dateCreated": "2006",
            "dateDeleted": "",
            "dateMissing": [],
            "observation": "",
            "regle_gestion": "",
            "type_oracle": "string"
        },
        {
            "name": "BEN_NIR_PSA",
            "description": "Identifiant anonyme du patient dans le SNIIRAM",
            "type": "string",
            "nomenclature": "-",
            "length": "17",
            "format": "default",
            "dateCreated": "2006",
            "dateDeleted": "",
            "dateMissing": [],
            "observation": "",
            "regle_gestion": "",
            "type_oracle": "string"
        },
        {
            "name": "BEN_RNG_GEM",
            "description": "rang de naissance du bénéficiaire",
            "type": "number",
            "nomenclature": "IR_BER_V",
            "length": "2",
            "format": "default",
            "dateCreated": "2006",
            "dateDeleted": "",
            "dateMissing": [],
            "observation": "",
            "regle_gestion": "La règle de calcul du rang du bénéficiaire dans le SNIIRAM est la suivante :\n- le rang de louvreur de droits est toujours égal à 1,\n- si un ayant droit a la même date de naissance que louvreur de droits, son rang est égal à 2,\n- un enfant né dune naissance unique a un rang égal à 1,\n- lorsquil y a des naissances multiples, chaque enfant est différencié par son rang (1 pour le 1er, 2 pour le second, ).",
            "type_oracle": "number"
        },
        {
            "name": "BEN_QAF_COD",
            "description": "Qualité du matricule de l'ouvreur de droits",
            "type": "number",
            "nomenclature": "IR_QBA_V",
            "length": "2",
            "format": "default",
            "dateCreated": "2006",
            "dateDeleted": "",
            "dateMissing": [],
            "observation": "",
            "regle_gestion": "",
            "type_oracle": "number"
        },
        {
            "name": "BEN_RES_COM",
            "description": "commune de résidence du destinataire du règlement",
            "type": "string",
            "nomenclature": "IR_GEO_V",
            "length": "3",
            "format": "default",
            "dateCreated": "2006",
            "dateDeleted": "",
            "dateMissing": [],
            "observation": "",
            "regle_gestion": "",
            "type_oracle": "string"
        },
        {
            "name": "BEN_RES_DPT",
            "description": "Département de résidence du bénéficiaire",
            "type": "string",
            "nomenclature": "IR_DPT_V",
            "length": "3",
            "format": "default",
            "dateCreated": "2006",
            "dateDeleted": "",
            "dateMissing": [],
            "observation": "",
            "regle_gestion": "",
            "type_oracle": "string"
        },
        {
            "name": "BEN_SEX_COD",
            "description": "Code sexe du bénéficiaire",
            "type": "number",
            "nomenclature": "IR_SEX_V",
            "length": "1",
            "format": "default",
            "dateCreated": "2006",
            "dateDeleted": "",
            "dateMissing": [],
            "observation": "",
            "regle_gestion": "",
            "type_oracle": "number"
        },
        {
            "name": "ORG_AFF_BEN",
            "description": "Code de l'organisme d'affiliation",
            "type": "string",
            "nomenclature": "IR_ORG_V",
            "length": "9",
            "format": "default",
            "dateCreated": "2006",
            "dateDeleted": "",
            "dateMissing": [],
            "observation": "",
            "regle_gestion": "",
            "type_oracle": "string"
        },
        {
            "name": "PRS_REJ_TOP",
            "description": "Top rejet ou signalement",
            "type": "string",
            "nomenclature": "-",
            "length": "1",
            "format": "default",
            "dateCreated": "2006",
            "dateDeleted": "",
            "dateMissing": [],
            "observation": "",
            "regle_gestion": "",
            "type_oracle": "string"
        },
        {
            "name": "EXE_SOI_AMD",
            "description": "Date (année et mois) de début d'exécution des soins",
            "type": "string",
            "nomenclature": "IR_DTE_V",
            "length": "6",
            "format": "default",
            "dateCreated": "2006",
            "dateDeleted": "",
            "dateMissing": [],
            "observation": "",
            "regle_gestion": "",
            "type_oracle": "string"
        },
        {
            "name": "EXE_SOI_AMF",
            "description": "Date (année et mois) de fin d'exécution des soins",
            "type": "string",
            "nomenclature": "IR_DTE_V",
            "length": "6",
            "format": "default",
            "dateCreated": "2006",
            "dateDeleted": "",
            "dateMissing": [],
            "observation": "",
            "regle_gestion": "",
            "type_oracle": "string"
        },
        {
            "name": "EXE_SOI_DTD",
            "description": "Date de début d'exécution des soins",
            "type": "date",
            "nomenclature": "IR_DTE_V",
            "length": "8",
            "format": "default",
            "dateCreated": "2006",
            "dateDeleted": "",
            "dateMissing": [],
            "observation": "",
            "regle_gestion": "",
            "type_oracle": "date"
        },
        {
            "name": "EXE_SOI_DTF",
            "description": "Date de fin d'exécution des soins",
            "type": "date",
            "nomenclature": "IR_DTE_V",
            "length": "8",
            "format": "default",
            "dateCreated": "2006",
            "dateDeleted": "",
            "dateMissing": [],
            "observation": "",
            "regle_gestion": "",
            "type_oracle": "date"
        },
        {
            "name": "PRE_PRE_AMD",
            "description": "Date (année et mois) de prescription",
            "type": "string",
            "nomenclature": "IR_DTE_V",
            "length": "6",
            "format": "default",
            "dateCreated": "2006",
            "dateDeleted": "",
            "dateMissing": [],
            "observation": "",
            "regle_gestion": "",
            "type_oracle": "string"
        },
        {
            "name": "PRE_PRE_DTD",
            "description": "Date de prescription",
            "type": "date",
            "nomenclature": "IR_DTE_V",
            "length": "8",
            "format": "default",
            "dateCreated": "2006",
            "dateDeleted": "",
            "dateMissing": [],
            "observation": "",
            "regle_gestion": "",
            "type_oracle": "date"
        },
        {
            "name": "PRS_GRS_DTD",
            "description": "Date présumée de Grossesse",
            "type": "date",
            "nomenclature": "IR_DTE_V",
            "length": "8",
            "format": "default",
            "dateCreated": "2006",
            "dateDeleted": "",
            "dateMissing": [],
            "observation": "",
            "regle_gestion": "",
            "type_oracle": "date"
        },
        {
            "name": "PRS_HOS_AMD",
            "description": "Date (année et mois) de début d'hospitalisation",
            "type": "string",
            "nomenclature": "IR_DTE_V",
            "length": "6",
            "format": "default",
            "dateCreated": "2006",
            "dateDeleted": "",
            "dateMissing": [],
            "observation": "",
            "regle_gestion": "",
            "type_oracle": "string"
        },
        {
            "name": "PRS_HOS_DTD",
            "description": "Date de début d'hospitalisation",
            "type": "date",
            "nomenclature": "IR_DTE_V",
            "length": "8",
            "format": "default",
            "dateCreated": "2006",
            "dateDeleted": "",
            "dateMissing": [],
            "observation": "",
            "regle_gestion": "",
            "type_oracle": "date"
        },
        {
            "name": "BSE_REM_BSE",
            "description": "Base de remboursement de l'acte de base",
            "type": "number",
            "nomenclature": "-",
            "length": "11,2",
            "format": "default",
            "dateCreated": "2006",
            "dateDeleted": "",
            "dateMissing": [],
            "observation": "",
            "regle_gestion": "",
            "type_oracle": "number"
        },
        {
            "name": "BSE_REM_MNT",
            "description": "Montant remboursé pour l'acte de base",
            "type": "number",
            "nomenclature": "-",
            "length": "11,2",
            "format": "default",
            "dateCreated": "2006",
            "dateDeleted": "",
            "dateMissing": [],
            "observation": "",
            "regle_gestion": "",
            "type_oracle": "number"
        },
        {
            "name": "BSE_REM_PRU",
            "description": "Prix unitaire de l'acte (acte de base)",
            "type": "number",
            "nomenclature": "-",
            "length": "14,5",
            "format": "default",
            "dateCreated": "2006",
            "dateDeleted": "",
            "dateMissing": [],
            "observation": "",
            "regle_gestion": "La ligne de prestation contient des informations concernant un acte de base (une consultation par exemple)",
            "type_oracle": "number"
        },
        {
            "name": "BSE_REM_SGN",
            "description": "Signe du remboursement (acte de base)",
            "type": "number",
            "nomenclature": "IR_SGN_V",
            "length": "2",
            "format": "default",
            "dateCreated": "2006",
            "dateDeleted": "",
            "dateMissing": [],
            "observation": "",
            "regle_gestion": "La ligne de prestation contient des informations concernant un acte de base (une consultation par exemple)",
            "type_oracle": "number"
        },
        {
            "name": "CPL_REM_BSE",
            "description": "Base de remboursement (complément d'acte)",
            "type": "number",
            "nomenclature": "-",
            "length": "11,2",
            "format": "default",
            "dateCreated": "2006",
            "dateDeleted": "",
            "dateMissing": [],
            "observation": "",
            "regle_gestion": "La ligne de prestation contient des informations concernant un complément dacte ou une majoration (majoration de coordination par exemple)",
            "type_oracle": "number"
        },
        {
            "name": "CPL_REM_MNT",
            "description": "Montant versé-remboursé (complément d'acte)",
            "type": "number",
            "nomenclature": "-",
            "length": "11,2",
            "format": "default",
            "dateCreated": "2006",
            "dateDeleted": "",
            "dateMissing": [],
            "observation": "",
            "regle_gestion": "La ligne de prestation contient des informations concernant un complément dacte ou une majoration (majoration de coordination par exemple)",
            "type_oracle": "number"
        },
        {
            "name": "CPL_REM_PRU",
            "description": "Prix unitaire de l'acte (complément d'acte)",
            "type": "number",
            "nomenclature": "-",
            "length": "14,5",
            "format": "default",
            "dateCreated": "2006",
            "dateDeleted": "",
            "dateMissing": [],
            "observation": "",
            "regle_gestion": "La ligne de prestation contient des informations concernant un complément dacte ou une majoration (majoration de coordination par exemple)",
            "type_oracle": "number"
        },
        {
            "name": "CPL_REM_SGN",
            "description": "Signe du remboursement (complément d'acte)",
            "type": "number",
            "nomenclature": "IR_SGN_V",
            "length": "2",
            "format": "default",
            "dateCreated": "2006",
            "dateDeleted": "",
            "dateMissing": [],
            "observation": "",
            "regle_gestion": "La ligne de prestation contient des informations concernant un complément dacte ou une majoration (majoration de coordination par exemple)",
            "type_oracle": "number"
        },
        {
            "name": "PRS_ACT_CFT",
            "description": "Coefficient (non signé) de l'acte",
            "type": "number",
            "nomenclature": "-",
            "length": "9,2",
            "format": "default",
            "dateCreated": "2006",
            "dateDeleted": "",
            "dateMissing": [],
            "observation": "",
            "regle_gestion": "",
            "type_oracle": "number"
        },
        {
            "name": "PRS_ACT_COG",
            "description": "Coefficient global de l'acte de base",
            "type": "number",
            "nomenclature": "-",
            "length": "9,2",
            "format": "default",
            "dateCreated": "2006",
            "dateDeleted": "",
            "dateMissing": [],
            "observation": "",
            "regle_gestion": "",
            "type_oracle": "number"
        },
        {
            "name": "PRS_ACT_NBR",
            "description": "Dénombrement des actes de base",
            "type": "number",
            "nomenclature": "-",
            "length": "5",
            "format": "default",
            "dateCreated": "2006",
            "dateDeleted": "",
            "dateMissing": [],
            "observation": "",
            "regle_gestion": "",
            "type_oracle": "number"
        },
        {
            "name": "PRS_ACT_QTE",
            "description": "Quantité de l'acte de base",
            "type": "number",
            "nomenclature": "-",
            "length": "5",
            "format": "default",
            "dateCreated": "2006",
            "dateDeleted": "",
            "dateMissing": [],
            "observation": "",
            "regle_gestion": "",
            "type_oracle": "number"
        },
        {
            "name": "PRS_DEP_MNT",
            "description": "Montant global du dépassement",
            "type": "number",
            "nomenclature": "-",
            "length": "11,2",
            "format": "default",
            "dateCreated": "2006",
            "dateDeleted": "",
            "dateMissing": [],
            "observation": "",
            "regle_gestion": "",
            "type_oracle": "number"
        },
        {
            "name": "PRS_ETA_RAC",
            "description": "Reste à charge de l'établissement",
            "type": "number",
            "nomenclature": "-",
            "length": "11,2",
            "format": "default",
            "dateCreated": "2006",
            "dateDeleted": "",
            "dateMissing": [],
            "observation": "",
            "regle_gestion": "",
            "type_oracle": "number"
        },
        {
            "name": "PRS_PAI_MNT",
            "description": "Montant global de la dépense",
            "type": "number",
            "nomenclature": "-",
            "length": "11,2",
            "format": "default",
            "dateCreated": "2006",
            "dateDeleted": "",
            "dateMissing": [],
            "observation": "",
            "regle_gestion": "",
            "type_oracle": "number"
        },
        {
            "name": "RGO_MOD_MNT",
            "description": "Montant de la majoration de la participation de l'assuré (régime obligatoire)",
            "type": "number",
            "nomenclature": "-",
            "length": "11,2",
            "format": "default",
            "dateCreated": "2006",
            "dateDeleted": "",
            "dateMissing": [],
            "observation": "",
            "regle_gestion": "",
            "type_oracle": "number"
        },
        {
            "name": "ORB_BSE_NUM",
            "description": "Organisme de base de liquidation des prestations",
            "type": "string",
            "nomenclature": "IR_CAI_V",
            "length": "6",
            "format": "default",
            "dateCreated": "2006",
            "dateDeleted": "",
            "dateMissing": [],
            "observation": "",
            "regle_gestion": "",
            "type_oracle": "string"
        },
        {
            "name": "ORL_BSE_NUM",
            "description": "Organisme de base de liquidation des prestations",
            "type": "string",
            "nomenclature": "IR_CAI_V",
            "length": "6",
            "format": "default",
            "dateCreated": "2006",
            "dateDeleted": "",
            "dateMissing": [],
            "observation": "",
            "regle_gestion": "",
            "type_oracle": "string"
        },
        {
            "name": "RGM_COD",
            "description": "Code du petit régime",
            "type": "number",
            "nomenclature": "IR_RGM_V",
            "length": "3",
            "format": "default",
            "dateCreated": "2006",
            "dateDeleted": "",
            "dateMissing": [],
            "observation": "",
            "regle_gestion": "",
            "type_oracle": "number"
        },
        {
            "name": "RGM_GRG_COD",
            "description": "Grand régime de liquidation du bénéficiaire",
            "type": "number",
            "nomenclature": "IR_RGM_V",
            "length": "3",
            "format": "default",
            "dateCreated": "2006",
            "dateDeleted": "",
            "dateMissing": [],
            "observation": "",
            "regle_gestion": "",
            "type_oracle": "number"
        },
        {
            "name": "ACC_TIE_IND",
            "description": "Top tiers responsable accident",
            "type": "number",
            "nomenclature": "TOP_TIER_ACC",
            "length": "1",
            "format": "default",
            "dateCreated": "2006",
            "dateDeleted": "",
            "dateMissing": [],
            "observation": "",
            "regle_gestion": "",
            "type_oracle": "number"
        },
        {
            "name": "BSE_FJH_TYP",
            "description": "Type de prise en charge du forfait journalier (acte de base)",
            "type": "number",
            "nomenclature": "IR_FJH_V",
            "length": "2",
            "format": "default",
            "dateCreated": "2006",
            "dateDeleted": "",
            "dateMissing": [],
            "observation": "",
            "regle_gestion": "La ligne de prestation contient des informations concernant un acte de base (une consultation par exemple)",
            "type_oracle": "number"
        },
        {
            "name": "BSE_PRS_NAT",
            "description": "Nature de la prestation (acte de base)",
            "type": "number",
            "nomenclature": "IR_NAT_V",
            "length": "5",
            "format": "default",
            "dateCreated": "2006",
            "dateDeleted": "",
            "dateMissing": [],
            "observation": "",
            "regle_gestion": "La ligne de prestation contient des informations concernant un acte de base (une consultation par exemple)",
            "type_oracle": "number"
        },
        {
            "name": "CPL_AFF_COD",
            "description": "Code complément affiné",
            "type": "number",
            "nomenclature": "IR_CCA_V",
            "length": "3",
            "format": "default",
            "dateCreated": "2006",
            "dateDeleted": "",
            "dateMissing": [],
            "observation": "",
            "regle_gestion": "La ligne de prestation contient des informations concernant un complément dacte ou une majoration (majoration de coordination par exemple)",
            "type_oracle": "number"
        },
        {
            "name": "CPL_ANO_COD",
            "description": "Code anomalie complément affiné",
            "type": "number",
            "nomenclature": "IR_ANC_V",
            "length": "2",
            "format": "default",
            "dateCreated": "2006",
            "dateDeleted": "",
            "dateMissing": [],
            "observation": "",
            "regle_gestion": "La ligne de prestation contient des informations concernant un complément dacte ou une majoration (majoration de coordination par exemple)",
            "type_oracle": "number"
        },
        {
            "name": "CPL_FJH_TYP",
            "description": "Type de prise en charge du forfait journalier (complément d'acte)",
            "type": "number",
            "nomenclature": "IR_FJH_V",
            "length": "2",
            "format": "default",
            "dateCreated": "2006",
            "dateDeleted": "",
            "dateMissing": [],
            "observation": "",
            "regle_gestion": "La ligne de prestation contient des informations concernant un complément dacte ou une majoration (majoration de coordination par exemple)",
            "type_oracle": "number"
        },
        {
            "name": "CPL_MAJ_TOP",
            "description": "Top complément - majoration",
            "type": "number",
            "nomenclature": "-",
            "length": "2",
            "format": "default",
            "dateCreated": "2006",
            "dateDeleted": "",
            "dateMissing": [],
            "observation": "",
            "regle_gestion": "La ligne de prestation contient des informations concernant un complément dacte ou une majoration (majoration de coordination par exemple)",
            "type_oracle": "number"
        },
        {
            "name": "CPL_PRS_NAT",
            "description": "Nature de la prestation (complément d'acte)",
            "type": "number",
            "nomenclature": "IR_NAT_V",
            "length": "5",
            "format": "default",
            "dateCreated": "2006",
            "dateDeleted": "",
            "dateMissing": [],
            "observation": "",
            "regle_gestion": "La ligne de prestation contient des informations concernant un complément dacte ou une majoration (majoration de coordination par exemple)",
            "type_oracle": "number"
        },
        {
            "name": "DPN_QLF",
            "description": "Qualificatif de la dépense",
            "type": "number",
            "nomenclature": "IR_DEP_V",
            "length": "2",
            "format": "default",
            "dateCreated": "2006",
            "dateDeleted": "",
            "dateMissing": [],
            "observation": "",
            "regle_gestion": "",
            "type_oracle": "number"
        },
        {
            "name": "DRG_MOD",
            "description": "Mode de règlement",
            "type": "number",
            "nomenclature": "IR_MOD_V",
            "length": "3",
            "format": "default",
            "dateCreated": "2006",
            "dateDeleted": "",
            "dateMissing": [],
            "observation": "",
            "regle_gestion": "",
            "type_oracle": "number"
        },
        {
            "name": "DRG_NAT",
            "description": "Code du destinataire du règlement",
            "type": "number",
            "nomenclature": "IR_DRG_V",
            "length": "2",
            "format": "default",
            "dateCreated": "2006",
            "dateDeleted": "",
            "dateMissing": [],
            "observation": "",
            "regle_gestion": "",
            "type_oracle": "number"
        },
        {
            "name": "EXE_LIE_COD",
            "description": "Lieu d'exécution de l'acte médical",
            "type": "number",
            "nomenclature": "IR_LIE_V",
            "length": "2",
            "format": "default",
            "dateCreated": "2006",
            "dateDeleted": "",
            "dateMissing": [],
            "observation": "",
            "regle_gestion": "",
            "type_oracle": "number"
        },
        {
            "name": "EXO_MTF",
            "description": "Motif d'exonération du ticket modérateur",
            "type": "number",
            "nomenclature": "IR_EXO_V",
            "length": "2",
            "format": "default",
            "dateCreated": "2006",
            "dateDeleted": "",
            "dateMissing": [],
            "observation": "",
            "regle_gestion": "",
            "type_oracle": "number"
        },
        {
            "name": "IJR_EMP_NUM",
            "description": "Numéro demployeur pour les indemnités journalières",
            "type": "number",
            "nomenclature": "-",
            "length": "16",
            "format": "default",
            "dateCreated": "2006",
            "dateDeleted": "",
            "dateMissing": [],
            "observation": "",
            "regle_gestion": "",
            "type_oracle": "number"
        },
        {
            "name": "IJR_RVL_NAT",
            "description": "Nature de la revalorisation (indemnités journalières)",
            "type": "string",
            "nomenclature": "IR_RVL_V",
            "length": "2",
            "format": "default",
            "dateCreated": "2006",
            "dateDeleted": "",
            "dateMissing": [],
            "observation": "",
            "regle_gestion": "",
            "type_oracle": "string"
        },
        {
            "name": "MTM_NAT",
            "description": "Modulation du ticket modérateur",
            "type": "number",
            "nomenclature": "IR_MTM_V",
            "length": "1",
            "format": "default",
            "dateCreated": "2006",
            "dateDeleted": "",
            "dateMissing": [],
            "observation": "",
            "regle_gestion": "",
            "type_oracle": "number"
        },
        {
            "name": "ORG_CLE_NEW",
            "description": "Code de l'organisme de liquidation",
            "type": "string",
            "nomenclature": "IR_ORG_V",
            "length": "9",
            "format": "default",
            "dateCreated": "2006",
            "dateDeleted": "",
            "dateMissing": [],
            "observation": "",
            "regle_gestion": "",
            "type_oracle": "string"
        },
        {
            "name": "PRE_REN_COD",
            "description": "Type de renouvellement de la prescription (opticien - pharmacien)",
            "type": "string",
            "nomenclature": "IR_REN_V",
            "length": "1",
            "format": "default",
            "dateCreated": "2006",
            "dateDeleted": "",
            "dateMissing": [],
            "observation": "",
            "regle_gestion": "",
            "type_oracle": "string"
        },
        {
            "name": "PRS_CRD_OPT",
            "description": "Top option de coordination",
            "type": "string",
            "nomenclature": "IR_TOC_V",
            "length": "1",
            "format": "default",
            "dateCreated": "2006",
            "dateDeleted": "",
            "dateMissing": [],
            "observation": "",
            "regle_gestion": "",
            "type_oracle": "string"
        },
        {
            "name": "PRS_DPN_QLP",
            "description": "Qualificatif de la dépense transmis",
            "type": "number",
            "nomenclature": "IR_DEP_V",
            "length": "3",
            "format": "default",
            "dateCreated": "2006",
            "dateDeleted": "",
            "dateMissing": [],
            "observation": "",
            "regle_gestion": "",
            "type_oracle": "number"
        },
        {
            "name": "PRS_NAT_REF",
            "description": "Code de la Prestations de référence",
            "type": "number",
            "nomenclature": "IR_NAT_V",
            "length": "4",
            "format": "default",
            "dateCreated": "2006",
            "dateDeleted": "",
            "dateMissing": [],
            "observation": "",
            "regle_gestion": "",
            "type_oracle": "number"
        },
        {
            "name": "PRS_OPS_TRF",
            "description": "Indicateur de tarif opposable",
            "type": "number",
            "nomenclature": "IR_TOP_V",
            "length": "2",
            "format": "default",
            "dateCreated": "2006",
            "dateDeleted": "",
            "dateMissing": [],
            "observation": "",
            "regle_gestion": "",
            "type_oracle": "number"
        },
        {
            "name": "PRS_PDS_QCP",
            "description": "Code qualificatif du parcours de soins",
            "type": "number",
            "nomenclature": "IR_QPS_V",
            "length": "2",
            "format": "default",
            "dateCreated": "2006",
            "dateDeleted": "",
            "dateMissing": [],
            "observation": "",
            "regle_gestion": "",
            "type_oracle": "number"
        },
        {
            "name": "PRS_PDS_QTP",
            "description": "Qualificatif du parcours de soins transmis",
            "type": "number",
            "nomenclature": "IR_QPE_V",
            "length": "3",
            "format": "default",
            "dateCreated": "2006",
            "dateDeleted": "",
            "dateMissing": [],
            "observation": "",
            "regle_gestion": "",
            "type_oracle": "number"
        },
        {
            "name": "PRS_PPF_COD",
            "description": "Prise en compte de la participation forfaitaire",
            "type": "string",
            "nomenclature": "IR_PAF_V",
            "length": "1",
            "format": "default",
            "dateCreated": "2006",
            "dateDeleted": "",
            "dateMissing": [],
            "observation": "",
            "regle_gestion": "",
            "type_oracle": "string"
        },
        {
            "name": "PRS_PRE_MTT",
            "description": "Code origine de la prescription",
            "type": "number",
            "nomenclature": "IR_TMT_V",
            "length": "1",
            "format": "default",
            "dateCreated": "2006",
            "dateDeleted": "",
            "dateMissing": [],
            "observation": "",
            "regle_gestion": "",
            "type_oracle": "number"
        },
        {
            "name": "PRS_REF_KIN",
            "description": "Indicateur Référentiel Entente Préalable kinésithérapie",
            "type": "string",
            "nomenclature": "IR_REK_V",
            "length": "2",
            "format": "default",
            "dateCreated": "2006",
            "dateDeleted": "",
            "dateMissing": [],
            "observation": "",
            "regle_gestion": "",
            "type_oracle": "string"
        },
        {
            "name": "PRS_TOP_ENP",
            "description": "Indicateur Top Entente Préalable",
            "type": "number",
            "nomenclature": "IR_TEK_V",
            "length": "2",
            "format": "default",
            "dateCreated": "2006",
            "dateDeleted": "",
            "dateMissing": [],
            "observation": "",
            "regle_gestion": "",
            "type_oracle": "number"
        },
        {
            "name": "PRS_TYP_KIN",
            "description": "Type de prestation Kiné",
            "type": "string",
            "nomenclature": "IR_TPR_V",
            "length": "1",
            "format": "default",
            "dateCreated": "2006",
            "dateDeleted": "",
            "dateMissing": [],
            "observation": "",
            "regle_gestion": "",
            "type_oracle": "string"
        },
        {
            "name": "RGO_ASU_NAT",
            "description": "Nature d'assurance (régime obligatoire)",
            "type": "number",
            "nomenclature": "IR_ASU_V",
            "length": "2",
            "format": "default",
            "dateCreated": "2006",
            "dateDeleted": "",
            "dateMissing": [],
            "observation": "",
            "regle_gestion": "",
            "type_oracle": "number"
        },
        {
            "name": "RGO_ENV_TYP",
            "description": "Type d'enveloppe (régime obligatoire)",
            "type": "number",
            "nomenclature": "IR_ENV_V",
            "length": "2",
            "format": "default",
            "dateCreated": "2006",
            "dateDeleted": "",
            "dateMissing": [],
            "observation": "",
            "regle_gestion": "",
            "type_oracle": "number"
        },
        {
            "name": "RGO_FTA_COD",
            "description": "Forçage du taux (hors parcours de soins) (part obligatoire)",
            "type": "number",
            "nomenclature": "IR_FOR_V",
            "length": "2",
            "format": "default",
            "dateCreated": "2006",
            "dateDeleted": "",
            "dateMissing": [],
            "observation": "",
            "regle_gestion": "",
            "type_oracle": "number"
        },
        {
            "name": "RGO_MIN_TAU",
            "description": "Taux de remboursement modulé (hors parcours de Soins) (régime obligatoire)",
            "type": "number",
            "nomenclature": "-",
            "length": "7,2",
            "format": "default",
            "dateCreated": "2006",
            "dateDeleted": "",
            "dateMissing": [],
            "observation": "",
            "regle_gestion": "",
            "type_oracle": "number"
        },
        {
            "name": "RGO_REM_TAU",
            "description": "Taux de remboursement (part Régime Obligatoire)",
            "type": "number",
            "nomenclature": "-",
            "length": "5,2",
            "format": "default",
            "dateCreated": "2006",
            "dateDeleted": "",
            "dateMissing": [],
            "observation": "",
            "regle_gestion": "",
            "type_oracle": "number"
        },
        {
            "name": "RGO_THE_TAU",
            "description": "Taux de remboursement théorique (régime obligatoire)",
            "type": "number",
            "nomenclature": "IR_TAU_V",
            "length": "7,2",
            "format": "default",
            "dateCreated": "2006",
            "dateDeleted": "",
            "dateMissing": [],
            "observation": "",
            "regle_gestion": "Si le code forçage du taux est égal à 1 ou 2 (taux minoré et taux minoré plafonné) alors : le taux théorique de la part de base = taux de remboursement du flux (taux minoré) + la valeur de la modulation, le taux théorique pour le supplément Alsace-Moselle =  9% - le taux de remboursement théorique de la part de base, et le taux théorique pour le TM CMU-C et lAide Médicale dEtat = 1% - le taux de remboursement théorique de la part de base - le taux de remboursement théorique du supplément Alsace-moselle. Et sinon, le taux théorique = le taux de remboursement du flux (dit \"taux réel\").",
            "type_oracle": "number"
        },
        {
            "name": "ETB_PRE_FIN",
            "description": "N° FINESS de l'établissement prescripteur",
            "type": "string",
            "nomenclature": "-",
            "length": "8",
            "format": "default",
            "dateCreated": "2006",
            "dateDeleted": "",
            "dateMissing": [],
            "observation": "",
            "regle_gestion": "",
            "type_oracle": "string"
        },
        {
            "name": "PFS_EXE_NUM",
            "description": "N° du professionnel de santé exécutant",
            "type": "string",
            "nomenclature": "-",
            "length": "8",
            "format": "default",
            "dateCreated": "2006",
            "dateDeleted": "",
            "dateMissing": [],
            "observation": "",
            "regle_gestion": "",
            "type_oracle": "string"
        },
        {
            "name": "PFS_EXE_NUMC",
            "description": "N° PS exécutant (anonymisé)",
            "type": "string",
            "nomenclature": "-",
            "length": "32",
            "format": "default",
            "dateCreated": "",
            "dateDeleted": "",
            "dateMissing": [],
            "observation": "",
            "regle_gestion": "",
            "type_oracle": "string"
        },
        {
            "name": "PFS_PRE_NUM",
            "description": "N° du professionnel de santé prescripteur",
            "type": "string",
            "nomenclature": "-",
            "length": "8",
            "format": "default",
            "dateCreated": "2006",
            "dateDeleted": "",
            "dateMissing": [],
            "observation": "",
            "regle_gestion": "",
            "type_oracle": "string"
        },
        {
            "name": "PFS_PRE_NUMC",
            "description": "N° PS prescripteur (anonymisé)",
            "type": "string",
            "nomenclature": "-",
            "length": "32",
            "format": "default",
            "dateCreated": "",
            "dateDeleted": "",
            "dateMissing": [],
            "observation": "",
            "regle_gestion": "",
            "type_oracle": "string"
        },
        {
            "name": "PRS_MTT_NUM",
            "description": "Numéro du medecin traitant",
            "type": "string",
            "nomenclature": "-",
            "length": "8",
            "format": "default",
            "dateCreated": "2006",
            "dateDeleted": "",
            "dateMissing": [],
            "observation": "",
            "regle_gestion": "",
            "type_oracle": "string"
        },
        {
            "name": "PRS_MTT_NUMC",
            "description": "N° médecin traitant (anonymisé)",
            "type": "string",
            "nomenclature": "-",
            "length": "32",
            "format": "default",
            "dateCreated": "",
            "dateDeleted": "",
            "dateMissing": [],
            "observation": "",
            "regle_gestion": "",
            "type_oracle": "string"
        },
        {
            "name": "PSE_ACT_NAT",
            "description": "Nature d'activité du professionnel de santé exécutant",
            "type": "number",
            "nomenclature": "IR_ACT_V",
            "length": "2",
            "format": "default",
            "dateCreated": "2006",
            "dateDeleted": "",
            "dateMissing": [],
            "observation": "",
            "regle_gestion": "",
            "type_oracle": "number"
        },
        {
            "name": "PSE_CNV_COD",
            "description": "Code convention du professionnel de santé exécutant",
            "type": "number",
            "nomenclature": "IR_CNV_V",
            "length": "1",
            "format": "default",
            "dateCreated": "2006",
            "dateDeleted": "",
            "dateMissing": [],
            "observation": "",
            "regle_gestion": "",
            "type_oracle": "number"
        },
        {
            "name": "PSE_REF_ADH",
            "description": "Top prestation exécuté par un professionnel de santé adhérent à l'option référent",
            "type": "string",
            "nomenclature": "-",
            "length": "1",
            "format": "default",
            "dateCreated": "2006",
            "dateDeleted": "",
            "dateMissing": [],
            "observation": "",
            "regle_gestion": "",
            "type_oracle": "string"
        },
        {
            "name": "PSE_SPE_COD",
            "description": "Spécialite médicale du professionnel de santé exécutant",
            "type": "number",
            "nomenclature": "IR_SPE_V",
            "length": "2",
            "format": "default",
            "dateCreated": "2006",
            "dateDeleted": "",
            "dateMissing": [],
            "observation": "",
            "regle_gestion": "",
            "type_oracle": "number"
        },
        {
            "name": "PSE_STJ_COD",
            "description": "Mode d'exercice du professionnel de santé exécutant",
            "type": "number",
            "nomenclature": "IR_SJP_V",
            "length": "2",
            "format": "default",
            "dateCreated": "2006",
            "dateDeleted": "",
            "dateMissing": [],
            "observation": "",
            "regle_gestion": "",
            "type_oracle": "number"
        },
        {
            "name": "PSP_ACT_NAT",
            "description": "Nature d'activite du professionnel de santé prescripteur",
            "type": "number",
            "nomenclature": "IR_ACT_V",
            "length": "2",
            "format": "default",
            "dateCreated": "2006",
            "dateDeleted": "",
            "dateMissing": [],
            "observation": "",
            "regle_gestion": "",
            "type_oracle": "number"
        },
        {
            "name": "PSP_CNV_COD",
            "description": "Code convention du professionnel de santé prescripteur",
            "type": "number",
            "nomenclature": "IR_CNV_V",
            "length": "1",
            "format": "default",
            "dateCreated": "2006",
            "dateDeleted": "",
            "dateMissing": [],
            "observation": "",
            "regle_gestion": "",
            "type_oracle": "number"
        },
        {
            "name": "PSP_PPS_NUM",
            "description": "Numéro RPPS du prescripteur salarié",
            "type": "string",
            "nomenclature": "-",
            "length": "10",
            "format": "default",
            "dateCreated": "2006",
            "dateDeleted": "",
            "dateMissing": [],
            "observation": "",
            "regle_gestion": "",
            "type_oracle": "string"
        },
        {
            "name": "PSP_PPS_NUMC",
            "description": "Numéro RPPS du prescripteur (anonymisé)",
            "type": "string",
            "nomenclature": "-",
            "length": "32",
            "format": "default",
            "dateCreated": "",
            "dateDeleted": "",
            "dateMissing": [],
            "observation": "",
            "regle_gestion": "",
            "type_oracle": "string"
        },
        {
            "name": "PSP_REF_ADH",
            "description": "Top prestation prescrite par un professionnel de santé adhérent à l'option référent",
            "type": "string",
            "nomenclature": "-",
            "length": "1",
            "format": "default",
            "dateCreated": "2006",
            "dateDeleted": "",
            "dateMissing": [],
            "observation": "",
            "regle_gestion": "",
            "type_oracle": "string"
        },
        {
            "name": "PSP_SPE_COD",
            "description": "Spécialité médicale du professionnel de santé prescripteur",
            "type": "number",
            "nomenclature": "IR_SPE_V",
            "length": "2",
            "format": "default",
            "dateCreated": "2006",
            "dateDeleted": "",
            "dateMissing": [],
            "observation": "",
            "regle_gestion": "",
            "type_oracle": "number"
        },
        {
            "name": "PSP_STJ_COD",
            "description": "Mode d'exercice du professionnel de santé prescripteur",
            "type": "number",
            "nomenclature": "IR_SJP_V",
            "length": "2",
            "format": "default",
            "dateCreated": "2006",
            "dateDeleted": "",
            "dateMissing": [],
            "observation": "",
            "regle_gestion": "",
            "type_oracle": "number"
        },
        {
            "name": "PSP_SVI_PPS",
            "description": "indicateur de fiabilité du numéro RPPS",
            "type": "number",
            "nomenclature": "IR_SVI_V",
            "length": "3",
            "format": "default",
            "dateCreated": "2006",
            "dateDeleted": "",
            "dateMissing": [],
            "observation": "",
            "regle_gestion": "",
            "type_oracle": "number"
        },
        {
            "name": "DCT_ORD_NUM",
            "description": "numéro d'ordre du décompte dans l'organisme",
            "type": "number",
            "nomenclature": "-",
            "length": "9",
            "format": "default",
            "dateCreated": "2006",
            "dateDeleted": "",
            "dateMissing": [],
            "observation": "",
            "regle_gestion": "",
            "type_oracle": "number"
        },
        {
            "name": "FLX_DIS_DTD",
            "description": "Date de mise à disposition des données",
            "type": "date",
            "nomenclature": "IR_DTE_V",
            "length": "8",
            "format": "default",
            "dateCreated": "2006",
            "dateDeleted": "",
            "dateMissing": [],
            "observation": "",
            "regle_gestion": "",
            "type_oracle": "date"
        },
        {
            "name": "FLX_EMT_NUM",
            "description": "numéro d'émetteur du flux",
            "type": "number",
            "nomenclature": "IR_NEM_T",
            "length": "4",
            "format": "default",
            "dateCreated": "2006",
            "dateDeleted": "",
            "dateMissing": [],
            "observation": "",
            "regle_gestion": "",
            "type_oracle": "number"
        },
        {
            "name": "FLX_EMT_ORD",
            "description": "numéro de séquence du flux",
            "type": "number",
            "nomenclature": "-",
            "length": "4",
            "format": "default",
            "dateCreated": "2006",
            "dateDeleted": "",
            "dateMissing": [],
            "observation": "",
            "regle_gestion": "",
            "type_oracle": "number"
        },
        {
            "name": "FLX_EMT_TYP",
            "description": "Type d'émetteur",
            "type": "number",
            "nomenclature": "IR_TYT_V",
            "length": "2",
            "format": "default",
            "dateCreated": "2006",
            "dateDeleted": "",
            "dateMissing": [],
            "observation": "",
            "regle_gestion": "",
            "type_oracle": "number"
        },
        {
            "name": "FLX_TRT_DTD",
            "description": "Date d'entrée des données dans le système d'information",
            "type": "date",
            "nomenclature": "IR_DTE_V",
            "length": "8",
            "format": "default",
            "dateCreated": "2006",
            "dateDeleted": "",
            "dateMissing": [],
            "observation": "",
            "regle_gestion": "",
            "type_oracle": "date"
        },
        {
            "name": "ORG_CLE_NUM",
            "description": "organisme de liquidation des prestations (avant fusion des caisses)",
            "type": "string",
            "nomenclature": "IR_ORG_V",
            "length": "9",
            "format": "default",
            "dateCreated": "2006",
            "dateDeleted": "",
            "dateMissing": [],
            "observation": "",
            "regle_gestion": "",
            "type_oracle": "string"
        },
        {
            "name": "PRS_ORD_NUM",
            "description": "Numéro d'ordre de la prestation dans le décompte",
            "type": "number",
            "nomenclature": "-",
            "length": "5",
            "format": "default",
            "dateCreated": "2006",
            "dateDeleted": "",
            "dateMissing": [],
            "observation": "",
            "regle_gestion": "",
            "type_oracle": "number"
        },
        {
            "name": "REM_TYP_AFF",
            "description": "type de remboursement affiné",
            "type": "number",
            "nomenclature": "-",
            "length": "8",
            "format": "default",
            "dateCreated": "2006",
            "dateDeleted": "",
            "dateMissing": [],
            "observation": "",
            "regle_gestion": "",
            "type_oracle": "number"
        },
        {
            "name": "BEN_DRT_SPF",
            "description": "Droits spécifiques à l'ACS (avec ou sans tiers payant intégral)",
            "type": "string",
            "length": "3",
            "nomenclature": "IR_DSP_V",
            "dateCreated": "",
            "dateDeleted": "",
            "dateMissing": [],
            "format": "default",
            "observation": "",
            "regle_gestion": "",
            "type_oracle": "string"
        },
        {
            "name": "BEN_ACS_TOP",
            "description": "Top contrat ACS Tiers payant Intégral",
            "type": "string",
            "length": "1",
            "nomenclature": "-",
            "dateCreated": "",
            "dateDeleted": "",
            "dateMissing": [],
            "format": "default",
            "observation": "",
            "regle_gestion": "",
            "type_oracle": "string"
        },
        {
            "name": "EXE_CTX_PFS",
            "description": "Contexte Professionnels de santé",
            "type": "string",
            "length": "4",
            "nomenclature": "-",
            "dateCreated": "",
            "dateDeleted": "",
            "dateMissing": [],
            "format": "default",
            "observation": "",
            "regle_gestion": "",
            "type_oracle": "string"
        },
        {
            "name": "PRS_TYP_MAJ",
            "description": "Type de majoration",
            "type": "string",
            "length": "2",
            "nomenclature": "IR_MAJ_V",
            "dateCreated": "",
            "dateDeleted": "",
            "dateMissing": [],
            "format": "default",
            "observation": "",
            "regle_gestion": "",
            "type_oracle": "string"
        },
        {
            "name": "EXE_CTX_BEN",
            "description": "Contexte Bénéficiaire",
            "type": "string",
            "length": "4",
            "nomenclature": "-",
            "dateCreated": "",
            "dateDeleted": "",
            "dateMissing": [],
            "format": "default",
            "observation": "",
            "regle_gestion": "",
            "type_oracle": "string"
        },
        {
            "name": "CPL_FTA_COD",
            "description": "Code de forçage du taux pour les compléments d'actes",
            "type": "number",
            "length": "2",
            "nomenclature": "-",
            "dateCreated": "",
            "dateDeleted": "",
            "dateMissing": [],
            "format": "default",
            "observation": "",
            "regle_gestion": "",
            "type_oracle": "number"
        },
        {
            "name": "PRS_PPU_SEC",
            "description": "Code privé - public de la Prestations",
            "type": "number",
            "length": "1",
            "nomenclature": "IR_PPU_V",
            "dateCreated": "",
            "dateDeleted": "",
            "dateMissing": [],
            "format": "default",
            "observation": "",
            "regle_gestion": "",
            "type_oracle": "number"
        },
        {
            "name": "BEN_CTA_TYP",
            "description": "Type de contrat complémentaire",
            "type": "number",
            "length": "3",
            "nomenclature": "-",
            "dateCreated": "",
            "dateDeleted": "",
            "dateMissing": [],
            "format": "default",
            "observation": "",
            "regle_gestion": "",
            "type_oracle": "number"
        },
        {
            "name": "PRS_DRA_AME",
            "description": "Date réelle (année et mois) de l'accouchement",
            "type": "string",
            "length": "6",
            "nomenclature": "-",
            "dateCreated": "",
            "dateDeleted": "",
            "dateMissing": [],
            "format": "default",
            "observation": "",
            "regle_gestion": "",
            "type_oracle": "string"
        },
        {
            "name": "DRG_AFF_NAT",
            "description": "Code affiné du destinataire du règlement",
            "type": "string",
            "length": "2",
            "nomenclature": "-",
            "dateCreated": "",
            "dateDeleted": "",
            "dateMissing": [],
            "format": "default",
            "observation": "",
            "regle_gestion": "",
            "type_oracle": "string"
        },
        {
            "name": "PRS_MNT_MAJ",
            "description": "montant de la majoration",
            "type": "number",
            "length": "7,2",
            "nomenclature": "-",
            "dateCreated": "",
            "dateDeleted": "",
            "dateMissing": [],
            "format": "default",
            "observation": "",
            "regle_gestion": "",
            "type_oracle": "number"
        },
        {
            "name": "PRE_IND_PEL",
            "description": "Indicateur Prescription en Ligne",
            "type": "string",
            "length": "2",
            "nomenclature": "-",
            "dateCreated": "",
            "dateDeleted": "",
            "dateMissing": [],
            "format": "default",
            "observation": "",
            "regle_gestion": "",
            "type_oracle": "string"
        },
        {
            "name": "PRS_DIS_PRE",
            "description": "Dispositif de prévention",
            "type": "string",
            "length": "2",
            "nomenclature": "-",
            "dateCreated": "",
            "dateDeleted": "",
            "dateMissing": [],
            "format": "default",
            "observation": "",
            "regle_gestion": "",
            "type_oracle": "string"
        },
        {
            "name": "CPL_REM_TAU",
            "description": "Taux de remboursement des compléments d'actes",
            "type": "number",
            "length": "7,2",
            "nomenclature": "-",
            "dateCreated": "",
            "dateDeleted": "",
            "dateMissing": [],
            "format": "default",
            "observation": "",
            "regle_gestion": "",
            "type_oracle": "number"
        },
        {
            "name": "PRS_QTT_MAJ",
            "description": "Quantité de majorations",
            "type": "number",
            "length": "4",
            "nomenclature": "-",
            "dateCreated": "",
            "dateDeleted": "",
            "dateMissing": [],
            "format": "default",
            "observation": "",
            "regle_gestion": "",
            "type_oracle": "number"
        }
    ],
    "name": "ER_PRS_F",
    "title": "Table des prestations",
    "produit": "DCIR",
    "missingValues": [
        ""
    ],
    "primaryKey": [
        "DCT_ORD_NUM",
        "FLX_DIS_DTD",
        "FLX_EMT_NUM",
        "FLX_EMT_ORD",
        "FLX_EMT_TYP",
        "FLX_TRT_DTD",
        "ORG_CLE_NUM",
        "PRS_ORD_NUM",
        "REM_TYP_AFF"
    ],
    "foreignKeys": [
        {
            "fields": [
                "BEN_NIR_PSA",
                "BEN_RNG_GEM"
            ],
            "reference": {
                "resource": "CT_IDE_AAAA_GN",
                "fields": [
                    "ben_nir_psa",
                    "ben_rng_gem"
                ]
            },
            "description": "Bidirectionnel"
        },
        {
            "fields": "PFS_EXE_NUM",
            "reference": {
                "resource": "DA_PRA_R",
                "fields": "PFS_PFS_NUM"
            }
        },
        {
            "fields": "PFS_PRE_NUM",
            "reference": {
                "resource": "DA_PRA_R",
                "fields": "PFS_PFS_NUM"
            }
        },
        {
            "fields": "PRS_MTT_NUM",
            "reference": {
                "resource": "DA_PRA_R",
                "fields": "PFS_PFS_NUM"
            }
        },
        {
            "fields": [
                "BEN_NIR_PSA",
                "BEN_RNG_GEM"
            ],
            "reference": {
                "resource": "IR_BEN_R",
                "fields": [
                    "BEN_NIR_PSA",
                    "BEN_RNG_GEM"
                ]
            }
        }
    ],
    "history": {
        "dateCreated": "",
        "dateDeleted": "",
        "dateMissing": []
    },
    "champ": "",
    "observation": ""
}