{
    "fields": [
        {
            "name": "id_carto",
            "description": "Identifiant bénéficiaire cartographie",
            "type": "string",
            "nomenclature": "-",
            "length": "18",
            "format": "default",
            "dateCreated": "",
            "dateDeleted": "",
            "dateMissing": [],
            "type_oracle": "string",
            "constraints": {
                "maximum": 18
            }
        },
        {
            "name": "ben_sex_cod",
            "description": "Sexe du bénéficiaire",
            "type": "integer",
            "nomenclature": "-",
            "length": "3",
            "format": "default",
            "dateCreated": "",
            "dateDeleted": "",
            "dateMissing": [],
            "type_oracle": "number",
            "constraints": {
                "minimum": 0,
                "maximum": 1000
            }
        },
        {
            "name": "ben_nai_ann",
            "description": "Année de naissance du bénéficiaire",
            "type": "string",
            "nomenclature": "-",
            "length": "4",
            "format": "default",
            "dateCreated": "",
            "dateDeleted": "",
            "dateMissing": [],
            "type_oracle": "string",
            "constraints": {
                "maximum": 4
            }
        },
        {
            "name": "age",
            "description": "Age du bénéficiaire",
            "type": "integer",
            "nomenclature": "-",
            "length": "8",
            "format": "default",
            "dateCreated": "",
            "dateDeleted": "",
            "dateMissing": [],
            "type_oracle": "number",
            "constraints": {
                "minimum": 0,
                "maximum": 100000000
            }
        },
        {
            "name": "cla_age_ct",
            "description": "Classes d'âge du bénéficiaire (cartographie)",
            "type": "string",
            "nomenclature": "-",
            "length": "5",
            "format": "default",
            "dateCreated": "",
            "dateDeleted": "",
            "dateMissing": [],
            "type_oracle": "string",
            "constraints": {
                "maximum": 5
            }
        },
        {
            "name": "cla_age_5",
            "description": "Classes d'âge du bénéficiaire (quinquennales)",
            "type": "string",
            "nomenclature": "-",
            "length": "5",
            "format": "default",
            "dateCreated": "",
            "dateDeleted": "",
            "dateMissing": [],
            "type_oracle": "string",
            "constraints": {
                "maximum": 5
            }
        },
        {
            "name": "old_cod_reg",
            "description": "Région de résidence du bénéficiaire (ancien codage)",
            "type": "string",
            "nomenclature": "-",
            "length": "2",
            "format": "default",
            "dateCreated": "",
            "dateDeleted": "",
            "dateMissing": [],
            "type_oracle": "string",
            "constraints": {
                "maximum": 2
            }
        },
        {
            "name": "new_cod_reg",
            "description": "Région de résidence du bénéficiaire (nouveau codage)",
            "type": "string",
            "nomenclature": "-",
            "length": "2",
            "format": "default",
            "dateCreated": "",
            "dateDeleted": "",
            "dateMissing": [],
            "type_oracle": "string",
            "constraints": {
                "maximum": 2
            }
        },
        {
            "name": "dpt",
            "description": "Département de résidence du bénéficiaire",
            "type": "string",
            "nomenclature": "-",
            "length": "3",
            "format": "default",
            "dateCreated": "",
            "dateDeleted": "",
            "dateMissing": [],
            "type_oracle": "string",
            "constraints": {
                "maximum": 3
            }
        },
        {
            "name": "regime",
            "description": "Régime du bénéficiaire",
            "type": "string",
            "nomenclature": "-",
            "length": "6",
            "format": "default",
            "dateCreated": "",
            "dateDeleted": "",
            "dateMissing": [],
            "type_oracle": "string",
            "constraints": {
                "maximum": 6
            }
        },
        {
            "name": "source",
            "description": "Source de provenance du bénéficiaire",
            "type": "string",
            "nomenclature": "-",
            "length": "3",
            "format": "default",
            "dateCreated": "",
            "dateDeleted": "",
            "dateMissing": [],
            "type_oracle": "string",
            "constraints": {
                "maximum": 3
            }
        },
        {
            "name": "cmu",
            "description": "Bénéficiaire de la Couverture Maladie Universelle complémentaire",
            "type": "integer",
            "nomenclature": "-",
            "length": "3",
            "format": "default",
            "dateCreated": "",
            "dateDeleted": "",
            "dateMissing": [],
            "type_oracle": "number",
            "constraints": {
                "minimum": 0,
                "maximum": 1000
            }
        },
        {
            "name": "ben_acs_top",
            "description": "Bénéficiaire de l'aide à la complémentaire santé",
            "type": "integer",
            "nomenclature": "-",
            "length": "3",
            "format": "default",
            "dateCreated": "",
            "dateDeleted": "",
            "dateMissing": [],
            "type_oracle": "number",
            "constraints": {
                "minimum": 0,
                "maximum": 1000
            }
        },
        {
            "name": "ben_aah_top",
            "description": "Bénéficiaire de l'allocation adulte handicapé",
            "type": "integer",
            "nomenclature": "-",
            "length": "3",
            "format": "default",
            "dateCreated": "",
            "dateDeleted": "",
            "dateMissing": [],
            "type_oracle": "number",
            "constraints": {
                "minimum": 0,
                "maximum": 1000
            }
        },
        {
            "name": "ben_dcd_dte",
            "description": "Date de décès du bénéficiaire",
            "type": "integer",
            "nomenclature": "-",
            "length": "8",
            "format": "default",
            "dateCreated": "",
            "dateDeleted": "",
            "dateMissing": [],
            "type_oracle": "number",
            "constraints": {
                "minimum": 0,
                "maximum": 100000000
            }
        },
        {
            "name": "dcd_3112",
            "description": "Bénéficiaire décédé au 31 décembre de l'année N",
            "type": "integer",
            "nomenclature": "-",
            "length": "8",
            "format": "default",
            "dateCreated": "",
            "dateDeleted": "",
            "dateMissing": [],
            "type_oracle": "number",
            "constraints": {
                "minimum": 0,
                "maximum": 100000000
            }
        },
        {
            "name": "DEP_SDV_HONOGEN_MNT",
            "description": "Soins de généralistes remboursés",
            "type": "integer",
            "nomenclature": "-",
            "length": "8",
            "format": "default",
            "dateCreated": "",
            "dateDeleted": "",
            "dateMissing": [],
            "type_oracle": "number",
            "constraints": {
                "minimum": 0,
                "maximum": 100000000
            }
        },
        {
            "name": "DEP_SDV_HONOGEN_BSE",
            "description": "Soins de généralistes remboursables",
            "type": "integer",
            "nomenclature": "-",
            "length": "8",
            "format": "default",
            "dateCreated": "",
            "dateDeleted": "",
            "dateMissing": [],
            "type_oracle": "number",
            "constraints": {
                "minimum": 0,
                "maximum": 100000000
            }
        },
        {
            "name": "DEP_SDV_HONOSPE_MNT",
            "description": "Soins autres spécialistes remboursés",
            "type": "integer",
            "nomenclature": "-",
            "length": "8",
            "format": "default",
            "dateCreated": "",
            "dateDeleted": "",
            "dateMissing": [],
            "type_oracle": "number",
            "constraints": {
                "minimum": 0,
                "maximum": 100000000
            }
        },
        {
            "name": "DEP_SDV_HONOSPE_BSE",
            "description": "Soins autres spécialistes remboursables",
            "type": "integer",
            "nomenclature": "-",
            "length": "8",
            "format": "default",
            "dateCreated": "",
            "dateDeleted": "",
            "dateMissing": [],
            "type_oracle": "number",
            "constraints": {
                "minimum": 0,
                "maximum": 100000000
            }
        },
        {
            "name": "DEP_SDV_HONODENT_MNT",
            "description": "Soins dentaires remboursés",
            "type": "integer",
            "nomenclature": "-",
            "length": "8",
            "format": "default",
            "dateCreated": "",
            "dateDeleted": "",
            "dateMissing": [],
            "type_oracle": "number",
            "constraints": {
                "minimum": 0,
                "maximum": 100000000
            }
        },
        {
            "name": "DEP_SDV_HONODENT_BSE",
            "description": "Soins dentaires remboursables",
            "type": "integer",
            "nomenclature": "-",
            "length": "8",
            "format": "default",
            "dateCreated": "",
            "dateDeleted": "",
            "dateMissing": [],
            "type_oracle": "number",
            "constraints": {
                "minimum": 0,
                "maximum": 100000000
            }
        },
        {
            "name": "DEP_SDV_SAGEFEMME_MNT",
            "description": "Soins de sages-femmes remboursés",
            "type": "integer",
            "nomenclature": "-",
            "length": "8",
            "format": "default",
            "dateCreated": "",
            "dateDeleted": "",
            "dateMissing": [],
            "type_oracle": "number",
            "constraints": {
                "minimum": 0,
                "maximum": 100000000
            }
        },
        {
            "name": "DEP_SDV_SAGEFEMME_BSE",
            "description": "Soins de sages-femmes remboursables",
            "type": "integer",
            "nomenclature": "-",
            "length": "8",
            "format": "default",
            "dateCreated": "",
            "dateDeleted": "",
            "dateMissing": [],
            "type_oracle": "number",
            "constraints": {
                "minimum": 0,
                "maximum": 100000000
            }
        },
        {
            "name": "DEP_SDV_KINE_MNT",
            "description": "Soins de kinésithérapie remboursés",
            "type": "integer",
            "nomenclature": "-",
            "length": "8",
            "format": "default",
            "dateCreated": "",
            "dateDeleted": "",
            "dateMissing": [],
            "type_oracle": "number",
            "constraints": {
                "minimum": 0,
                "maximum": 100000000
            }
        },
        {
            "name": "DEP_SDV_KINE_BSE",
            "description": "Soins de kinésithérapie remboursables",
            "type": "integer",
            "nomenclature": "-",
            "length": "8",
            "format": "default",
            "dateCreated": "",
            "dateDeleted": "",
            "dateMissing": [],
            "type_oracle": "number",
            "constraints": {
                "minimum": 0,
                "maximum": 100000000
            }
        },
        {
            "name": "DEP_SDV_INFIRMIER_MNT",
            "description": "Soins infirmiers remboursés",
            "type": "integer",
            "nomenclature": "-",
            "length": "8",
            "format": "default",
            "dateCreated": "",
            "dateDeleted": "",
            "dateMissing": [],
            "type_oracle": "number",
            "constraints": {
                "minimum": 0,
                "maximum": 100000000
            }
        },
        {
            "name": "DEP_SDV_INFIRMIER_BSE",
            "description": "Soins infirmiers remboursables",
            "type": "integer",
            "nomenclature": "-",
            "length": "8",
            "format": "default",
            "dateCreated": "",
            "dateDeleted": "",
            "dateMissing": [],
            "type_oracle": "number",
            "constraints": {
                "minimum": 0,
                "maximum": 100000000
            }
        },
        {
            "name": "DEP_SDV_AUTRESAUXIL_MNT",
            "description": "Soins d'autres paramédicaux remboursés",
            "type": "integer",
            "nomenclature": "-",
            "length": "8",
            "format": "default",
            "dateCreated": "",
            "dateDeleted": "",
            "dateMissing": [],
            "type_oracle": "number",
            "constraints": {
                "minimum": 0,
                "maximum": 100000000
            }
        },
        {
            "name": "DEP_SDV_AUTRESAUXIL_BSE",
            "description": "Soins d'autres paramédicaux remboursables",
            "type": "integer",
            "nomenclature": "-",
            "length": "8",
            "format": "default",
            "dateCreated": "",
            "dateDeleted": "",
            "dateMissing": [],
            "type_oracle": "number",
            "constraints": {
                "minimum": 0,
                "maximum": 100000000
            }
        },
        {
            "name": "DEP_SDV_BIO_MNT",
            "description": "Biologie remboursée",
            "type": "integer",
            "nomenclature": "-",
            "length": "8",
            "format": "default",
            "dateCreated": "",
            "dateDeleted": "",
            "dateMissing": [],
            "type_oracle": "number",
            "constraints": {
                "minimum": 0,
                "maximum": 100000000
            }
        },
        {
            "name": "DEP_SDV_BIO_BSE",
            "description": "Biologie remboursable",
            "type": "integer",
            "nomenclature": "-",
            "length": "8",
            "format": "default",
            "dateCreated": "",
            "dateDeleted": "",
            "dateMissing": [],
            "type_oracle": "number",
            "constraints": {
                "minimum": 0,
                "maximum": 100000000
            }
        },
        {
            "name": "DEP_SDV_PHARMACIE_MNT",
            "description": "Médicaments remboursés",
            "type": "integer",
            "nomenclature": "-",
            "length": "8",
            "format": "default",
            "dateCreated": "",
            "dateDeleted": "",
            "dateMissing": [],
            "type_oracle": "number",
            "constraints": {
                "minimum": 0,
                "maximum": 100000000
            }
        },
        {
            "name": "DEP_SDV_PHARMACIE_BSE",
            "description": "Médicaments remboursables",
            "type": "integer",
            "nomenclature": "-",
            "length": "8",
            "format": "default",
            "dateCreated": "",
            "dateDeleted": "",
            "dateMissing": [],
            "type_oracle": "number",
            "constraints": {
                "minimum": 0,
                "maximum": 100000000
            }
        },
        {
            "name": "DEP_SDV_LPP_MNT",
            "description": "Autres produits de santé remboursés",
            "type": "integer",
            "nomenclature": "-",
            "length": "8",
            "format": "default",
            "dateCreated": "",
            "dateDeleted": "",
            "dateMissing": [],
            "type_oracle": "number",
            "constraints": {
                "minimum": 0,
                "maximum": 100000000
            }
        },
        {
            "name": "DEP_SDV_LPP_BSE",
            "description": "Autres produits de santé remboursables",
            "type": "integer",
            "nomenclature": "-",
            "length": "8",
            "format": "default",
            "dateCreated": "",
            "dateDeleted": "",
            "dateMissing": [],
            "type_oracle": "number",
            "constraints": {
                "minimum": 0,
                "maximum": 100000000
            }
        },
        {
            "name": "DEP_SDV_TRANSPORT_MNT",
            "description": "Transports remboursés",
            "type": "integer",
            "nomenclature": "-",
            "length": "8",
            "format": "default",
            "dateCreated": "",
            "dateDeleted": "",
            "dateMissing": [],
            "type_oracle": "number",
            "constraints": {
                "minimum": 0,
                "maximum": 100000000
            }
        },
        {
            "name": "DEP_SDV_TRANSPORT_BSE",
            "description": "Transports remboursables",
            "type": "integer",
            "nomenclature": "-",
            "length": "8",
            "format": "default",
            "dateCreated": "",
            "dateDeleted": "",
            "dateMissing": [],
            "type_oracle": "number",
            "constraints": {
                "minimum": 0,
                "maximum": 100000000
            }
        },
        {
            "name": "DEP_SDV_AUTRES_MNT",
            "description": "Autres dépenses de soins de ville remboursés",
            "type": "integer",
            "nomenclature": "-",
            "length": "8",
            "format": "default",
            "dateCreated": "",
            "dateDeleted": "",
            "dateMissing": [],
            "type_oracle": "number",
            "constraints": {
                "minimum": 0,
                "maximum": 100000000
            }
        },
        {
            "name": "DEP_SDV_AUTRES_BSE",
            "description": "Autres dépenses de soins de ville remboursables",
            "type": "integer",
            "nomenclature": "-",
            "length": "8",
            "format": "default",
            "dateCreated": "",
            "dateDeleted": "",
            "dateMissing": [],
            "type_oracle": "number",
            "constraints": {
                "minimum": 0,
                "maximum": 100000000
            }
        },
        {
            "name": "TOT_DEP_SDV_MNT",
            "description": "Total soins de ville remboursés",
            "type": "integer",
            "nomenclature": "-",
            "length": "8",
            "format": "default",
            "dateCreated": "",
            "dateDeleted": "",
            "dateMissing": [],
            "type_oracle": "number",
            "constraints": {
                "minimum": 0,
                "maximum": 100000000
            }
        },
        {
            "name": "TOT_DEP_SDV_BSE",
            "description": "Total soins de ville remboursables",
            "type": "integer",
            "nomenclature": "-",
            "length": "8",
            "format": "default",
            "dateCreated": "",
            "dateDeleted": "",
            "dateMissing": [],
            "type_oracle": "number",
            "constraints": {
                "minimum": 0,
                "maximum": 100000000
            }
        },
        {
            "name": "DEP_DGF_MCOSEJOUR_MNT",
            "description": "Hospitalisations séjour MCO secteur public remboursées",
            "type": "integer",
            "nomenclature": "-",
            "length": "8",
            "format": "default",
            "dateCreated": "",
            "dateDeleted": "",
            "dateMissing": [],
            "type_oracle": "number",
            "constraints": {
                "minimum": 0,
                "maximum": 100000000
            }
        },
        {
            "name": "DEP_DGF_MCOSEJOUR_BSE",
            "description": "Hospitalisations séjour MCO secteur public remboursables",
            "type": "integer",
            "nomenclature": "-",
            "length": "8",
            "format": "default",
            "dateCreated": "",
            "dateDeleted": "",
            "dateMissing": [],
            "type_oracle": "number",
            "constraints": {
                "minimum": 0,
                "maximum": 100000000
            }
        },
        {
            "name": "DEP_DGF_MCOSUS_MNT",
            "description": "Hospitalisations liste en sus MCO secteur public remboursées",
            "type": "integer",
            "nomenclature": "-",
            "length": "8",
            "format": "default",
            "dateCreated": "",
            "dateDeleted": "",
            "dateMissing": [],
            "type_oracle": "number",
            "constraints": {
                "minimum": 0,
                "maximum": 100000000
            }
        },
        {
            "name": "DEP_DGF_MCOSUS_BSE",
            "description": "Hospitalisations liste en sus MCO secteur public remboursables",
            "type": "integer",
            "nomenclature": "-",
            "length": "8",
            "format": "default",
            "dateCreated": "",
            "dateDeleted": "",
            "dateMissing": [],
            "type_oracle": "number",
            "constraints": {
                "minimum": 0,
                "maximum": 100000000
            }
        },
        {
            "name": "dep_OQN_MCOSEJOUR_MNT",
            "description": "Hospitalisations séjour MCO secteur privé remboursées",
            "type": "integer",
            "nomenclature": "-",
            "length": "8",
            "format": "default",
            "dateCreated": "",
            "dateDeleted": "",
            "dateMissing": [],
            "type_oracle": "number",
            "constraints": {
                "minimum": 0,
                "maximum": 100000000
            }
        },
        {
            "name": "dep_OQN_MCOSEJOUR_BSE",
            "description": "Hospitalisations séjour MCO secteur privé remboursables",
            "type": "integer",
            "nomenclature": "-",
            "length": "8",
            "format": "default",
            "dateCreated": "",
            "dateDeleted": "",
            "dateMissing": [],
            "type_oracle": "number",
            "constraints": {
                "minimum": 0,
                "maximum": 100000000
            }
        },
        {
            "name": "DEP_OQN_MCOSUS_MNT",
            "description": "Hospitalisations liste en sus MCO secteur privé remboursées",
            "type": "integer",
            "nomenclature": "-",
            "length": "8",
            "format": "default",
            "dateCreated": "",
            "dateDeleted": "",
            "dateMissing": [],
            "type_oracle": "number",
            "constraints": {
                "minimum": 0,
                "maximum": 100000000
            }
        },
        {
            "name": "DEP_OQN_MCOSUS_BSE",
            "description": "Hospitalisations liste en sus MCO secteur privé remboursables",
            "type": "integer",
            "nomenclature": "-",
            "length": "8",
            "format": "default",
            "dateCreated": "",
            "dateDeleted": "",
            "dateMissing": [],
            "type_oracle": "number",
            "constraints": {
                "minimum": 0,
                "maximum": 100000000
            }
        },
        {
            "name": "DEP_DGF_ACE_MNT",
            "description": "Actes et consultations externes MCO secteur public remboursés",
            "type": "integer",
            "nomenclature": "-",
            "length": "8",
            "format": "default",
            "dateCreated": "",
            "dateDeleted": "",
            "dateMissing": [],
            "type_oracle": "number",
            "constraints": {
                "minimum": 0,
                "maximum": 100000000
            }
        },
        {
            "name": "DEP_DGF_ACE_BSE",
            "description": "Actes et consultations externes MCO secteur public remboursables",
            "type": "integer",
            "nomenclature": "-",
            "length": "8",
            "format": "default",
            "dateCreated": "",
            "dateDeleted": "",
            "dateMissing": [],
            "type_oracle": "number",
            "constraints": {
                "minimum": 0,
                "maximum": 100000000
            }
        },
        {
            "name": "DEP_DGF_PSY_MNT",
            "description": "Hospitalisations en psychiatrie secteur public remboursées",
            "type": "integer",
            "nomenclature": "-",
            "length": "8",
            "format": "default",
            "dateCreated": "",
            "dateDeleted": "",
            "dateMissing": [],
            "type_oracle": "number",
            "constraints": {
                "minimum": 0,
                "maximum": 100000000
            }
        },
        {
            "name": "DEP_DGF_PSY_BSE",
            "description": "Hospitalisations en psychiatrie secteur public remboursables",
            "type": "integer",
            "nomenclature": "-",
            "length": "8",
            "format": "default",
            "dateCreated": "",
            "dateDeleted": "",
            "dateMissing": [],
            "type_oracle": "number",
            "constraints": {
                "minimum": 0,
                "maximum": 100000000
            }
        },
        {
            "name": "dep_OQN_PSY_MNT",
            "description": "Hospitalisations en psychiatrie secteur privé remboursées",
            "type": "integer",
            "nomenclature": "-",
            "length": "8",
            "format": "default",
            "dateCreated": "",
            "dateDeleted": "",
            "dateMissing": [],
            "type_oracle": "number",
            "constraints": {
                "minimum": 0,
                "maximum": 100000000
            }
        },
        {
            "name": "dep_OQN_PSY_BSE",
            "description": "Hospitalisations en psychiatrie secteur privé remboursables",
            "type": "integer",
            "nomenclature": "-",
            "length": "8",
            "format": "default",
            "dateCreated": "",
            "dateDeleted": "",
            "dateMissing": [],
            "type_oracle": "number",
            "constraints": {
                "minimum": 0,
                "maximum": 100000000
            }
        },
        {
            "name": "DEP_DGF_SSR_MNT",
            "description": "Hospitalisations en SSR secteur public remboursées",
            "type": "integer",
            "nomenclature": "-",
            "length": "8",
            "format": "default",
            "dateCreated": "",
            "dateDeleted": "",
            "dateMissing": [],
            "type_oracle": "number",
            "constraints": {
                "minimum": 0,
                "maximum": 100000000
            }
        },
        {
            "name": "DEP_DGF_SSR_BSE",
            "description": "Hospitalisations en SSR secteur public remboursables",
            "type": "integer",
            "nomenclature": "-",
            "length": "8",
            "format": "default",
            "dateCreated": "",
            "dateDeleted": "",
            "dateMissing": [],
            "type_oracle": "number",
            "constraints": {
                "minimum": 0,
                "maximum": 100000000
            }
        },
        {
            "name": "dep_OQN_SSR_MNT",
            "description": "Hospitalisations en SSR secteur privé remboursées",
            "type": "integer",
            "nomenclature": "-",
            "length": "8",
            "format": "default",
            "dateCreated": "",
            "dateDeleted": "",
            "dateMissing": [],
            "type_oracle": "number",
            "constraints": {
                "minimum": 0,
                "maximum": 100000000
            }
        },
        {
            "name": "dep_OQN_SSR_BSE",
            "description": "Hospitalisations en SSR secteur privé remboursables",
            "type": "integer",
            "nomenclature": "-",
            "length": "8",
            "format": "default",
            "dateCreated": "",
            "dateDeleted": "",
            "dateMissing": [],
            "type_oracle": "number",
            "constraints": {
                "minimum": 0,
                "maximum": 100000000
            }
        },
        {
            "name": "DEP_DGF_HAD_MNT",
            "description": "Hospitalisations en HAD secteur public remboursées",
            "type": "integer",
            "nomenclature": "-",
            "length": "8",
            "format": "default",
            "dateCreated": "",
            "dateDeleted": "",
            "dateMissing": [],
            "type_oracle": "number",
            "constraints": {
                "minimum": 0,
                "maximum": 100000000
            }
        },
        {
            "name": "DEP_DGF_HAD_BSE",
            "description": "Hospitalisations en HAD secteur public remboursables",
            "type": "integer",
            "nomenclature": "-",
            "length": "8",
            "format": "default",
            "dateCreated": "",
            "dateDeleted": "",
            "dateMissing": [],
            "type_oracle": "number",
            "constraints": {
                "minimum": 0,
                "maximum": 100000000
            }
        },
        {
            "name": "DEP_OQN_HAD_MNT",
            "description": "Hospitalisations en HAD secteur privé remboursées",
            "type": "integer",
            "nomenclature": "-",
            "length": "8",
            "format": "default",
            "dateCreated": "",
            "dateDeleted": "",
            "dateMissing": [],
            "type_oracle": "number",
            "constraints": {
                "minimum": 0,
                "maximum": 100000000
            }
        },
        {
            "name": "DEP_OQN_HAD_BSE",
            "description": "Hospitalisations en HAD secteur privé remboursables",
            "type": "integer",
            "nomenclature": "-",
            "length": "8",
            "format": "default",
            "dateCreated": "",
            "dateDeleted": "",
            "dateMissing": [],
            "type_oracle": "number",
            "constraints": {
                "minimum": 0,
                "maximum": 100000000
            }
        },
        {
            "name": "TOT_DEP_HOP_MNT",
            "description": "Total hospitalisations (tous secteurs) remboursées",
            "type": "integer",
            "nomenclature": "-",
            "length": "8",
            "format": "default",
            "dateCreated": "",
            "dateDeleted": "",
            "dateMissing": [],
            "type_oracle": "number",
            "constraints": {
                "minimum": 0,
                "maximum": 100000000
            }
        },
        {
            "name": "TOT_DEP_HOP_BSE",
            "description": "Total hospitalisations (tous secteurs) remboursables",
            "type": "integer",
            "nomenclature": "-",
            "length": "8",
            "format": "default",
            "dateCreated": "",
            "dateDeleted": "",
            "dateMissing": [],
            "type_oracle": "number",
            "constraints": {
                "minimum": 0,
                "maximum": 100000000
            }
        },
        {
            "name": "DEP_IJMALATMP_MNT",
            "description": "Indemnités journalières maladie et AT/MP remboursées",
            "type": "integer",
            "nomenclature": "-",
            "length": "8",
            "format": "default",
            "dateCreated": "",
            "dateDeleted": "",
            "dateMissing": [],
            "type_oracle": "number",
            "constraints": {
                "minimum": 0,
                "maximum": 100000000
            }
        },
        {
            "name": "DEP_IJMALATMP_BSE",
            "description": "Indemnités journalières maladie et AT/MP remboursables",
            "type": "integer",
            "nomenclature": "-",
            "length": "8",
            "format": "default",
            "dateCreated": "",
            "dateDeleted": "",
            "dateMissing": [],
            "type_oracle": "number",
            "constraints": {
                "minimum": 0,
                "maximum": 100000000
            }
        },
        {
            "name": "DEP_IJMATER_MNT",
            "description": "Indemnités journalières maternité et autres prestations remboursées",
            "type": "integer",
            "nomenclature": "-",
            "length": "8",
            "format": "default",
            "dateCreated": "",
            "dateDeleted": "",
            "dateMissing": [],
            "type_oracle": "number",
            "constraints": {
                "minimum": 0,
                "maximum": 100000000
            }
        },
        {
            "name": "DEP_IJMATER_BSE",
            "description": "Indemnités journalières maternité et autres prestations remboursables",
            "type": "integer",
            "nomenclature": "-",
            "length": "8",
            "format": "default",
            "dateCreated": "",
            "dateDeleted": "",
            "dateMissing": [],
            "type_oracle": "number",
            "constraints": {
                "minimum": 0,
                "maximum": 100000000
            }
        },
        {
            "name": "DEP_INVALID_MNT",
            "description": "Prestations d'invalidité remboursées",
            "type": "integer",
            "nomenclature": "-",
            "length": "8",
            "format": "default",
            "dateCreated": "",
            "dateDeleted": "",
            "dateMissing": [],
            "type_oracle": "number",
            "constraints": {
                "minimum": 0,
                "maximum": 100000000
            }
        },
        {
            "name": "DEP_INVALID_BSE",
            "description": "Prestations d'invalidité remboursables",
            "type": "integer",
            "nomenclature": "-",
            "length": "8",
            "format": "default",
            "dateCreated": "",
            "dateDeleted": "",
            "dateMissing": [],
            "type_oracle": "number",
            "constraints": {
                "minimum": 0,
                "maximum": 100000000
            }
        },
        {
            "name": "TOT_DEP_PRESESPECE_MNT",
            "description": "Total prestations en espèces remboursées",
            "type": "integer",
            "nomenclature": "-",
            "length": "8",
            "format": "default",
            "dateCreated": "",
            "dateDeleted": "",
            "dateMissing": [],
            "type_oracle": "number",
            "constraints": {
                "minimum": 0,
                "maximum": 100000000
            }
        },
        {
            "name": "TOT_DEP_PRESESPECE_BSE",
            "description": "Total prestations en espèces remboursables",
            "type": "integer",
            "nomenclature": "-",
            "length": "8",
            "format": "default",
            "dateCreated": "",
            "dateDeleted": "",
            "dateMissing": [],
            "type_oracle": "number",
            "constraints": {
                "minimum": 0,
                "maximum": 100000000
            }
        },
        {
            "name": "TOT_DEP_MNT",
            "description": "Total des dépenses remboursées",
            "type": "integer",
            "nomenclature": "-",
            "length": "8",
            "format": "default",
            "dateCreated": "",
            "dateDeleted": "",
            "dateMissing": [],
            "type_oracle": "number",
            "constraints": {
                "minimum": 0,
                "maximum": 100000000
            }
        },
        {
            "name": "TOT_DEP_BSE",
            "description": "Total des dépenses remboursables",
            "type": "integer",
            "nomenclature": "-",
            "length": "8",
            "format": "default",
            "dateCreated": "",
            "dateDeleted": "",
            "dateMissing": [],
            "type_oracle": "number",
            "constraints": {
                "minimum": 0,
                "maximum": 100000000
            }
        },
        {
            "name": "version",
            "description": "Version de la cartographie",
            "type": "string",
            "nomenclature": "-",
            "length": "2",
            "format": "default",
            "dateCreated": "",
            "dateDeleted": "",
            "dateMissing": [],
            "type_oracle": "string",
            "constraints": {
                "maximum": 2
            }
        }
    ],
    "name": "CT_DEP_AAAA_GN",
    "title": "Table dépenses de la cartographie des pathologies pour l'année AAAA et l'algorithme N",
    "description": "Champ : Regime general",
    "produit": "CARTOGRAPHIE_PATHOLOGIES",
    "missingValues": [
        ""
    ],
    "foreignKeys": [
        {
            "fields": "id_carto",
            "reference": {
                "resource": "CT_IDE_AAAA_GN",
                "fields": "id_carto"
            }
        }
    ],
    "history": {
        "dateCreated": "",
        "dateDeleted": "",
        "dateMissing": []
    }
}