ETA_NUM_EPMSI,FOR_NUM,FOR_NUM_ORI,ETA_NUM_TWO,IPP_IRR_CRY,SEJ_IDT,AGE_ANN,AGE_JOU,COD_SEX,BDI_COD,BDI_DEP,FOR_ACT,SEC_NUM,MOD_SOI,ORD_NUM,RAL_ACT_MOI,RAL_ACT_ANN,ACT_NAT,ACT_LIEU,PRO_CAT,INT_NBR,ANO_IND,ACT_LIB_IND,ETB_SAN_AUTOR,DGN_PAL,NBR_DGN
haHoKysholbSI,tfFvqbAe,cz,KvGzDJyBNqe,TiItWYuZgJBjmkTGQ,Aw,-107967089.2396,3514628310.071,AdxiUEcG,HDinVkEUqUGcwxTbVTD,tCJE,mj,tgAvExXqPTePHoNaI,x,mZsVZwAcmzCnqCsNmP,bDPTitf,ojvqEDZKs,uZubwzwJSlFensZ,kkwEGtaeDpklQOqlbh,fmfsysVqECeQQe,-2418029491.3246,oBHGsDvOoCCJs,Bt,hX,G972,-4812570601.0311
rLugGhNek,rBjdAcWVuSljeinYeNT,HHcIvWObTuYijJeZdsbL,HpwcpGC,dJisS,VZrJcdRWWG,-5438337911.0133,-9105756355.9411,I,fRYJ,yZKCdMvUJmnfUF,Vl,JmN,EMyzBbusMVkoybHOxG,WteUplRMN,QgvtlLhHWPIkUxZ,tJMiAkYRajNGZMLYUOYd,Uszs,BDsMvpxat,BJxWNOB,1341963343.5923,oRxiKSPhioZxVOwN,iTHqJDgslFYeVY,lNrAPBcFsQrcnM,G969,-9132778976.762
ipqVXm,FONjBbpYsnT,geMw,UgYcxiv,sOqaKwPi,xBPbzpNiXUUyNwugrz,-4890521524.8558,-3133926549.1482,rXkpekOFCaEo,dQCjXWP,kxioUaaUbyRr,wU,QiTey,pHCDoKQGAaOBbzrnxC,,PgszKvvQiIXVMfGaCo,ZhUPuHyfGbfgxJfPcF,IAOaldqloYNWxTxAOiE,CixFPgt,hbvzkWaKNN,1911850253.1424,Jq,,HxaS,G97,1640606842.5321
LxwREvYVOEcoVDjNZZDI,G,XXwyt,sMEnAwVXRh,sKs,JmyFfdSSjWrFXetbaSI,-2073401805.5445,2880394540.3966,QzHH,WcRf,vfbEFBszxAJsDpwXynEJ,GuqcUIOOXyGBTzcoy,FOJV,,QRqgUGLE,npEOMOBHoQvoJHH,,F,IgHayzEvTxeI,eURIImoG,-1002822022.8909,KkZIZ,uDSNnQ,RMkCZBkicaMaMpwQwybJ,G978,-7749756643.7776
TMo,tgaIXNbdkzNOHQsrula,xulZRsHxThWKJTQTWeO,yMUJqCnjoMFOhHzqZX,ohX,KpvDRoPMQHAPaef,-2453698046.1775,-4315740025.1942,STQBZKYMBl,AJvuqldmjpyI,zFuYBKixVBzA,NxamguptDA,GNRJamFExxgHKRyaxY,dApTBraRQTkRqki,DoNmNnND,AeEvPjsucVwAsUgZZI,GoBZfiJchJEHAq,mgzBFize,qrgKXuzFdhYQw,RjhzvnsEBIW,-859603492.1056,MmTKJxtpwo,mW,FpeCyaDGXjsp,F1955,2215535649.943
R,YfenN,Xxzepf,bBEYliwpinKwulZgSKmU,YIhYQuZuBAaXaBx,DQhDViUqyKKbNiXQ,9931484603.093,8986756133.0001,WUlfh,giytpPzBspeeDVPotMy,JsiZTXTG,uiMzqAQftLgrqSVSSdTE,GbsM,CfkWIylCJJlbTkgMkI,eccFdcSXoiqsTHi,,svqpFEWoOUvvafpvaV,nCDGTelgkZW,pzRYMcWXetisFbtXAlwv,lZgGIsXqZzOGL,-3766980042.4921,rW,NzewftzYrhb,hpNeGRiD,G969,-4072240834.0855
lerPljEaeVsBSPNPhar,QS,hygjTYydiycyQmt,OjKdlevacIpSTDKN,oLXPjkZHBrBKPzSkUKJK,qJHoAZbhCUbZqS,-1836055993.3361,-6846596624.5247,oVkjZTjMKeCBJGnKX,ZqOEQIXSNKxmYfUqvy,SJlp,rdcmuwUQpJaZAFOOTTww,L,JSwyzyEuVRnlxzmvzVMA,gnAZQenxjiQ,hNwoccv,IeDgSbP,glqujukzejFpD,AAxbbDpTWG,AxlkPxBltwoELNQqEfI,-3733252776.0486,fExkYjIFzTKPOPFQsA,nuxlaYxZEU,StkNWjDraCdWGYowGhZj,G971,6145043868.2238
qiJieiuQC,uPTrzHyyXkeb,cJQpvNzsa,GJMWKtiwhvfAAKdKeFF,IkXmzrTBeMnwERccpf,fnhhSBcGcfB,5437879896.7943,-2240540751.5448,GajjQlJjtyVcDgVN,qZxMpd,nOuvuV,,dzGpMYETO,S,PfFAdxZzxVH,,zzxCLBOQsbJJtXlxBJ,UYBHRDYLPyorB,VWYRHoWxSJuhBWrMGJ,MuCWpehZMTBlpat,-4102810779.9684,pisqYR,lvZxbHjhkXgszdObVvX,vEStKRzbJNCtpR,G97,-8103245301.6756
xApSXFeoJirGSVrcGI,KodQDOLPZocoL,jeMZBPJOa,,GBXqemfKyicLpiKuOg,ioPWmTvRQ,5210733760.1777,1799873529.4463,YR,,DEceCOYvVolcbatv,J,QcqITciKOYcgGFRSjHb,OnaUC,cntThOOgGJXykhSzWp,basolgjqWbXoZNTipT,WjcakgClLnOVQiv,CERSJuirXsI,RWYwqGUbiT,QwfUumbOn,615449224.7125,HRKofToSIWrYoEGPNMr,rAnfBMTqwng,vAGFedAzeVYOWDpQdR,G970,4002007475.9114
okVojOSRVGCK,ycfQdpyVyDKx,oM,IgbRDDrORSSsXJQmcq,iLDaAEomQ,gdeirEJSpXwovgHoeRff,-3799813026.2934,-244084173.7432,xaJuxsu,yPcfKSLqdc,J,qGM,mhsXfgMpPgmT,cQzJzbb,uVrxvjggpBiihxA,bnoQ,iMKgjAVc,XGj,ZHKDydChcqStKlzwK,QCdnrMrTMWPy,-2075559568.0116,Or,zWL,,F1952,8657920461.3451
