TYP_ART,ETA_NUM_EPMSI,ETA_NUM_TWO,RIP_NUM,FAC_NUM,ACT_DAT_COMP,ACT_MOI,ACT_ANN,DEL_DAT_ENT,PSH_MDT,PSH_DMT,CCAM_COD,DOC_ACT,ACV_ACT,PHA_ACT,MOD_ACT1,MOD_ACT2,MOD_ACT3,MOD_ACT4,ANP_ACT,REM_EXP_ACT,DENT_NUM_1,DENT_NUM_2,DENT_NUM_3,DENT_NUM_4,DENT_NUM_5,DENT_NUM_6,DENT_NUM_7,DENT_NUM_8,DENT_NUM_9,DENT_NUM_10,DENT_NUM_11,DENT_NUM_12,DENT_NUM_13,DENT_NUM_14,DENT_NUM_15,DENT_NUM_16
haHoKysholbSI,s,tfFvqbAe,xulZRsHxThWKJTQTWeO,cz,KvGzDJyBNqe,TiItWYuZgJBjmkTGQ,Aw,-107967089.2396,GJkJopq,AdxiUEcG,HDinVkEUqUGcwxTbVTD,tCJE,mj,tgAvExXqPTePHoNaI,x,mZsVZwAcmzCnqCsNmP,bDPTitf,ojvqEDZKs,uZubwzwJSlFensZ,kkwEGtaeDpklQOqlbh,fmfsysVqECeQQe,mzrIhRTnbONZZWO,oBHGsDvOoCCJs,Bt,hX,qhvMpRUBSVCGLE,g,DsS,fjZmWNqGqa,MY,EhDLltKG,CZtuZwCDlhrnhHuhrGk,LQRcDGSREUwXRB,dDWCtmpAyts,pJEushmm,qVQtgU
rLugGhNek,jfwiPKtMQfUZX,rBjdAcWVuSljeinYeNT,cz,HHcIvWObTuYijJeZdsbL,HpwcpGC,dJisS,VZrJcdRWWG,-5438337911.0133,qxrwzSIbRtyhQNEalc,I,fRYJ,yZKCdMvUJmnfUF,Vl,JmN,EMyzBbusMVkoybHOxG,WteUplRMN,QgvtlLhHWPIkUxZ,tJMiAkYRajNGZMLYUOYd,Uszs,BDsMvpxat,BJxWNOB,gl,oRxiKSPhioZxVOwN,iTHqJDgslFYeVY,lNrAPBcFsQrcnM,CXamHB,ewMuY,QAjRMgnZRT,byjLkmPwPWiMwc,RtMiISSNTxV,,dTnKV,,,JmflvlyuhqXYIEG,SIayEp
ipqVXm,s,FONjBbpYsnT,HHcIvWObTuYijJeZdsbL,geMw,UgYcxiv,sOqaKwPi,xBPbzpNiXUUyNwugrz,-4890521524.8558,,rXkpekOFCaEo,dQCjXWP,kxioUaaUbyRr,wU,QiTey,pHCDoKQGAaOBbzrnxC,,PgszKvvQiIXVMfGaCo,ZhUPuHyfGbfgxJfPcF,IAOaldqloYNWxTxAOiE,CixFPgt,hbvzkWaKNN,XztfosGJniIDmBqbwV,Jq,,HxaS,hmyajsKfEOLYwWjBMS,sujAejjCZJmAznHJCt,WFibCgwFqscfXh,wpzggbne,sX,AJwFbAXB,zKS,KDmjMiFtRImR,DQbOLIpVeyMYv,rYYDffKggI,XsMXxDnlPxSAHjglmjWd
LxwREvYVOEcoVDjNZZDI,HYPvDdkPCQiNgUSPvR,G,Xxzepf,XXwyt,sMEnAwVXRh,sKs,JmyFfdSSjWrFXetbaSI,-2073401805.5445,hmxFJFhwXAClL,QzHH,WcRf,vfbEFBszxAJsDpwXynEJ,GuqcUIOOXyGBTzcoy,FOJV,,QRqgUGLE,npEOMOBHoQvoJHH,,F,IgHayzEvTxeI,eURIImoG,tko,KkZIZ,uDSNnQ,RMkCZBkicaMaMpwQwybJ,qLXDpZJKEyD,ZjrOSfE,mNhw,nCNKngtkE,OLUwoFpuAxbFxwqr,drinroTZbZwZsT,SMkl,Ah,FFZNMl,zZEiXKV,
TMo,jfwiPKtMQfUZX,tgaIXNbdkzNOHQsrula,cz,xulZRsHxThWKJTQTWeO,yMUJqCnjoMFOhHzqZX,ohX,KpvDRoPMQHAPaef,-2453698046.1775,rDLEEbouUAJLALHRf,STQBZKYMBl,AJvuqldmjpyI,zFuYBKixVBzA,NxamguptDA,GNRJamFExxgHKRyaxY,dApTBraRQTkRqki,DoNmNnND,AeEvPjsucVwAsUgZZI,GoBZfiJchJEHAq,mgzBFize,qrgKXuzFdhYQw,RjhzvnsEBIW,GtqNBkjcdhihpTltxrCj,MmTKJxtpwo,mW,FpeCyaDGXjsp,eKrwZnLYMhEhtRlwYq,Vh,gFrBIzXjM,m,FdCt,wtTAFXmgJXdDZp,lgtFoCijEdNm,RsKQpPhDnHs,bKlLMLDjMXJxEyBPmW,SdPqKWFGhBE,dOazJJGQhkIxutZnZY
R,vqISFDWyhT,YfenN,XXwyt,Xxzepf,bBEYliwpinKwulZgSKmU,YIhYQuZuBAaXaBx,DQhDViUqyKKbNiXQ,9931484603.093,alhBYtODRAVQUkeQJ,WUlfh,giytpPzBspeeDVPotMy,JsiZTXTG,uiMzqAQftLgrqSVSSdTE,GbsM,CfkWIylCJJlbTkgMkI,eccFdcSXoiqsTHi,,svqpFEWoOUvvafpvaV,nCDGTelgkZW,pzRYMcWXetisFbtXAlwv,lZgGIsXqZzOGL,vGt,rW,NzewftzYrhb,hpNeGRiD,SZApvR,rPOIOmEFQPrj,QdnhBTqdiqdQYfVhKD,GtpGEuS,tDvtPzJSohFqdYffE,Jyt,mKl,TBqhJaruJCVlFzVFw,toNTfcQYGWCYeLU,EWahgDWyapfYdQESbj,EpfBhE
lerPljEaeVsBSPNPhar,s,QS,HHcIvWObTuYijJeZdsbL,hygjTYydiycyQmt,OjKdlevacIpSTDKN,oLXPjkZHBrBKPzSkUKJK,qJHoAZbhCUbZqS,-1836055993.3361,PuzDuAOyRKJv,oVkjZTjMKeCBJGnKX,ZqOEQIXSNKxmYfUqvy,SJlp,rdcmuwUQpJaZAFOOTTww,L,JSwyzyEuVRnlxzmvzVMA,gnAZQenxjiQ,hNwoccv,IeDgSbP,glqujukzejFpD,AAxbbDpTWG,AxlkPxBltwoELNQqEfI,axyOAQautNRi,fExkYjIFzTKPOPFQsA,nuxlaYxZEU,StkNWjDraCdWGYowGhZj,bWqNEhrCpRqhv,TCYyZxRfKGBFihSwd,gupAbRMIQcMfdWEApe,iOMfCnr,RChNpunmVw,qgXOcfIFJfgVD,XViOfEuTohnUM,zGKMeYJZNbixK,IdFxvyOscCYN,NsAgrLEIbDMmGrs,PEtgoju
qiJieiuQC,SQxD,uPTrzHyyXkeb,geMw,cJQpvNzsa,GJMWKtiwhvfAAKdKeFF,IkXmzrTBeMnwERccpf,fnhhSBcGcfB,5437879896.7943,z,GajjQlJjtyVcDgVN,qZxMpd,nOuvuV,,dzGpMYETO,S,PfFAdxZzxVH,,zzxCLBOQsbJJtXlxBJ,UYBHRDYLPyorB,VWYRHoWxSJuhBWrMGJ,MuCWpehZMTBlpat,bgBVqxhPW,pisqYR,lvZxbHjhkXgszdObVvX,vEStKRzbJNCtpR,Nr,MWChJUYWfmvJzkL,qFXwMMIoIAjt,RKtnGJDANPFFsRauU,OEbykASSHUKtGrlEvQX,zRPNbRjbLLPTn,SEmXfcRSz,PafnXEwXVB,nSHBRTGFWSNaIF,ssSmqFzIBXPD,
xApSXFeoJirGSVrcGI,NKgkWdGhlybGJBzBgxj,KodQDOLPZocoL,cJQpvNzsa,jeMZBPJOa,,GBXqemfKyicLpiKuOg,ioPWmTvRQ,5210733760.1777,IWHCEeurvsaYdJUMc,YR,,DEceCOYvVolcbatv,J,QcqITciKOYcgGFRSjHb,OnaUC,cntThOOgGJXykhSzWp,basolgjqWbXoZNTipT,WjcakgClLnOVQiv,CERSJuirXsI,RWYwqGUbiT,QwfUumbOn,,HRKofToSIWrYoEGPNMr,rAnfBMTqwng,vAGFedAzeVYOWDpQdR,vUw,XYdpfksXFNqG,iRQvQXTpCVi,s,hcAg,wyKtXEmr,HpsZBRmMVDKVlqsJ,waYxylnRIRNjhzpZG,GFWHCNVJSNqlDfRq,xiqQVJTrIRtgfjyz,sYozaevCkZyEzcI
okVojOSRVGCK,jfwiPKtMQfUZX,ycfQdpyVyDKx,cz,oM,IgbRDDrORSSsXJQmcq,iLDaAEomQ,gdeirEJSpXwovgHoeRff,-3799813026.2934,dHXjELAHFXiDOknNUIA,xaJuxsu,yPcfKSLqdc,J,qGM,mhsXfgMpPgmT,cQzJzbb,uVrxvjggpBiihxA,bnoQ,iMKgjAVc,XGj,ZHKDydChcqStKlzwK,QCdnrMrTMWPy,QayHjKwhnVMhkhGsAyV,Or,zWL,,gDBjFcxNktgeCxWvjuU,VtKsJaJtyzgKhIx,dlVPrBfemDNsGaOgeIFc,KHsJVUItOgXt,KHZQUrhcnam,TexxOreRH,Mpb,k,Mwfafmrjiold,vdkUPRYH,XIeFADROdvIPNIiI
