TYP_ART,ETA_NUM_EPMSI,ETA_NUM_TWO,RIP_NUM,FAC_NUM,DEL_DAT_ENT,ENT_MOI,ENT_ANN,LPP_COD,LPP_QUA,LPP_PU_DEV,FAC_MNT,LPP_PRI_UNI,MNT_UNI_ECA,TOT_MNT_ECA,TIP_PRS_IDE
tfFvqbAe,s,cz,xulZRsHxThWKJTQTWeO,KvGzDJyBNqe,-9650194581.3769,Aw,oXIvSJrfpuRxEOf,GJkJopq,6462206814.1958,6933248144.2027,-1596340657.1845,-8137834266.5628,9683837010.8515,-8253007141.9565,2331043
rBjdAcWVuSljeinYeNT,jfwiPKtMQfUZX,HHcIvWObTuYijJeZdsbL,cz,HpwcpGC,7831465343.6052,VZrJcdRWWG,SM,qxrwzSIbRtyhQNEalc,-9477640368.6027,1223310805.3007,-2735210060.6983,9433118399.7958,-3331754679.7069,-5390458008.9654,2330977
FONjBbpYsnT,s,geMw,HHcIvWObTuYijJeZdsbL,UgYcxiv,-4302776650.5216,xBPbzpNiXUUyNwugrz,ZrDamrBrSSoCNgBiILvn,,-5784587201.3741,-902491951.8849,-6302466244.771,-322800390.7271,3474032493.3827,-1778778587.2217,2330470
G,HYPvDdkPCQiNgUSPvR,XXwyt,Xxzepf,sMEnAwVXRh,-4020472450.8208,JmyFfdSSjWrFXetbaSI,,hmxFJFhwXAClL,2368435386.9922,-2956501726.1608,365654563.3495,-5149545970.0387,-6072191655.7095,-3784346028.7983,2330977
tgaIXNbdkzNOHQsrula,jfwiPKtMQfUZX,xulZRsHxThWKJTQTWeO,cz,yMUJqCnjoMFOhHzqZX,5840685213.1086,KpvDRoPMQHAPaef,ERyIoUgZkPiYKZqvpA,rDLEEbouUAJLALHRf,-8034310693.262,1717027682.6967,-9827890959.8246,622476596.1451,-2911070707.1795,1319117815.2301,2330428
YfenN,vqISFDWyhT,Xxzepf,XXwyt,bBEYliwpinKwulZgSKmU,-3510588050.4354,DQhDViUqyKKbNiXQ,aOeXxdhCQKbX,alhBYtODRAVQUkeQJ,2402626197.5372,714994885.4615,9378724134.3897,-4289115290.704,6267319063.6412,901274075.677,2331043
QS,s,hygjTYydiycyQmt,HHcIvWObTuYijJeZdsbL,OjKdlevacIpSTDKN,7294207733.8052,qJHoAZbhCUbZqS,ka,PuzDuAOyRKJv,-8922195608.0311,6549125535.5869,6027625120.3292,7252607541.0328,-5043008929.7748,6141988856.6075,2330977
uPTrzHyyXkeb,SQxD,cJQpvNzsa,geMw,GJMWKtiwhvfAAKdKeFF,-1049747355.7225,fnhhSBcGcfB,j,z,9213081156.0848,-4709156025.5593,5146239772.1731,-9177996930.7825,-827773497.0757,8363102145.672,2332114
KodQDOLPZocoL,NKgkWdGhlybGJBzBgxj,jeMZBPJOa,cJQpvNzsa,,964598127.0019,ioPWmTvRQ,,IWHCEeurvsaYdJUMc,9608587484.3015,-432418773.2257,3429686036.8365,-7833045320.9856,7546028429.9418,441815056.8735,2331557
ycfQdpyVyDKx,jfwiPKtMQfUZX,oM,cz,IgbRDDrORSSsXJQmcq,-2856560103.4002,gdeirEJSpXwovgHoeRff,wpdLGbVRl,dHXjELAHFXiDOknNUIA,422553005.4245,-3044299543.0856,-9406859823.5015,5343200908.5739,-2166830776.6518,-1506254772.2343,2331540
