{
    "fields": [
        {
            "name": "id_carto",
            "description": "Identifiant bénéficiaire cartographie",
            "type": "string",
            "nomenclature": "-",
            "length": "18",
            "format": "default",
            "constraints": {
                "unique": true
            },
            "dateCreated": "",
            "dateDeleted": "",
            "dateMissing": [],
            "observation": "",
            "regle_gestion": "Construction de l'identifiant : Si identifiant bénéficiaire (ben_nir_ano) renseigné, id_carto = ben_nir_ano||\"U\" ; sinon, si qualité d'affiliation du bénéficiaire (ben_qaf_cod) = 10 alors id_carto = ass_nir_ano||\"U\" ; sinon id_carto = ben_nir_psa||ben_rng_gem",
            "type_oracle": "string"
        },
        {
            "name": "ben_nir_psa",
            "description": "Identifiant anonyme du patient dans le SNIIRAM",
            "type": "string",
            "nomenclature": "-",
            "length": "17",
            "format": "default",
            "dateCreated": "",
            "dateDeleted": "",
            "dateMissing": [],
            "observation": "",
            "regle_gestion": "",
            "type_oracle": "string"
        },
        {
            "name": "ben_rng_gem",
            "description": "rang de naissance du bénéficiaire",
            "type": "number",
            "nomenclature": "IR_BER_V",
            "length": "2",
            "format": "default",
            "dateCreated": "",
            "dateDeleted": "",
            "dateMissing": [],
            "observation": "",
            "regle_gestion": "La règle de calcul du rang du bénéficiaire dans le SNIIRAM est la suivante :\n- le rang de louvreur de droits est toujours égal à 1,\n- si un ayant droit a la même date de naissance que louvreur de droits, son rang est égal à 2,\n- un enfant né dune naissance unique a un rang égal à 1,\n- lorsquil y a des naissances multiples, chaque enfant est différencié par son rang (1 pour le 1er, 2 pour le second, ).",
            "type_oracle": "number"
        },
        {
            "name": "version",
            "description": "Version de la cartographie",
            "type": "string",
            "nomenclature": "-",
            "length": "2",
            "format": "default",
            "dateCreated": "",
            "dateDeleted": "",
            "dateMissing": [],
            "observation": "",
            "regle_gestion": "",
            "type_oracle": "string"
        }
    ],
    "name": "CT_IDE_AAAA_GN",
    "title": "Table individus de la cartographie des pathologies pour l'année AAAA et l'algorithme N",
    "produit": "CARTOGRAPHIE_PATHOLOGIES",
    "missingValues": [
        ""
    ],
    "primaryKey": [
        "ben_nir_psa",
        "ben_rng_gem"
    ],
    "foreignKeys": [
        {
            "fields": [
                "ben_nir_psa",
                "ben_rng_gem"
            ],
            "reference": {
                "resource": "IR_BEN_R",
                "fields": [
                    "BEN_NIR_PSA",
                    "BEN_RNG_GEM"
                ]
            }
        }
    ],
    "history": {
        "dateCreated": "",
        "dateDeleted": "",
        "dateMissing": []
    },
    "champ": "Regime general",
    "observation": ""
}