{
    "fields": [
        {
            "name": "CLE_DCI_JNT",
            "description": "Clé technique de jointure",
            "type": "string",
            "nomenclature": "-",
            "length": null,
            "format": "default",
            "dateCreated": "",
            "dateDeleted": "",
            "dateMissing": [],
            "type_oracle": "string"
        },
        {
            "name": "BEN_IDT_ANO",
            "description": "Identifiant bénéficiaire anonymisé",
            "type": "string",
            "nomenclature": "-",
            "length": "18",
            "format": "default",
            "dateCreated": "",
            "dateDeleted": "",
            "dateMissing": [],
            "type_oracle": "string"
        },
        {
            "name": "BEN_IDT_TOP",
            "description": "Top identifiant bénéficiaire Anonymisé",
            "type": "number",
            "nomenclature": "-",
            "length": "1",
            "format": "default",
            "dateCreated": "",
            "dateDeleted": "",
            "dateMissing": [],
            "type_oracle": "number"
        },
        {
            "name": "EXE_SOI_DTD",
            "description": "Date de début d'exécution des soins",
            "type": "date",
            "nomenclature": "IR_DTE_V",
            "length": null,
            "format": "default",
            "dateCreated": "",
            "dateDeleted": "",
            "dateMissing": [],
            "type_oracle": "date"
        },
        {
            "name": "EXE_SOI_DTF",
            "description": "Date de fin d'exécution des soins",
            "type": "date",
            "nomenclature": "IR_DTE_V",
            "length": null,
            "format": "default",
            "dateCreated": "",
            "dateDeleted": "",
            "dateMissing": [],
            "type_oracle": "date"
        },
        {
            "name": "EXE_SOI_AMD",
            "description": "Date (année et mois) de début d'exécution des soins",
            "type": "string",
            "nomenclature": "-",
            "length": "6",
            "format": "default",
            "dateCreated": "",
            "dateDeleted": "",
            "dateMissing": [],
            "type_oracle": "string"
        },
        {
            "name": "EXE_SOI_AMF",
            "description": "Date (année et mois) de fin d'exécution des soins",
            "type": "string",
            "nomenclature": "-",
            "length": "6",
            "format": "default",
            "dateCreated": "",
            "dateDeleted": "",
            "dateMissing": [],
            "type_oracle": "string"
        },
        {
            "name": "PFS_EXE_NUM",
            "description": "N° du professionnel de santé exécutant",
            "type": "string",
            "nomenclature": "-",
            "length": "8",
            "format": "default",
            "dateCreated": "",
            "dateDeleted": "",
            "dateMissing": [],
            "type_oracle": "string"
        },
        {
            "name": "PFS_PRE_NUM",
            "description": "N° du professionnel de santé prescripteur",
            "type": "string",
            "nomenclature": "-",
            "length": "8",
            "format": "default",
            "dateCreated": "",
            "dateDeleted": "",
            "dateMissing": [],
            "type_oracle": "string"
        },
        {
            "name": "GRG_LIQ_COD",
            "description": "Code du grand régime de liquidation",
            "type": "string",
            "nomenclature": "-",
            "length": "3",
            "format": "default",
            "dateCreated": "",
            "dateDeleted": "",
            "dateMissing": [],
            "type_oracle": "string"
        },
        {
            "name": "CAI_LIQ_COD",
            "description": "Code de la caisse de liquidation",
            "type": "string",
            "nomenclature": "-",
            "length": "3",
            "format": "default",
            "dateCreated": "",
            "dateDeleted": "",
            "dateMissing": [],
            "type_oracle": "string"
        },
        {
            "name": "PRS_NAT_REF",
            "description": "Code de la prestation de référence",
            "type": "number",
            "nomenclature": "IR_NAT_V",
            "length": "4",
            "format": "default",
            "dateCreated": "",
            "dateDeleted": "",
            "dateMissing": [],
            "type_oracle": "number"
        },
        {
            "name": "ETB_PRE_FIN",
            "description": "N° FINESS de l'établissement prescripteur",
            "type": "string",
            "nomenclature": "-",
            "length": "8",
            "format": "default",
            "dateCreated": "",
            "dateDeleted": "",
            "dateMissing": [],
            "type_oracle": "string"
        },
        {
            "name": "ETB_EXE_FIN",
            "description": "N° FINESS de l'établissement exécutant",
            "type": "string",
            "nomenclature": "-",
            "length": "8",
            "format": "default",
            "dateCreated": "",
            "dateDeleted": "",
            "dateMissing": [],
            "type_oracle": "string"
        },
        {
            "name": "RGO_REM_TAU",
            "description": "Taux de remboursement (part Régime Obligatoire)",
            "type": "number",
            "nomenclature": "-",
            "length": "5,2",
            "format": "default",
            "dateCreated": "",
            "dateDeleted": "",
            "dateMissing": [],
            "type_oracle": "number"
        },
        {
            "name": "GRG_AFF_COD",
            "description": "Code du grand régime d'affiliation",
            "type": "string",
            "nomenclature": "-",
            "length": "3",
            "format": "default",
            "dateCreated": "",
            "dateDeleted": "",
            "dateMissing": [],
            "type_oracle": "string"
        },
        {
            "name": "CAI_AFF_COD",
            "description": "Code de la caisse d'affiliation",
            "type": "string",
            "nomenclature": "-",
            "length": "3",
            "format": "default",
            "dateCreated": "",
            "dateDeleted": "",
            "dateMissing": [],
            "type_oracle": "string"
        },
        {
            "name": "SLM_AFF_COD",
            "description": "Code de la SLM",
            "type": "string",
            "nomenclature": "-",
            "length": "3",
            "format": "default",
            "dateCreated": "",
            "dateDeleted": "",
            "dateMissing": [],
            "type_oracle": "string"
        },
        {
            "name": "FLX_TRT_DTD",
            "description": "Date d'entrée des données dans le système d'information",
            "type": "date",
            "nomenclature": "IR_DTE_V",
            "length": null,
            "format": "default",
            "dateCreated": "",
            "dateDeleted": "",
            "dateMissing": [],
            "type_oracle": "date"
        },
        {
            "name": "FLX_DIS_DTD",
            "description": "Date de mise à disposition des données",
            "type": "date",
            "nomenclature": "IR_DTE_V",
            "length": null,
            "format": "default",
            "dateCreated": "",
            "dateDeleted": "",
            "dateMissing": [],
            "type_oracle": "date"
        },
        {
            "name": "FLX_EMT_TYP",
            "description": "Type d'émetteur",
            "type": "number",
            "nomenclature": "-",
            "length": "2",
            "format": "default",
            "dateCreated": "",
            "dateDeleted": "",
            "dateMissing": [],
            "type_oracle": "number"
        },
        {
            "name": "EXE_INS_DPT",
            "description": "Département du professionnel de santé exécutant",
            "type": "string",
            "nomenclature": "-",
            "length": "3",
            "format": "default",
            "dateCreated": "",
            "dateDeleted": "",
            "dateMissing": [],
            "type_oracle": "string"
        },
        {
            "name": "PRE_INS_DPT",
            "description": "Département du professionnel de santé prescripteur",
            "type": "string",
            "nomenclature": "-",
            "length": "3",
            "format": "default",
            "dateCreated": "",
            "dateDeleted": "",
            "dateMissing": [],
            "type_oracle": "string"
        },
        {
            "name": "ETE_DPT_COD",
            "description": "Département de l'établissement exécutant",
            "type": "string",
            "nomenclature": "-",
            "length": "3",
            "format": "default",
            "dateCreated": "",
            "dateDeleted": "",
            "dateMissing": [],
            "type_oracle": "string"
        },
        {
            "name": "ETP_DPT_COD",
            "description": "Departement de l'établissement prescripteur",
            "type": "string",
            "nomenclature": "-",
            "length": "3",
            "format": "default",
            "dateCreated": "",
            "dateDeleted": "",
            "dateMissing": [],
            "type_oracle": "string"
        },
        {
            "name": "BEN_RES_DPT",
            "description": "Département de résidence du bénéficiaire",
            "type": "string",
            "nomenclature": "IR_DPT_V",
            "length": "3",
            "format": "default",
            "dateCreated": "",
            "dateDeleted": "",
            "dateMissing": [],
            "type_oracle": "string"
        },
        {
            "name": "TIP_SEQ_NUM",
            "description": "Numéro séquentiel",
            "type": "number",
            "nomenclature": "-",
            "length": "8",
            "format": "default",
            "dateCreated": "",
            "dateDeleted": "",
            "dateMissing": [],
            "type_oracle": "number"
        },
        {
            "name": "TIP_PRS_IDE",
            "description": "Code LPP du produit ou de la prestation",
            "type": "number",
            "nomenclature": "NT_LPP",
            "length": "13",
            "format": "default",
            "dateCreated": "",
            "dateDeleted": "",
            "dateMissing": [],
            "type_oracle": "number"
        },
        {
            "name": "LPP_ECT_MNT",
            "description": "Montant total de l'écart indemnisable LPP",
            "type": "number",
            "nomenclature": "-",
            "length": "7,2",
            "format": "default",
            "dateCreated": "",
            "dateDeleted": "",
            "dateMissing": [],
            "type_oracle": "number"
        },
        {
            "name": "LPP_ECU_MNT",
            "description": "Montant unitaire de l'écart indemnisable LPP",
            "type": "number",
            "nomenclature": "-",
            "length": "7,2",
            "format": "default",
            "dateCreated": "",
            "dateDeleted": "",
            "dateMissing": [],
            "type_oracle": "number"
        },
        {
            "name": "TIP_ACL_DTD",
            "description": "Date de début de location ou d'achat",
            "type": "date",
            "nomenclature": "IR_DTE_V",
            "length": null,
            "format": "default",
            "dateCreated": "",
            "dateDeleted": "",
            "dateMissing": [],
            "type_oracle": "date"
        },
        {
            "name": "TIP_ACL_DTF",
            "description": "Date de fin de location ou d'achat",
            "type": "date",
            "nomenclature": "IR_DTE_V",
            "length": null,
            "format": "default",
            "dateCreated": "",
            "dateDeleted": "",
            "dateMissing": [],
            "type_oracle": "date"
        },
        {
            "name": "TIP_ACT_PRU",
            "description": "Prix unitaire LPP du produit ou de la prestation",
            "type": "number",
            "nomenclature": "-",
            "length": "10,5",
            "format": "default",
            "dateCreated": "",
            "dateDeleted": "",
            "dateMissing": [],
            "type_oracle": "number"
        },
        {
            "name": "TIP_PRS_TYP",
            "description": "Type de prestation fournie",
            "type": "number",
            "nomenclature": "IR_PRF_V",
            "length": "1",
            "format": "default",
            "dateCreated": "",
            "dateDeleted": "",
            "dateMissing": [],
            "type_oracle": "number"
        },
        {
            "name": "TIP_PUB_PRX",
            "description": "Prix unitaire public",
            "type": "number",
            "nomenclature": "-",
            "length": "7,2",
            "format": "default",
            "dateCreated": "",
            "dateDeleted": "",
            "dateMissing": [],
            "type_oracle": "number"
        },
        {
            "name": "TIP_SIR_NUM",
            "description": "N° SIRET Fabriquant/Importateur",
            "type": "string",
            "nomenclature": "-",
            "length": "14",
            "format": "default",
            "dateCreated": "",
            "dateDeleted": "",
            "dateMissing": [],
            "type_oracle": "string"
        },
        {
            "name": "TIP_ACT_QSN",
            "description": "Quantité d'actes LPP",
            "type": "number",
            "nomenclature": "-",
            "length": "5",
            "format": "default",
            "dateCreated": "",
            "dateDeleted": "",
            "dateMissing": [],
            "type_oracle": "number"
        }
    ],
    "name": "NS_TIP_F",
    "title": "affinage Liste des Produits et Prestations (LPP)",
    "description": "",
    "produit": "DCIRS",
    "missingValues": [
        ""
    ],
    "foreignKeys": [
        {
            "fields": [
                "CLE_DCI_JNT"
            ],
            "reference": {
                "resource": "NS_PRS_F",
                "fields": [
                    "CLE_DCI_JNT"
                ]
            }
        },
        {
            "fields": [
                "BEN_IDT_ANO"
            ],
            "reference": {
                "resource": "IR_IBA_R",
                "fields": [
                    "BEN_IDT_ANO"
                ]
            }
        }
    ],
    "history": {
        "dateCreated": "",
        "dateDeleted": "",
        "dateMissing": []
    }
}