{
    "fields": [
        {
            "name": "ACV_ACT",
            "description": "Activité",
            "type": "string",
            "nomenclature": "-",
            "length": "1",
            "format": "default",
            "dateCreated": "2005",
            "dateDeleted": "",
            "dateMissing": [],
            "observation": "",
            "regle_gestion": "",
            "type_oracle": "string"
        },
        {
            "name": "ANP_ACT",
            "description": "Association non prévue",
            "type": "string",
            "nomenclature": "-",
            "length": "1",
            "format": "default",
            "dateCreated": "2005",
            "dateDeleted": "",
            "dateMissing": [],
            "observation": "",
            "regle_gestion": "",
            "type_oracle": "string"
        },
        {
            "name": "CDC_ACT",
            "description": "Code CCAM (hors extension PMSI)",
            "type": "string",
            "nomenclature": "IR_CCAM_V54",
            "length": "7",
            "format": "default",
            "dateCreated": "2005",
            "dateDeleted": "",
            "dateMissing": [],
            "observation": "",
            "regle_gestion": "",
            "type_oracle": "string"
        },
        {
            "name": "CMP_DAT",
            "description": "Dates de validité de l'acte compatibles avec les dates du RUM",
            "type": "string",
            "nomenclature": "-",
            "length": "1",
            "format": "default",
            "dateCreated": "2010",
            "dateDeleted": "",
            "dateMissing": [],
            "observation": "",
            "regle_gestion": "",
            "type_oracle": "string"
        },
        {
            "name": "DOC_ACT",
            "description": "Extension documentaire",
            "type": "string",
            "nomenclature": "-",
            "length": "1",
            "format": "default",
            "dateCreated": "2005",
            "dateDeleted": "",
            "dateMissing": [],
            "observation": "",
            "regle_gestion": "",
            "type_oracle": "string"
        },
        {
            "name": "ENT_DAT_DEL",
            "description": "Délai depuis la date d'entrée\nVariable de type Caractère de 2005 à 2013, puis de type numérique à partir de 2014",
            "type": "number",
            "nomenclature": "-",
            "length": "3",
            "format": "default",
            "dateCreated": "2005",
            "dateDeleted": "",
            "dateMissing": [],
            "observation": "",
            "regle_gestion": "",
            "type_oracle": "number"
        },
        {
            "name": "ETA_NUM",
            "description": "Numéro FINESS e-PMSI",
            "type": "string",
            "nomenclature": "-",
            "length": "9",
            "format": "default",
            "dateCreated": "2005",
            "dateDeleted": "",
            "dateMissing": [],
            "observation": "",
            "regle_gestion": "",
            "type_oracle": "string"
        },
        {
            "name": "EXT_PMSI",
            "description": "Extension PMSI",
            "type": "string",
            "nomenclature": "-",
            "length": "3",
            "format": "default",
            "dateCreated": "2015",
            "dateDeleted": "",
            "dateMissing": [],
            "observation": "",
            "regle_gestion": "",
            "type_oracle": "string"
        },
        {
            "name": "MOD_ACT",
            "description": "Modificateurs",
            "type": "string",
            "nomenclature": "-",
            "length": "4",
            "format": "default",
            "dateCreated": "2005",
            "dateDeleted": "",
            "dateMissing": [],
            "observation": "",
            "regle_gestion": "",
            "type_oracle": "string"
        },
        {
            "name": "NBR_EXE_ACT",
            "description": "Nombre de réalisations de l'acte n° 1 pendant le séjour",
            "type": "number",
            "nomenclature": "-",
            "length": "2",
            "format": "default",
            "dateCreated": "2005",
            "dateDeleted": "",
            "dateMissing": [],
            "observation": "",
            "regle_gestion": "",
            "type_oracle": "number"
        },
        {
            "name": "PHA_ACT",
            "description": "Phase",
            "type": "string",
            "nomenclature": "-",
            "length": "1",
            "format": "default",
            "dateCreated": "2005",
            "dateDeleted": "",
            "dateMissing": [],
            "observation": "",
            "regle_gestion": "",
            "type_oracle": "string"
        },
        {
            "name": "REM_EXP_ACT",
            "description": "Remboursement exceptionnel",
            "type": "string",
            "nomenclature": "-",
            "length": "1",
            "format": "default",
            "dateCreated": "2005",
            "dateDeleted": "",
            "dateMissing": [],
            "observation": "",
            "regle_gestion": "",
            "type_oracle": "string"
        },
        {
            "name": "RSA_NUM",
            "description": "N° d'index du RSA",
            "type": "string",
            "nomenclature": "-",
            "length": "10",
            "format": "default",
            "dateCreated": "2005",
            "dateDeleted": "",
            "dateMissing": [],
            "observation": "",
            "regle_gestion": "",
            "type_oracle": "string"
        },
        {
            "name": "RSS_NUM",
            "description": "Numéro de version du format du RSA",
            "type": "string",
            "nomenclature": "-",
            "length": "3",
            "format": "default",
            "dateCreated": "2005",
            "dateDeleted": "",
            "dateMissing": [],
            "observation": "",
            "regle_gestion": "",
            "type_oracle": "string"
        },
        {
            "name": "RUM_SEQ",
            "description": "N° séquentiel du RUM ayant fourni le DP",
            "type": "string",
            "length": "2",
            "dateCreated": "2008",
            "dateDeleted": "2010",
            "nomenclature": "-",
            "dateMissing": [],
            "format": "default",
            "observation": "",
            "regle_gestion": "",
            "type_oracle": "string"
        }
    ],
    "name": "T_MCOaa_nnA",
    "title": "Acte CCAM",
    "produit": "PMSI MCO",
    "missingValues": [
        ""
    ],
    "foreignKeys": [
        {
            "fields": [
                "ETA_NUM",
                "RSA_NUM"
            ],
            "reference": {
                "resource": "T_MCOaa_nnB",
                "fields": [
                    "ETA_NUM",
                    "RSA_NUM"
                ]
            }
        }
    ],
    "history": {
        "dateCreated": "2005",
        "dateDeleted": "",
        "dateMissing": []
    },
    "champ": "Public et Privé",
    "observation": "Cette Table contients les actes CCAM réalisés au cours des séjours : Lorsque le séjour < 1 jour les actes CCAM sont tous saisis -Sinon seuls les Codes \"Classants\" sont obligatoirement saisis - pour le détail des règles, il faut se référer à l'onglet \"CCAM\". Ne contient pas d'actes relatifs aux RSA fictifs pas besoin de filtrer"
}