ORG_CLE_NEW,TRS_ACT_PRU,TRS_ACT_QSN,TRS_ORD_NUM,TRS_PRS_IDE,TRS_TRS_MTF,DCT_ORD_NUM,FLX_DIS_DTD,FLX_EMT_NUM,FLX_EMT_ORD,FLX_EMT_TYP,FLX_TRT_DTD,ORG_CLE_NUM,PRS_ORD_NUM,REM_TYP_AFF
01C731222,9994864697,89077,537,14,19,6555954,26MAY1874:00:00:00,102,44627015,9746758,29MAY1874:00:00:00,01C682674,8249926,68193811
01C731221,6481970912,42652,797,11,29,10024164,25MAY1874:00:00:00,105,85015960,48222940,27MAY1874:00:00:00,01C682674,97495135,33173321
01C682675,8343930565,56845,885,16,11,34237947,26MAY1874:00:00:00,103,76998362,88283335,24MAY1874:00:00:00,01C682675,29634760,72379157
01C731221,2352705429,69783,421,14,91,86824804,27MAY1874:00:00:00,106,81878730,55290428,25MAY1874:00:00:00,01C731222,96713917,71911958
01C682674,6498573221,58268,763,15,10,10024164,27MAY1874:00:00:00,102,85015960,48222940,23MAY1874:00:00:00,01C731028,97495135,33173321
01C731222,6622034492,76704,189,21,9,11403760,22MAY1874:00:00:00,102,59396469,30404411,21MAY1874:00:00:00,01C731223,87175385,2545749
01C731221,3599060644,88005,662,19,0,34237947,19MAY1874:00:00:00,202,76998362,88283335,24MAY1874:00:00:00,01C731028,29634760,72379157
01C731033,9097267206,60650,500,12,9,76857369,26MAY1874:00:00:00,202,88354781,93105653,24MAY1874:00:00:00,01C731028,80032881,23839677
01C731030,6919764385,35723,831,16,29,45425806,19MAY1874:00:00:00,104,51516027,90460347,20MAY1874:00:00:00,01C731223,88679010,97916902
01C731029,4985605620,73978,895,21,0,10024164,26MAY1874:00:00:00,102,85015960,48222940,21MAY1874:00:00:00,01C731220,97495135,33173321
