ATT_NAT,BEN_RAT_ANO,ORG_CLE_NEW,RAT_IPP_DTE,RAT_IPP_TAU,DCT_ORD_NUM,FLX_DIS_DTD,FLX_EMT_NUM,FLX_EMT_ORD,FLX_EMT_TYP,FLX_TRT_DTD,ORG_CLE_NUM,PRS_ORD_NUM,REM_TYP_AFF
9,GJkJopq,01C731221,24MAY1874:00:00:00,89077,6555954,26MAY1874:00:00:00,102,44627015,9746758,29MAY1874:00:00:00,01C682674,8249926,68193811
3,qxrwzSIbRtyhQNEalc,01C682674,27MAY1874:00:00:00,42652,10024164,25MAY1874:00:00:00,105,85015960,48222940,27MAY1874:00:00:00,01C682674,97495135,33173321
1,,01C731223,23MAY1874:00:00:00,56845,34237947,26MAY1874:00:00:00,103,76998362,88283335,24MAY1874:00:00:00,01C682675,29634760,72379157
3,hmxFJFhwXAClL,01C731221,29MAY1874:00:00:00,69783,86824804,27MAY1874:00:00:00,106,81878730,55290428,25MAY1874:00:00:00,01C731222,96713917,71911958
3,rDLEEbouUAJLALHRf,01C731222,22MAY1874:00:00:00,58268,10024164,27MAY1874:00:00:00,102,85015960,48222940,23MAY1874:00:00:00,01C731028,97495135,33173321
0,alhBYtODRAVQUkeQJ,01C731032,21MAY1874:00:00:00,76704,11403760,22MAY1874:00:00:00,102,59396469,30404411,21MAY1874:00:00:00,01C731223,87175385,2545749
9,PuzDuAOyRKJv,01C731030,19MAY1874:00:00:00,88005,34237947,19MAY1874:00:00:00,202,76998362,88283335,24MAY1874:00:00:00,01C731028,29634760,72379157
3,z,01C682675,21MAY1874:00:00:00,60650,76857369,26MAY1874:00:00:00,202,88354781,93105653,24MAY1874:00:00:00,01C731028,80032881,23839677
2,IWHCEeurvsaYdJUMc,01C731223,27MAY1874:00:00:00,35723,45425806,19MAY1874:00:00:00,104,51516027,90460347,20MAY1874:00:00:00,01C731223,88679010,97916902
0,dHXjELAHFXiDOknNUIA,01C731032,19MAY1874:00:00:00,73978,10024164,26MAY1874:00:00:00,102,85015960,48222940,21MAY1874:00:00:00,01C731220,97495135,33173321
