ETA_NUM,RHA_VER,GEN_VER,GRC_VER,GRC_GME,GRC_RET,GRC_TOP_ERR,GRG_VER,GRG_GME,GRG_RET,GRG_TOP_ERR,TYP_GEN_RHA,RHA_NUM,RHS_NUM,AGE_ANN,COD_SEX,BDI_COD,BDI_DEP,RHS_ANT_SEJ_ENT,MOI_ANN_SOR_SEJ,HOS_TYP_UM,AUT_TYP_UM,ETA_NUM_GEO,ENT_MOD,ENT_PRV,SOR_MOD,SOR_DES,DEB_SEM,DEB_FIN,SEJ_ANT,MOI_ANN,JP_HWE,JP_WE,ANC_CHI,FP_PEC,MOR_PRP,ETL_AFF,HAB_DEP,DPL_DEP,ALI_DEP,CON_DEP,CPT_DEP,REL_DEP,NBR_DGN,NBR_CSARR,NBR_CCAM,REHOS_PRJ_THP,GMT_NUM,EXB_TOP,EXB_NBJ,EXH_NBJ,LIT_DEDIE,SCORE_RR,TYP_US
jfwiPKtMQfUZX,TiItWYuZgJBjmkTGQ,Aw,oXIvSJrfpuRxEOf,GJkJopq,AdxiUEcG,HDinVkEUqUGcwxTbVTD,tCJE,mj,tgAvExXqPTePHoNaI,x,mZsVZwAcmzCnqCsNmP,bDPTitf,ojvqEDZKs,6489389518.2656,kkwEGtaeDpklQOqlbh,fmfsysVqECeQQe,mzrIhRTnbONZZWO,-5627098997.0559,Bt,hX,qhvMpRUBSVCGLE,g,7,2,8,6,DsS,fjZmWNqGqa,-7865235954.8938,EhDLltKG,CZtuZwCDlhrnhHuhrGk,LQRcDGSREUwXRB,-3783404004.8729,pJEushmm,qVQtgU,MkCw,zITIAxzx,jEDsMbkauvCJRyIW,GsXF,AdfljPDitfnymcd,XDaFucHQm,SomNgu,-5947860927.4222,3125283704.6591,2951020987.0605,XM,TfKQLE,lL,7717609988.7525,2127086755.5295,BBtrhrxaRlBtbFbMI,-5423930248.862,nucSbkzgRvW
s,dJisS,VZrJcdRWWG,SM,qxrwzSIbRtyhQNEalc,I,fRYJ,yZKCdMvUJmnfUF,Vl,JmN,EMyzBbusMVkoybHOxG,WteUplRMN,QgvtlLhHWPIkUxZ,tJMiAkYRajNGZMLYUOYd,-6373005350.056,BDsMvpxat,BJxWNOB,gl,-9371945609.9484,iTHqJDgslFYeVY,lNrAPBcFsQrcnM,CXamHB,ewMuY,6,9,8,5,QAjRMgnZRT,byjLkmPwPWiMwc,3686852665.5737,,dTnKV,,6379744414.377,JmflvlyuhqXYIEG,SIayEp,mwbe,kiNxCpoaKHkj,PCCpSJb,BLEcW,iJuYAGWlOCTouMJUED,MZEoQcjviGcU,LDRBaIMMoKXJERhBe,-5858137918.7805,9098027538.2646,142993764.2616,Aewj,UIcrFexj,DDZVMDmYqxCp,5771631336.0745,3150231372.3563,BeOSrYZEx,-6186239627.5163,GEdwCbpGkuHICZhEuS
SQxD,sOqaKwPi,xBPbzpNiXUUyNwugrz,ZrDamrBrSSoCNgBiILvn,,rXkpekOFCaEo,dQCjXWP,kxioUaaUbyRr,wU,QiTey,pHCDoKQGAaOBbzrnxC,,PgszKvvQiIXVMfGaCo,ZhUPuHyfGbfgxJfPcF,7546535364.1411,CixFPgt,hbvzkWaKNN,XztfosGJniIDmBqbwV,-4257494453.2059,,HxaS,hmyajsKfEOLYwWjBMS,sujAejjCZJmAznHJCt,-2,4,-1,6,WFibCgwFqscfXh,wpzggbne,699252347.8217,AJwFbAXB,zKS,KDmjMiFtRImR,-3304947508.5695,rYYDffKggI,XsMXxDnlPxSAHjglmjWd,AfgSENlyx,,kLXBwUdg,EOf,qkNgeuAg,hUr,D,-6947245133.9951,9417520699.8763,566827603.0448,kNKDoDjaLe,R,YPQBllyUSXvJ,-1505437370.4978,-3855179813.1286,KXkEkqRpVd,7727193419.648,PAGwPfBL
vqISFDWyhT,sKs,JmyFfdSSjWrFXetbaSI,,hmxFJFhwXAClL,QzHH,WcRf,vfbEFBszxAJsDpwXynEJ,GuqcUIOOXyGBTzcoy,FOJV,,QRqgUGLE,npEOMOBHoQvoJHH,,-8973853.0672,IgHayzEvTxeI,eURIImoG,tko,-6547106888.8959,uDSNnQ,RMkCZBkicaMaMpwQwybJ,qLXDpZJKEyD,ZjrOSfE,8,2,7,7,mNhw,nCNKngtkE,-2616258465.0007,drinroTZbZwZsT,SMkl,Ah,-6125729626.5291,zZEiXKV,,D,xtsH,hUlNtmy,IatJFblwfYTxpCT,vpbtOLPBkKGYJML,TUJTYObXPWMbEj,lgXAkBkqdx,5091856230.5105,-8043356453.6923,7925704080.1978,fiaVGjSvojrb,bh,IB,-422607063.0562,9240069703.0168,i,4378517911.7881,lLos
s,ohX,KpvDRoPMQHAPaef,ERyIoUgZkPiYKZqvpA,rDLEEbouUAJLALHRf,STQBZKYMBl,AJvuqldmjpyI,zFuYBKixVBzA,NxamguptDA,GNRJamFExxgHKRyaxY,dApTBraRQTkRqki,DoNmNnND,AeEvPjsucVwAsUgZZI,GoBZfiJchJEHAq,9298528664.4536,qrgKXuzFdhYQw,RjhzvnsEBIW,GtqNBkjcdhihpTltxrCj,-3932472382.4318,mW,FpeCyaDGXjsp,eKrwZnLYMhEhtRlwYq,Vh,6,3,0,7,gFrBIzXjM,m,-1747707125.4713,wtTAFXmgJXdDZp,lgtFoCijEdNm,RsKQpPhDnHs,-7793733498.948,SdPqKWFGhBE,dOazJJGQhkIxutZnZY,phO,pOF,pyyh,,BTEdHRze,JOlEqeObMfoaP,VlgmXkburwyJdP,-5451464685.2776,-5185101684.3764,3999823813.3498,JWsQQEtHvJGn,BeQgah,XQYCvKUMsKHwwCwRCjmd,-9992918805.369,718378146.6259,RnJSQicSNLAOooENmkkZ,659667668.6828,ekDa
HYPvDdkPCQiNgUSPvR,YIhYQuZuBAaXaBx,DQhDViUqyKKbNiXQ,aOeXxdhCQKbX,alhBYtODRAVQUkeQJ,WUlfh,giytpPzBspeeDVPotMy,JsiZTXTG,uiMzqAQftLgrqSVSSdTE,GbsM,CfkWIylCJJlbTkgMkI,eccFdcSXoiqsTHi,,svqpFEWoOUvvafpvaV,-9929089063.8054,pzRYMcWXetisFbtXAlwv,lZgGIsXqZzOGL,vGt,-6740995549.8582,NzewftzYrhb,hpNeGRiD,SZApvR,rPOIOmEFQPrj,6,7,6,2,QdnhBTqdiqdQYfVhKD,GtpGEuS,1756949520.5036,Jyt,mKl,TBqhJaruJCVlFzVFw,9246201748.9244,EWahgDWyapfYdQESbj,EpfBhE,oueSlrDw,yGaQwXmurRCVcSdE,,eNRzAbQMvSh,POkycGogUfuG,JMwKLSote,LW,3281639280.6886,7372839738.2758,4285942037.4227,JLcJetisCtL,,,7127340921.4771,3192693817.7327,NatmuvGdOP,7389242000.0823,dwRZT
SQxD,oLXPjkZHBrBKPzSkUKJK,qJHoAZbhCUbZqS,ka,PuzDuAOyRKJv,oVkjZTjMKeCBJGnKX,ZqOEQIXSNKxmYfUqvy,SJlp,rdcmuwUQpJaZAFOOTTww,L,JSwyzyEuVRnlxzmvzVMA,gnAZQenxjiQ,hNwoccv,IeDgSbP,8472886932.7677,AAxbbDpTWG,AxlkPxBltwoELNQqEfI,axyOAQautNRi,3986275064.5553,nuxlaYxZEU,StkNWjDraCdWGYowGhZj,bWqNEhrCpRqhv,TCYyZxRfKGBFihSwd,-1,0,0,9,gupAbRMIQcMfdWEApe,iOMfCnr,4321475765.8399,qgXOcfIFJfgVD,XViOfEuTohnUM,zGKMeYJZNbixK,7300945034.7627,NsAgrLEIbDMmGrs,PEtgoju,vSZOHbXnUr,EikA,AgATDtx,HUA,EJnsgXPjsJYGe,agiUsDplCroE,KIGMVRHvTNUrBCUo,1784356496.0082,949058689.0503,4346767641.828,HCtdaDX,VvlYGCXErtexBVuMK,GPxszoxGBApKRLntgPWn,-2933566133.267,9987530576.4654,zpgaRbCiyjNwCnU,4484753527.987,hnlvia
NKgkWdGhlybGJBzBgxj,IkXmzrTBeMnwERccpf,fnhhSBcGcfB,j,z,GajjQlJjtyVcDgVN,qZxMpd,nOuvuV,,dzGpMYETO,S,PfFAdxZzxVH,,zzxCLBOQsbJJtXlxBJ,2588878264.6909,VWYRHoWxSJuhBWrMGJ,MuCWpehZMTBlpat,bgBVqxhPW,5430216633.3639,lvZxbHjhkXgszdObVvX,vEStKRzbJNCtpR,Nr,MWChJUYWfmvJzkL,7,4,6,6,qFXwMMIoIAjt,RKtnGJDANPFFsRauU,-6533319224.512,zRPNbRjbLLPTn,SEmXfcRSz,PafnXEwXVB,7048239478.1845,ssSmqFzIBXPD,,aPa,eJYgqkPIDWzjjvWGZtmL,wsKbYK,ve,KLbRXUQkxxTTHL,cNvPb,DmkuFvmn,-1567055584.1995,4383065958.5752,-5543610756.3428,bMAZgZrKfdhNiyaGUGj,L,OUKHSSPqQlondBM,-265019085.8848,5019678538.6438,XAbMsfxVCEPXvYlJbNKY,-358260177.2167,CvktNLk
Xwmnyydoo,GBXqemfKyicLpiKuOg,ioPWmTvRQ,,IWHCEeurvsaYdJUMc,YR,,DEceCOYvVolcbatv,J,QcqITciKOYcgGFRSjHb,OnaUC,cntThOOgGJXykhSzWp,basolgjqWbXoZNTipT,WjcakgClLnOVQiv,-3914048900.013,RWYwqGUbiT,QwfUumbOn,,291048952.5653,rAnfBMTqwng,vAGFedAzeVYOWDpQdR,vUw,XYdpfksXFNqG,6,5,8,9,iRQvQXTpCVi,s,-8665154130.5946,wyKtXEmr,HpsZBRmMVDKVlqsJ,waYxylnRIRNjhzpZG,-8409779357.9588,xiqQVJTrIRtgfjyz,sYozaevCkZyEzcI,xJZoVnJRCpFn,nMkwuhNs,BrqzXR,xcwEQGpNSOOzyP,wZDp,aJwDmwrnVbQ,Mcb,7120477521.7704,8513673609.813,-6496909533.5195,uSAGkitHERDBgc,JXkEiJoXhJjT,hnXCgofJW,-1174537874.3599,770444073.3893,nfZimMVyksvLJyTqx,5121543935.7746,mbciBsBARf
s,iLDaAEomQ,gdeirEJSpXwovgHoeRff,wpdLGbVRl,dHXjELAHFXiDOknNUIA,xaJuxsu,yPcfKSLqdc,J,qGM,mhsXfgMpPgmT,cQzJzbb,uVrxvjggpBiihxA,bnoQ,iMKgjAVc,-3181498358.6673,ZHKDydChcqStKlzwK,QCdnrMrTMWPy,QayHjKwhnVMhkhGsAyV,-5283862237.6487,zWL,,gDBjFcxNktgeCxWvjuU,VtKsJaJtyzgKhIx,0,7,7,6,dlVPrBfemDNsGaOgeIFc,KHsJVUItOgXt,13577453.5387,TexxOreRH,Mpb,k,5214777761.2399,vdkUPRYH,XIeFADROdvIPNIiI,mESRK,dluMTWmhrvOemgQ,RnkckGkXRCqpdteT,qDmToRkW,lQrIeZVLjnkekuAuSsbm,NpSbtovqhYkHCvEtDqt,JafZFeKrUzbdqbkAfl,-264946037.4183,2340772342.2309,-863170233.2384,ozAv,MaSOKFOAh,PujruwqGchuXDfrN,8771610898.6507,4910109069.9789,M,9494799890.9368,zWxIswqdJrjmm
