ETA_NUM,RHA_NUM,NOE_RGM_CTL,EXO_TM_CTL,COD_PEC_CTL,NAT_ASS_CTL,CTR_TYP_CTL,SEJ_FAC_CTL,NON_FAC_AM_CTL,FAC_18E_CTL,NBR_VEN_CTL,FAC_MNT_TM_CTL,FAC_MNT_FJ_CTL,TOT_MNT_AM_CTL,MAJ_MNT_CTL,REM_BAS_CTL,REM_TAU_CTL,BEN_CMU_CTL,DAT_HOS_CTL,TOT_MNT_AMC_CTL,NOE_RGM,EXO_TM,FJ_COD_PEC,NAT_ASS,CTR_TYP,SEJ_FAC_AM,NON_FAC_AM,FAC_18E,FAC_NBR_VEN,FAC_MNT_TM,FAC_MNT_FJ,TOT_MNT_AM,MAJ_MNT_PS,REM_BAS_MNT,REM_TAU,BEN_CMU,DAT_HOS,TOT_MNT_AMC,PA_COD_CTL,ENT_NUM_CTL,CAI_GES_CTL,CENT_GES_CTL,GES_COD_CTL,GES_COD,PA_COD,ENT_NUM,CAI_GES,CENT_GES,RNG_NAI_CTL,RNG_BEN_CTL,RNG_NAI,RNG_BEN,PEC_SOI_URG_CTL,PEC_SOI_URG,NAT_PJ_DT_CTL,DAT_PEC_CTL,CAI_NUM_CTL,REG_PEC_ASS_CTL,TOP_ECL_FLX_CTL,DAT_DEB_FAC_CTL,DAT_FIN_FAC_CTL,NAT_PJ_DT,DAT_PEC,CAI_NUM,REG_PEC_ASS,TOP_ECL_FLX,DAT_DEB_FAC,DAT_FIN_FAC,RAC_MNT_PAT_CTL,NBR_REJET_AMO_CTL,FAC_AMO_DT_CTL,FAC_AMC_DT_CTL,FAC_RAC_DT_CTL,PAI_AMO_DT_CTL,PAI_AMC_DT_CTL,PAI_RAC_DT_CTL,VALID_FAC_AMO_CTL,VALID_FAC_AMC_CTL,VALID_FAC_RAC_CTL,PAYS_ASS_PAT_CTL,RAC_MNT_PAT,NBR_REJET_AMO,FAC_AMO_DT,FAC_AMC_DT,FAC_RAC_DT,PAI_AMO_DT,PAI_AMC_DT,PAI_RAC_DT,VALID_FAC_AMO,VALID_FAC_AMC,VALID_FAC_RAC,PAYS_ASS_PAT
s,AeEvPjsucVwAsUgZZI,haHoKysholbSI,tfFvqbAe,cz,KvGzDJyBNqe,TiItWYuZgJBjmkTGQ,Aw,oXIvSJrfpuRxEOf,GJkJopq,AdxiUEcG,HDinVkEUqUGcwxTbVTD,tCJE,mj,tgAvExXqPTePHoNaI,x,mZsVZwAcmzCnqCsNmP,bDPTitf,ojvqEDZKs,uZubwzwJSlFensZ,kkwEGtaeDpklQOqlbh,fmfsysVqECeQQe,mzrIhRTnbONZZWO,oBHGsDvOoCCJs,Bt,hX,qhvMpRUBSVCGLE,g,8549610772.3792,-6288494503.6292,-7865235954.8938,2853798315.7216,-5955954131.3952,1378804402.3849,-3783404004.8729,pJEushmm,qVQtgU,13362526.8076,zITIAxzx,jEDsMbkauvCJRyIW,GsXF,AdfljPDitfnymcd,XDaFucHQm,SomNgu,,VgmI,avmHSXRaDvOl,XM,TfKQLE,lL,JYgZWrHLKJZZR,KhwflLkNcjwhYUz,BBtrhrxaRlBtbFbMI,ZGriYaOIfmiFVZMbc,nucSbkzgRvW,xZYKdB,dcJewREKsAU,yMpiolqWmyUf,DDXl,CwmdoFnsYDveSnIQGM,RwkN,PSeyMvDhUnVRVS,,KLwjgQaYgsXWvHktkw,bBeHqJZmxZECdZF,QNBULXE,yTfQ,oDJogdCG,pSAOeEIMYTIr,AumzNF,QHNDQbLDSxWotkA,,ONQvpgK,WhJXsmIvh,EAaBpWPCLhUriIVeKEt,AzknklJ,MbtbSMgsZvtvjGFxXlKH,lYJQWWIBV,DUfpUuYuqOLxnomQ,nL,-6860163242.1667,r,AxrYdalJ,VotlKZM,KPMkOEFVRfdlEiDRpo,N,zGijEbx,izvcYhOjYHrrJoTRSo,pQLPrYobCBZvvwDV,yxbfzhXGXs,jCAIbYtphdXkc,uZvVXSIwXVTNNcE
jfwiPKtMQfUZX,bDPTitf,rLugGhNek,rBjdAcWVuSljeinYeNT,HHcIvWObTuYijJeZdsbL,HpwcpGC,dJisS,VZrJcdRWWG,SM,qxrwzSIbRtyhQNEalc,I,fRYJ,yZKCdMvUJmnfUF,Vl,JmN,EMyzBbusMVkoybHOxG,WteUplRMN,QgvtlLhHWPIkUxZ,tJMiAkYRajNGZMLYUOYd,Uszs,BDsMvpxat,BJxWNOB,gl,oRxiKSPhioZxVOwN,iTHqJDgslFYeVY,lNrAPBcFsQrcnM,CXamHB,ewMuY,7448525888.1843,-2268013939.1586,3686852665.5737,772418619.3789,5690952082.2112,-8680715448.2112,6379744414.377,JmflvlyuhqXYIEG,SIayEp,-638651481.0377,kiNxCpoaKHkj,PCCpSJb,BLEcW,iJuYAGWlOCTouMJUED,MZEoQcjviGcU,LDRBaIMMoKXJERhBe,tOGUyggVVeAaDTXGu,rxa,jvhdD,Aewj,UIcrFexj,DDZVMDmYqxCp,RxAEheRNXjYDUTABVkk,vMLss,BeOSrYZEx,bQEkagVzxqMtHhGSRPx,GEdwCbpGkuHICZhEuS,uORltbeCphE,FvVIckSPm,lQDvKj,QVGdnDZqhPhIf,nNPvzyQDrYtRh,cGUYfBilIHoLyVVNCHK,KAQfRGUYLxXNmonpNS,vozUXa,IFOhKyVzwULNWRlOWGG,efBclfvVwsi,mTsurMQc,nt,lUrtBuXUHJOaQkeH,XrLGxBJgAYDxsrQo,TDQyA,zNefoYbPLeRtqzAw,sFpUBteEbrJBZMtbvtwi,WYHvzVYxghfHMDTxt,pLFZllkVj,zZzKxOnaqDNczBIT,BTaOVPycABikxBlkBLOe,QPXEaq,LqTbEz,SgbyCa,BBOlEbRZUHiNsZvllMdZ,4044200849.8489,XA,njPEbwogXIuyzNBmn,OT,dzOBlyppn,tsAbrudoKQmRtgITyb,hX,lugEYujUdGNspENqXg,yJQfzFvZJHUYc,CIUkdUL,YJMSce,AauX
s,QgvtlLhHWPIkUxZ,ipqVXm,FONjBbpYsnT,geMw,UgYcxiv,sOqaKwPi,xBPbzpNiXUUyNwugrz,ZrDamrBrSSoCNgBiILvn,,rXkpekOFCaEo,dQCjXWP,kxioUaaUbyRr,wU,QiTey,pHCDoKQGAaOBbzrnxC,,PgszKvvQiIXVMfGaCo,ZhUPuHyfGbfgxJfPcF,IAOaldqloYNWxTxAOiE,CixFPgt,hbvzkWaKNN,XztfosGJniIDmBqbwV,Jq,,HxaS,hmyajsKfEOLYwWjBMS,sujAejjCZJmAznHJCt,1692625451.9111,6637923972.7434,699252347.8217,237959649.1726,7210744784.7406,7762213398.0051,-3304947508.5695,rYYDffKggI,XsMXxDnlPxSAHjglmjWd,15650512.8446,,kLXBwUdg,EOf,qkNgeuAg,hUr,D,BnBzyTWYcmS,GeStSlNqRbJfSmW,HPpaD,kNKDoDjaLe,R,YPQBllyUSXvJ,uTFusjwZtTHfKidMFMey,k,KXkEkqRpVd,DMPmuCkhKjWSzRSOCK,PAGwPfBL,IeI,SIYmAI,BmHaxfrJncID,kljrOPhMJzyYaX,rlTeKqxBjca,BMGVzB,wEg,WheP,WdlNUu,JnCKBjnjpiumpjF,eek,fumThm,nPSHhDEYryKO,Yrmti,pGguCBAZeWRKRcW,HgNQ,SClmmbcR,BfdHYtvinvmgfrvE,vTYERoMPMrxqJmpA,cyyVsgcRV,SjyxJvrtap,lnkxzXY,HUEAgFnaZHEypc,ab,Dxxv,-4770434672.175,cyI,iV,gsQWOjdrAGqklFF,OAKa,hGq,WHxPkThzC,OQHl,XsB,,iEoVeOYwqcs,ohfNFqSgieFevuGqlz
HYPvDdkPCQiNgUSPvR,,LxwREvYVOEcoVDjNZZDI,G,XXwyt,sMEnAwVXRh,sKs,JmyFfdSSjWrFXetbaSI,,hmxFJFhwXAClL,QzHH,WcRf,vfbEFBszxAJsDpwXynEJ,GuqcUIOOXyGBTzcoy,FOJV,,QRqgUGLE,npEOMOBHoQvoJHH,,F,IgHayzEvTxeI,eURIImoG,tko,KkZIZ,uDSNnQ,RMkCZBkicaMaMpwQwybJ,qLXDpZJKEyD,ZjrOSfE,8103403474.4759,-6026051019.2024,-2616258465.0007,2205144542.2599,-3458295978.3713,8593163543.4814,-6125729626.5291,zZEiXKV,,-7016436690.9578,xtsH,hUlNtmy,IatJFblwfYTxpCT,vpbtOLPBkKGYJML,TUJTYObXPWMbEj,lgXAkBkqdx,XMTFQ,hqMEIWdcsbLgvLtdOs,iTaPyBGtijFyEbie,fiaVGjSvojrb,bh,IB,AmIbJDSogxJzXAYtQOgH,yKZfaVfWmCfgjnXWsKu,i,zIpoU,lLos,C,lsSFHZCecl,jlOBbfRfNhtAckEQ,HxTNWpTGSEsvRzdLIvX,ec,rCOCOpiJsQVXEuBONI,ThQXgKyFX,NqLuzk,OS,iykWUTQLIwQc,Dprf,VPSKcnOUCNdw,tE,azmD,aRgFUIkPSXFXjNW,LkoKSzB,YEfHW,IqGa,OGAbcdrlsILfQdAMi,GCbEMkNo,P,hMPlHm,xEJWMHowny,UsnyUXAKTiM,,-965741839.7707,kJvvipdakS,lDcUPZG,EBcmIUHhBNPvpaWKoxVZ,KFAuC,dnBxHqUT,meKjKjae,,BJWqHvljNYh,XjMxhBfqXkIPfeY,fT,BDqxzMz
jfwiPKtMQfUZX,bDPTitf,TMo,tgaIXNbdkzNOHQsrula,xulZRsHxThWKJTQTWeO,yMUJqCnjoMFOhHzqZX,ohX,KpvDRoPMQHAPaef,ERyIoUgZkPiYKZqvpA,rDLEEbouUAJLALHRf,STQBZKYMBl,AJvuqldmjpyI,zFuYBKixVBzA,NxamguptDA,GNRJamFExxgHKRyaxY,dApTBraRQTkRqki,DoNmNnND,AeEvPjsucVwAsUgZZI,GoBZfiJchJEHAq,mgzBFize,qrgKXuzFdhYQw,RjhzvnsEBIW,GtqNBkjcdhihpTltxrCj,MmTKJxtpwo,mW,FpeCyaDGXjsp,eKrwZnLYMhEhtRlwYq,Vh,-3663348576.1852,8331159317.9898,-1747707125.4713,-140220327.7762,-5022790478.3033,3593840827.5226,-7793733498.948,SdPqKWFGhBE,dOazJJGQhkIxutZnZY,6405558716.3883,pOF,pyyh,,BTEdHRze,JOlEqeObMfoaP,VlgmXkburwyJdP,laV,hpcRPvsqPxm,MRyHNEcAMKWukwvtYB,JWsQQEtHvJGn,BeQgah,XQYCvKUMsKHwwCwRCjmd,YumDaUeMmTVStznJBQZi,,RnJSQicSNLAOooENmkkZ,,ekDa,pY,AwMchctonEqSDYBSu,MhAdgihjXMTjVsV,TTYhSMod,MiYRDZROSmXNYhCTl,eAHURXlqy,CclePVuX,KZqcYIklqhpcgM,fPxKtpQrAYt,oOYbIZhinxVes,NsZtzet,aOwYCvlXUYSp,QtFFbzNoGqA,UxGGBzHtcO,,ugeaaGHSIXgSEFgGqk,QNgLpDStMmSNQEpdi,a,JXGvRlHrB,vVtwnsIWgyNwOwch,SIsOKGWIdClVC,gjuYXXidXihIVVoDAW,VcHWbNhqkrKXO,ZoGudJGw,YWjnIKBd,-1838694703.841,jQ,el,CSxpMsOwlNkhAG,UjkFlbFRTTZ,VoMZTmoSjzXPfICCZp,ZzcCHVaBCj,fjrnoIG,ICXcYZUtoNUHLvZj,IjDOeGeBZKWvm,jMEnYzigjfPAXQriWSO,g
vqISFDWyhT,npEOMOBHoQvoJHH,R,YfenN,Xxzepf,bBEYliwpinKwulZgSKmU,YIhYQuZuBAaXaBx,DQhDViUqyKKbNiXQ,aOeXxdhCQKbX,alhBYtODRAVQUkeQJ,WUlfh,giytpPzBspeeDVPotMy,JsiZTXTG,uiMzqAQftLgrqSVSSdTE,GbsM,CfkWIylCJJlbTkgMkI,eccFdcSXoiqsTHi,,svqpFEWoOUvvafpvaV,nCDGTelgkZW,pzRYMcWXetisFbtXAlwv,lZgGIsXqZzOGL,vGt,rW,NzewftzYrhb,hpNeGRiD,SZApvR,rPOIOmEFQPrj,-7039837981.4043,5766214012.769,1756949520.5036,-5710760044.1713,6207274324.9295,885516328.4967,9246201748.9244,EWahgDWyapfYdQESbj,EpfBhE,-3572719367.8072,yGaQwXmurRCVcSdE,,eNRzAbQMvSh,POkycGogUfuG,JMwKLSote,LW,vpcWICZdIaTPXoD,HWjaRvcMcianRNFnwbN,WmwVocJQj,JLcJetisCtL,,,vZumiKvaT,atcrGokOcTAIiSCwGia,NatmuvGdOP,TwEmGGSDxSXDBqRAgdCs,dwRZT,,QnRNIfBghoAXA,sG,,rj,IEjM,focDREboufjvyPLJjQy,ojjeCnlfNkcDycdjlIHi,pWlHhnSnx,QFsskanc,KYCMgZn,PjH,jNrDwKjkBqU,bIcih,WMWICxWSjSKdrxXdin,uMJz,AspaWxTnb,GcqriwTEIq,IOcdZFGHRgjpgi,PVGXcZqknKq,KeSSKZSmCxSHoUTzMTqD,jLDcsaS,JepNc,,,2230824222.268,,p,QxqSuIqX,uUX,nWmXOMyje,sqFhKkXRedPbI,,DizKoxErlkl,XdTtTecY,MKQWGEXeFznT,QagYb
s,QgvtlLhHWPIkUxZ,lerPljEaeVsBSPNPhar,QS,hygjTYydiycyQmt,OjKdlevacIpSTDKN,oLXPjkZHBrBKPzSkUKJK,qJHoAZbhCUbZqS,ka,PuzDuAOyRKJv,oVkjZTjMKeCBJGnKX,ZqOEQIXSNKxmYfUqvy,SJlp,rdcmuwUQpJaZAFOOTTww,L,JSwyzyEuVRnlxzmvzVMA,gnAZQenxjiQ,hNwoccv,IeDgSbP,glqujukzejFpD,AAxbbDpTWG,AxlkPxBltwoELNQqEfI,axyOAQautNRi,fExkYjIFzTKPOPFQsA,nuxlaYxZEU,StkNWjDraCdWGYowGhZj,bWqNEhrCpRqhv,TCYyZxRfKGBFihSwd,7190682044.8641,4452085687.5967,4321475765.8399,-5120399614.2484,4268695785.1453,-6243013156.8399,7300945034.7627,NsAgrLEIbDMmGrs,PEtgoju,5583479942.1483,EikA,AgATDtx,HUA,EJnsgXPjsJYGe,agiUsDplCroE,KIGMVRHvTNUrBCUo,cqXUtTufaL,jqtFQmVOrEwVkzLPVlsW,RHaKCrssmSNNfVt,HCtdaDX,VvlYGCXErtexBVuMK,GPxszoxGBApKRLntgPWn,rDhqpuQWOVgEbf,QWIaycHk,zpgaRbCiyjNwCnU,HWiIrWmDGtfFyXh,hnlvia,SxmSfFjjaVGLapaGjL,CbKQcTdqNljF,dnIUxyZfvvzzyxlAzc,mHE,rZaOHhBunalgPp,jXrhjhy,sMBONubVesyUAXOVUIkZ,bbHLbYHUFmXqTCO,SnKW,cZWhcWrIhm,GGaCvaNqKVyyFvhRc,jVbYTzvCuPciXYeqzu,e,LcUmGSfepaUaRHQsdZJ,EXBifhEqm,BjYIwdXcCxYI,CpKHqCCkXuDM,PCIhAePCVBWG,lMKVKhbuHPffytaXmU,CdCSFhzYgsLx,NQrHWagDyqLwxMH,B,MHnn,TmfvLpipMbPgjDDAdMgZ,nLOpm,1661612081.6213,qXBEcEKtv,EEfPEgbEUEYHNSLPM,XprEAHDZvDcHGI,IzyA,DcpdpaaJojkG,MbmWweXaxnGl,x,QlUAPInne,jGGA,gTdicuvHQeENqGPzZ,QePvBXgGtDkPXOr
SQxD,PgszKvvQiIXVMfGaCo,qiJieiuQC,uPTrzHyyXkeb,cJQpvNzsa,GJMWKtiwhvfAAKdKeFF,IkXmzrTBeMnwERccpf,fnhhSBcGcfB,j,z,GajjQlJjtyVcDgVN,qZxMpd,nOuvuV,,dzGpMYETO,S,PfFAdxZzxVH,,zzxCLBOQsbJJtXlxBJ,UYBHRDYLPyorB,VWYRHoWxSJuhBWrMGJ,MuCWpehZMTBlpat,bgBVqxhPW,pisqYR,lvZxbHjhkXgszdObVvX,vEStKRzbJNCtpR,Nr,MWChJUYWfmvJzkL,-1325980664.9769,9913890417.2893,-6533319224.512,1441890519.5679,3226568267.5645,2365269243.7003,7048239478.1845,ssSmqFzIBXPD,,6301606157.5845,eJYgqkPIDWzjjvWGZtmL,wsKbYK,ve,KLbRXUQkxxTTHL,cNvPb,DmkuFvmn,meDleBrvAVBbAcXOd,mgjpX,SOxzuxxCz,bMAZgZrKfdhNiyaGUGj,L,OUKHSSPqQlondBM,d,CBhsTLZjeMOFPcfFItIg,XAbMsfxVCEPXvYlJbNKY,bbfIgnOuEE,CvktNLk,XvswMUwXhNldC,QmKuGYuoSl,CA,y,sRdxbzziOw,tBVmmpVRDmbRZ,,kfppnIvlSynol,wXmWQuapwx,pYQWMD,YQCKXBVAifAsT,,m,FrpZNOFUrOHJoVCkO,d,ZStCD,DNyYwswoEFMKVFrPNLId,NTQMACMOhC,,moloTGhlbPKIi,WVNTanrmGpFi,ULlT,pGF,vVRCzDtabRuRDko,LfMZvYXyuCqT,-5709822587.6723,IHcRfOxGlGMABQUPQYFW,qhcWemONoBGfdcknzzf,L,,boyYqDqGbEuneyKrD,DYCMPbYfTgkTEzBTQ,qlajRlsyTGzK,bOaeWO,yQcCoLnb,DSI,SQXqoQPIUPlLK
NKgkWdGhlybGJBzBgxj,,xApSXFeoJirGSVrcGI,KodQDOLPZocoL,jeMZBPJOa,,GBXqemfKyicLpiKuOg,ioPWmTvRQ,,IWHCEeurvsaYdJUMc,YR,,DEceCOYvVolcbatv,J,QcqITciKOYcgGFRSjHb,OnaUC,cntThOOgGJXykhSzWp,basolgjqWbXoZNTipT,WjcakgClLnOVQiv,CERSJuirXsI,RWYwqGUbiT,QwfUumbOn,,HRKofToSIWrYoEGPNMr,rAnfBMTqwng,vAGFedAzeVYOWDpQdR,vUw,XYdpfksXFNqG,-129584055.0911,6907442851.7534,-8665154130.5946,5452573274.5012,4209825140.5913,-2517444632.2924,-8409779357.9588,xiqQVJTrIRtgfjyz,sYozaevCkZyEzcI,-9703954454.3725,nMkwuhNs,BrqzXR,xcwEQGpNSOOzyP,wZDp,aJwDmwrnVbQ,Mcb,KkWWmx,NbONP,tFSuA,uSAGkitHERDBgc,JXkEiJoXhJjT,hnXCgofJW,YwoFokdMcfZwb,AE,nfZimMVyksvLJyTqx,GBiNJYmia,mbciBsBARf,HltgfGIJbDCsbcc,N,Gs,TRz,bCQQORRxQmG,ApPlSBro,RDMyhRTpqj,zXKeaFdsefJzcon,fRJccw,AhEqHzdvYjGRs,,UJyjeChsen,CTgF,s,JNwAJKxOnrlrXurlx,jsSzsLisDpIoXI,prqROvMjwtG,mTHjaXDwdOQt,EOmXQ,WD,GEmeQUDN,PxNJLFUVBvy,,ZUk,hZeWmyTEjzHPOFRfKd,-6224537999.9185,dGzsIOU,oAoBJBZWbOlZBqxCH,JHIHbaAXyweAZAg,ILRUIVsvTB,iOBVDzQiZn,lDjdzAT,OnQtXEAYmhFhQh,SnZmrVhZOCQn,ROlYLFMZoYHLAuu,,vDamoOquNrAWolgcit
jfwiPKtMQfUZX,bDPTitf,okVojOSRVGCK,ycfQdpyVyDKx,oM,IgbRDDrORSSsXJQmcq,iLDaAEomQ,gdeirEJSpXwovgHoeRff,wpdLGbVRl,dHXjELAHFXiDOknNUIA,xaJuxsu,yPcfKSLqdc,J,qGM,mhsXfgMpPgmT,cQzJzbb,uVrxvjggpBiihxA,bnoQ,iMKgjAVc,XGj,ZHKDydChcqStKlzwK,QCdnrMrTMWPy,QayHjKwhnVMhkhGsAyV,Or,zWL,,gDBjFcxNktgeCxWvjuU,VtKsJaJtyzgKhIx,-948726055.0549,-5325468195.5575,13577453.5387,-3787440962.0371,-7741982496.5977,8671643365.4385,5214777761.2399,vdkUPRYH,XIeFADROdvIPNIiI,-5448405432.6807,dluMTWmhrvOemgQ,RnkckGkXRCqpdteT,qDmToRkW,lQrIeZVLjnkekuAuSsbm,NpSbtovqhYkHCvEtDqt,JafZFeKrUzbdqbkAfl,,qMXVbtMPWKRIA,lRiVCtbzRg,ozAv,MaSOKFOAh,PujruwqGchuXDfrN,t,vpmhNgcwauMHO,M,,zWxIswqdJrjmm,yEketYalmTimPWkB,YczNv,ikNsqRIsMAQBNRy,cmiZPWnpdcEgkSdkC,BpWcDntp,SlkSdXYU,W,rqJbB,EUOiClEblaEPlt,CmbCLMjhIKfMOT,ivCAKpsgvjzjnKOI,SuZPNBgJBZyMkB,bZvyNkQEhkWzhZkjjhS,MkmTpXEz,vSK,SYVdanejrdPOppJNu,kZm,tttfWCcKPRLHAY,syfvVwzaJmMDt,,F,IRSZ,pQUUTLCcloUNwL,IaWaiIT,maUYTVXyWZWuw,4041959478.5532,qZWDDcBiOwamrbyCR,HQaCesVFjY,XcpflEpzonDYNt,UTJZDgfLkyNcIhvqbktc,PcNEsHnmfxBqOvRlgY,VbkcTkxEom,xEHqPLQDwIwlKpJPJirJ,wCqsMiyD,WfGsdcLnsOMzHgp,RC,LcHZwGBLkXpfQp
