RHA_NUM,TYP_ART,RSF_TYP,NUM_FAC,DEL_DAT_ENT,ETA_NUM,SOR_ANN,SOR_MOI,LPP_COD,LPP_QUA,FAC_MNT,LPP_PRI_UNI,LPP_PRI_REF,MNT_UNI_ECA,TOT_MNT_ECA,TIP_PRS_IDE
AeEvPjsucVwAsUgZZI,tfFvqbAe,cz,KvGzDJyBNqe,-9650194581.3769,s,Aw,oXIvSJrfpuRxEOf,GJkJopq,6462206814.1958,6933248144.2027,-1596340657.1845,-8137834266.5628,9683837010.8515,-8253007141.9565,2331043
bDPTitf,rBjdAcWVuSljeinYeNT,HHcIvWObTuYijJeZdsbL,HpwcpGC,7831465343.6052,jfwiPKtMQfUZX,VZrJcdRWWG,SM,qxrwzSIbRtyhQNEalc,-9477640368.6027,1223310805.3007,-2735210060.6983,9433118399.7958,-3331754679.7069,-5390458008.9654,2330977
QgvtlLhHWPIkUxZ,FONjBbpYsnT,geMw,UgYcxiv,-4302776650.5216,s,xBPbzpNiXUUyNwugrz,ZrDamrBrSSoCNgBiILvn,,-5784587201.3741,-902491951.8849,-6302466244.771,-322800390.7271,3474032493.3827,-1778778587.2217,2330470
,G,XXwyt,sMEnAwVXRh,-4020472450.8208,HYPvDdkPCQiNgUSPvR,JmyFfdSSjWrFXetbaSI,,hmxFJFhwXAClL,2368435386.9922,-2956501726.1608,365654563.3495,-5149545970.0387,-6072191655.7095,-3784346028.7983,2330977
bDPTitf,tgaIXNbdkzNOHQsrula,xulZRsHxThWKJTQTWeO,yMUJqCnjoMFOhHzqZX,5840685213.1086,jfwiPKtMQfUZX,KpvDRoPMQHAPaef,ERyIoUgZkPiYKZqvpA,rDLEEbouUAJLALHRf,-8034310693.262,1717027682.6967,-9827890959.8246,622476596.1451,-2911070707.1795,1319117815.2301,2330428
npEOMOBHoQvoJHH,YfenN,Xxzepf,bBEYliwpinKwulZgSKmU,-3510588050.4354,vqISFDWyhT,DQhDViUqyKKbNiXQ,aOeXxdhCQKbX,alhBYtODRAVQUkeQJ,2402626197.5372,714994885.4615,9378724134.3897,-4289115290.704,6267319063.6412,901274075.677,2331043
QgvtlLhHWPIkUxZ,QS,hygjTYydiycyQmt,OjKdlevacIpSTDKN,7294207733.8052,s,qJHoAZbhCUbZqS,ka,PuzDuAOyRKJv,-8922195608.0311,6549125535.5869,6027625120.3292,7252607541.0328,-5043008929.7748,6141988856.6075,2330977
PgszKvvQiIXVMfGaCo,uPTrzHyyXkeb,cJQpvNzsa,GJMWKtiwhvfAAKdKeFF,-1049747355.7225,SQxD,fnhhSBcGcfB,j,z,9213081156.0848,-4709156025.5593,5146239772.1731,-9177996930.7825,-827773497.0757,8363102145.672,2332114
,KodQDOLPZocoL,jeMZBPJOa,,964598127.0019,NKgkWdGhlybGJBzBgxj,ioPWmTvRQ,,IWHCEeurvsaYdJUMc,9608587484.3015,-432418773.2257,3429686036.8365,-7833045320.9856,7546028429.9418,441815056.8735,2331557
bDPTitf,ycfQdpyVyDKx,oM,IgbRDDrORSSsXJQmcq,-2856560103.4002,jfwiPKtMQfUZX,gdeirEJSpXwovgHoeRff,wpdLGbVRl,dHXjELAHFXiDOknNUIA,422553005.4245,-3044299543.0856,-9406859823.5015,5343200908.5739,-2166830776.6518,-1506254772.2343,2331540
