ETA_NUM,RHA_VER,RHA_NUM,RHS_NUM,DGN_COD
s,haHoKysholbSI,AeEvPjsucVwAsUgZZI,tfFvqbAe,cz
jfwiPKtMQfUZX,rLugGhNek,bDPTitf,rBjdAcWVuSljeinYeNT,HHcIvWObTuYijJeZdsbL
s,ipqVXm,QgvtlLhHWPIkUxZ,FONjBbpYsnT,geMw
HYPvDdkPCQiNgUSPvR,LxwREvYVOEcoVDjNZZDI,,G,XXwyt
jfwiPKtMQfUZX,TMo,bDPTitf,tgaIXNbdkzNOHQsrula,xulZRsHxThWKJTQTWeO
vqISFDWyhT,R,npEOMOBHoQvoJHH,YfenN,Xxzepf
s,lerPljEaeVsBSPNPhar,QgvtlLhHWPIkUxZ,QS,hygjTYydiycyQmt
SQxD,qiJieiuQC,PgszKvvQiIXVMfGaCo,uPTrzHyyXkeb,cJQpvNzsa
NKgkWdGhlybGJBzBgxj,xApSXFeoJirGSVrcGI,,KodQDOLPZocoL,jeMZBPJOa
jfwiPKtMQfUZX,okVojOSRVGCK,bDPTitf,ycfQdpyVyDKx,oM
