RHA_NUM,TYP_ART,RSF_TYP,NUM_FAC,DEL_DAT_ENT,ETA_NUM,COD_UCP_CIP,ACH_PRI,QUA_COD,FAC_TOT,UCD_UCD_COD,ENT_ANN,ENT_MOI,FRACT_COE,MNT_UNI_ECA,TOT_MNT_ECA
AeEvPjsucVwAsUgZZI,tfFvqbAe,cz,KvGzDJyBNqe,-9650194581.3769,s,Aw,-107967089.2396,3514628310.071,6462206814.1958,0000009232315,HDinVkEUqUGcwxTbVTD,tCJE,-8137834266.5628,9683837010.8515,-8253007141.9565
bDPTitf,rBjdAcWVuSljeinYeNT,HHcIvWObTuYijJeZdsbL,HpwcpGC,7831465343.6052,jfwiPKtMQfUZX,VZrJcdRWWG,-5438337911.0133,-9105756355.9411,-9477640368.6027,0000009232143,fRYJ,yZKCdMvUJmnfUF,9433118399.7958,-3331754679.7069,-5390458008.9654
QgvtlLhHWPIkUxZ,FONjBbpYsnT,geMw,UgYcxiv,-4302776650.5216,s,xBPbzpNiXUUyNwugrz,-4890521524.8558,-3133926549.1482,-5784587201.3741,0000009232120,dQCjXWP,kxioUaaUbyRr,-322800390.7271,3474032493.3827,-1778778587.2217
,G,XXwyt,sMEnAwVXRh,-4020472450.8208,HYPvDdkPCQiNgUSPvR,JmyFfdSSjWrFXetbaSI,-2073401805.5445,2880394540.3966,2368435386.9922,0000009232143,WcRf,vfbEFBszxAJsDpwXynEJ,-5149545970.0387,-6072191655.7095,-3784346028.7983
bDPTitf,tgaIXNbdkzNOHQsrula,xulZRsHxThWKJTQTWeO,yMUJqCnjoMFOhHzqZX,5840685213.1086,jfwiPKtMQfUZX,KpvDRoPMQHAPaef,-2453698046.1775,-4315740025.1942,-8034310693.262,0000009231824,AJvuqldmjpyI,zFuYBKixVBzA,622476596.1451,-2911070707.1795,1319117815.2301
npEOMOBHoQvoJHH,YfenN,Xxzepf,bBEYliwpinKwulZgSKmU,-3510588050.4354,vqISFDWyhT,DQhDViUqyKKbNiXQ,9931484603.093,8986756133.0001,2402626197.5372,0000009232315,giytpPzBspeeDVPotMy,JsiZTXTG,-4289115290.704,6267319063.6412,901274075.677
QgvtlLhHWPIkUxZ,QS,hygjTYydiycyQmt,OjKdlevacIpSTDKN,7294207733.8052,s,qJHoAZbhCUbZqS,-1836055993.3361,-6846596624.5247,-8922195608.0311,0000009232143,ZqOEQIXSNKxmYfUqvy,SJlp,7252607541.0328,-5043008929.7748,6141988856.6075
PgszKvvQiIXVMfGaCo,uPTrzHyyXkeb,cJQpvNzsa,GJMWKtiwhvfAAKdKeFF,-1049747355.7225,SQxD,fnhhSBcGcfB,5437879896.7943,-2240540751.5448,9213081156.0848,0000009234254,qZxMpd,nOuvuV,-9177996930.7825,-827773497.0757,8363102145.672
,KodQDOLPZocoL,jeMZBPJOa,,964598127.0019,NKgkWdGhlybGJBzBgxj,ioPWmTvRQ,5210733760.1777,1799873529.4463,9608587484.3015,0000009234047,,DEceCOYvVolcbatv,-7833045320.9856,7546028429.9418,441815056.8735
bDPTitf,ycfQdpyVyDKx,oM,IgbRDDrORSSsXJQmcq,-2856560103.4002,jfwiPKtMQfUZX,gdeirEJSpXwovgHoeRff,-3799813026.2934,-244084173.7432,422553005.4245,0000009233680,yPcfKSLqdc,J,5343200908.5739,-2166830776.6518,-1506254772.2343
