{
    "fields": [
        {
            "name": "DCD_IDT_ENC",
            "description": "Identifiant décès encodé",
            "type": "string",
            "nomenclature": "-",
            "length": "64",
            "format": "default",
            "dateCreated": "2013",
            "dateDeleted": "",
            "dateMissing": [],
            "observation": "",
            "regle_gestion": "",
            "type_oracle": "string"
        },
        {
            "name": "DCD_IDT_TOP",
            "description": "Top apparié avec IR_BEN_R",
            "type": "number",
            "nomenclature": "-",
            "length": "1",
            "format": "default",
            "dateCreated": "2013",
            "dateDeleted": "",
            "dateMissing": [],
            "observation": "",
            "regle_gestion": "",
            "type_oracle": "number"
        },
        {
            "name": "BEN_IDT_ANO",
            "description": "Identifiant bénéficiaire anonymisé",
            "type": "string",
            "nomenclature": "-",
            "length": "18",
            "format": "default",
            "dateCreated": "2013",
            "dateDeleted": "",
            "dateMissing": [],
            "observation": "",
            "regle_gestion": "",
            "type_oracle": "string"
        },
        {
            "name": "BEN_IDT_TOP",
            "description": "Top identifiant bénéficiaire Anonymisé",
            "type": "number",
            "nomenclature": "-",
            "length": "1",
            "format": "default",
            "dateCreated": "2013",
            "dateDeleted": "",
            "dateMissing": [],
            "observation": "",
            "regle_gestion": "",
            "type_oracle": "number"
        },
        {
            "name": "BEN_NIR_ANO",
            "description": "NIR pseudonymisé du bénéficiaire",
            "type": "string",
            "nomenclature": "-",
            "length": "17",
            "format": "default",
            "dateCreated": "2013",
            "dateDeleted": "",
            "dateMissing": [],
            "observation": "",
            "regle_gestion": "",
            "type_oracle": "string"
        },
        {
            "name": "FLX_PER_ANN",
            "description": "Année de décès",
            "type": "string",
            "nomenclature": "-",
            "length": "4",
            "format": "default",
            "dateCreated": "2013",
            "dateDeleted": "",
            "dateMissing": [],
            "observation": "",
            "regle_gestion": "",
            "type_oracle": "string"
        },
        {
            "name": "CER_VER_NUM",
            "description": "Version du certificat",
            "type": "number",
            "nomenclature": "DS_VER_V",
            "length": "1",
            "format": "default",
            "dateCreated": "2013",
            "dateDeleted": "",
            "dateMissing": [],
            "observation": "",
            "regle_gestion": "",
            "type_oracle": "number"
        },
        {
            "name": "TRT_STA_COD",
            "description": "Statut de traitement",
            "type": "number",
            "nomenclature": "DS_STA_V",
            "length": "1",
            "format": "default",
            "dateCreated": "2013",
            "dateDeleted": "",
            "dateMissing": [],
            "observation": "",
            "regle_gestion": "",
            "type_oracle": "number"
        },
        {
            "name": "TYP_CER_COD",
            "description": "Type de certificat",
            "type": "number",
            "nomenclature": "DS_CER_V",
            "length": "1",
            "format": "default",
            "dateCreated": "2013",
            "dateDeleted": "",
            "dateMissing": [],
            "observation": "",
            "regle_gestion": "",
            "type_oracle": "number"
        },
        {
            "name": "CER_SUP_TYP",
            "description": "Type de support",
            "type": "number",
            "nomenclature": "DS_SUP_V",
            "length": "1",
            "format": "default",
            "dateCreated": "2013",
            "dateDeleted": "",
            "dateMissing": [],
            "observation": "",
            "regle_gestion": "",
            "type_oracle": "number"
        },
        {
            "name": "TYP_VOL_COD",
            "description": "Type de volet",
            "type": "number",
            "nomenclature": "DS_VOL_V",
            "length": "1",
            "format": "default",
            "dateCreated": "2013",
            "dateDeleted": "",
            "dateMissing": [],
            "observation": "",
            "regle_gestion": "",
            "type_oracle": "number"
        },
        {
            "name": "DCD_DPT_COD",
            "description": "Département de décès",
            "type": "string",
            "nomenclature": "IR_DPT_V",
            "length": "3",
            "format": "default",
            "dateCreated": "2013",
            "dateDeleted": "",
            "dateMissing": [],
            "observation": "",
            "regle_gestion": "",
            "type_oracle": "string"
        },
        {
            "name": "DCD_COM_COD",
            "description": "Commune de décès",
            "type": "string",
            "nomenclature": "IR_GEO_V",
            "length": "3",
            "format": "default",
            "dateCreated": "",
            "dateDeleted": "",
            "dateMissing": [],
            "observation": "",
            "regle_gestion": "",
            "type_oracle": "string"
        },
        {
            "name": "BEN_RES_DPT",
            "description": "Département de résidence du bénéficiaire",
            "type": "string",
            "nomenclature": "IR_DPT_V",
            "length": "3",
            "format": "default",
            "dateCreated": "2013",
            "dateDeleted": "",
            "dateMissing": [],
            "observation": "",
            "regle_gestion": "",
            "type_oracle": "string"
        },
        {
            "name": "BEN_RES_COM",
            "description": "commune de résidence du destinataire du règlement",
            "type": "string",
            "nomenclature": "IR_GEO_V",
            "length": "3",
            "format": "default",
            "dateCreated": "2013",
            "dateDeleted": "",
            "dateMissing": [],
            "observation": "",
            "regle_gestion": "",
            "type_oracle": "string"
        },
        {
            "name": "BEN_DCD_DTE",
            "description": "Date de décès du bénéficiaire",
            "type": "date",
            "nomenclature": "IR_DTE_V",
            "length": "8",
            "format": "default",
            "dateCreated": "2013",
            "dateDeleted": "",
            "dateMissing": [],
            "observation": "",
            "regle_gestion": "",
            "type_oracle": "date"
        },
        {
            "name": "BEN_DCD_AME",
            "description": "Année et mois de décès du bénéficiaire",
            "type": "string",
            "nomenclature": "-",
            "length": "6",
            "format": "default",
            "dateCreated": "2013",
            "dateDeleted": "",
            "dateMissing": [],
            "observation": "",
            "regle_gestion": "",
            "type_oracle": "string"
        },
        {
            "name": "DCD_LIE_COD",
            "description": "Lieu du décès",
            "type": "number",
            "nomenclature": "DS_LIE_V",
            "length": "1",
            "format": "default",
            "dateCreated": "2013",
            "dateDeleted": "",
            "dateMissing": [],
            "observation": "",
            "regle_gestion": "",
            "type_oracle": "number"
        },
        {
            "name": "BEN_NAI_ANN",
            "description": "Année de naissance du bénéficiaire",
            "type": "string",
            "nomenclature": "-",
            "length": "4",
            "format": "default",
            "dateCreated": "2013",
            "dateDeleted": "",
            "dateMissing": [],
            "observation": "",
            "regle_gestion": "",
            "type_oracle": "string"
        },
        {
            "name": "BEN_NAI_MOI",
            "description": "Mois de naissance du bénéficiaire",
            "type": "string",
            "nomenclature": "-",
            "length": "2",
            "format": "default",
            "dateCreated": "2013",
            "dateDeleted": "",
            "dateMissing": [],
            "observation": "",
            "regle_gestion": "",
            "type_oracle": "string"
        },
        {
            "name": "BEN_SEX_COD",
            "description": "Code sexe du bénéficiaire",
            "type": "number",
            "nomenclature": "IR_SEX_V",
            "length": "1",
            "format": "default",
            "dateCreated": "2013",
            "dateDeleted": "",
            "dateMissing": [],
            "observation": "",
            "regle_gestion": "",
            "type_oracle": "number"
        },
        {
            "name": "PFV_ACP_COD",
            "description": "Activité professionnelle",
            "type": "number",
            "nomenclature": "DS_ACP_V",
            "length": "1",
            "format": "default",
            "dateCreated": "2013",
            "dateDeleted": "",
            "dateMissing": [],
            "observation": "",
            "regle_gestion": "",
            "type_oracle": "number"
        },
        {
            "name": "CAT_PCS_COD",
            "description": "Profession et catégorie socioprofessionnelle",
            "type": "string",
            "nomenclature": "DS_PC1_V",
            "length": "4",
            "format": "default",
            "dateCreated": "2013",
            "dateDeleted": "",
            "dateMissing": [],
            "observation": "il existe une 3ème table de valeur, IR_PC3_V",
            "regle_gestion": "",
            "type_oracle": "string"
        },
        {
            "name": "ETA_MAR_COD",
            "description": "Etat matrimonial",
            "type": "number",
            "nomenclature": "DS_MAR_V",
            "length": "1",
            "format": "default",
            "dateCreated": "2013",
            "dateDeleted": "",
            "dateMissing": [],
            "observation": "",
            "regle_gestion": "",
            "type_oracle": "number"
        },
        {
            "name": "DCD_CIM_COD",
            "description": "Cause initiale du décès",
            "type": "string",
            "nomenclature": "IR_CIM_V",
            "length": "4",
            "format": "default",
            "dateCreated": "2013",
            "dateDeleted": "",
            "dateMissing": [],
            "observation": "",
            "regle_gestion": "",
            "type_oracle": "string"
        },
        {
            "name": "DCD_CAU_COD",
            "description": "Recherche de la cause de décès",
            "type": "number",
            "nomenclature": "DS_CAU_V",
            "length": "1",
            "format": "default",
            "dateCreated": "2013",
            "dateDeleted": "",
            "dateMissing": [],
            "observation": "",
            "regle_gestion": "",
            "type_oracle": "number"
        },
        {
            "name": "DCD_GRS_COD",
            "description": "La grossesse a contribué au décès",
            "type": "number",
            "nomenclature": "DS_GRS_V",
            "length": "1",
            "format": "default",
            "dateCreated": "2013",
            "dateDeleted": "",
            "dateMissing": [],
            "observation": "",
            "regle_gestion": "",
            "type_oracle": "number"
        },
        {
            "name": "DCD_GRS_DEL",
            "description": "Délai entre fin de grossesse et décès",
            "type": "string",
            "nomenclature": "-",
            "length": "4",
            "format": "default",
            "dateCreated": "2013",
            "dateDeleted": "",
            "dateMissing": [],
            "observation": "",
            "regle_gestion": "",
            "type_oracle": "string"
        },
        {
            "name": "DCD_LIE_LIB",
            "description": "Lieu de lévènement si mort violente",
            "type": "string",
            "nomenclature": "-",
            "length": "200",
            "format": "default",
            "dateCreated": "2013",
            "dateDeleted": "",
            "dateMissing": [],
            "observation": "",
            "regle_gestion": "",
            "type_oracle": "string"
        },
        {
            "name": "DCD_ATT_COD",
            "description": "Accident du travail",
            "type": "number",
            "nomenclature": "DS_ATT_V",
            "length": "1",
            "format": "default",
            "dateCreated": "2013",
            "dateDeleted": "",
            "dateMissing": [],
            "observation": "",
            "regle_gestion": "",
            "type_oracle": "number"
        },
        {
            "name": "NEO_APG_SCO",
            "description": "Apgar à une minute",
            "type": "number",
            "nomenclature": "-",
            "length": "2",
            "format": "default",
            "dateCreated": "2013",
            "dateDeleted": "",
            "dateMissing": [],
            "observation": "",
            "regle_gestion": "",
            "type_oracle": "number"
        },
        {
            "name": "NEO_GES_AGE",
            "description": "Âge gestationnel en semaines révolues daménorrhée",
            "type": "number",
            "nomenclature": "-",
            "length": "2",
            "format": "default",
            "dateCreated": "2013",
            "dateDeleted": "",
            "dateMissing": [],
            "observation": "",
            "regle_gestion": "",
            "type_oracle": "number"
        },
        {
            "name": "NEO_NAI_POI",
            "description": "Poids de naissance en grammes",
            "type": "number",
            "nomenclature": "-",
            "length": "4,0",
            "format": "default",
            "dateCreated": "2013",
            "dateDeleted": "",
            "dateMissing": [],
            "observation": "",
            "regle_gestion": "",
            "type_oracle": "number"
        },
        {
            "name": "RNG_NAI_TYP",
            "description": "Type de naissance",
            "type": "number",
            "nomenclature": "DS_NAI_V",
            "length": "1",
            "format": "default",
            "dateCreated": "2013",
            "dateDeleted": "",
            "dateMissing": [],
            "observation": "",
            "regle_gestion": "",
            "type_oracle": "number"
        },
        {
            "name": "GRS_ORD_NUM",
            "description": "N° dordre de lenfant si grossesse multiple",
            "type": "number",
            "nomenclature": "-",
            "length": "1",
            "format": "default",
            "dateCreated": "",
            "dateDeleted": "",
            "dateMissing": [],
            "observation": "",
            "regle_gestion": "",
            "type_oracle": "number"
        },
        {
            "name": "ACC_LIA_COD",
            "description": "Lieu daccouchement",
            "type": "number",
            "nomenclature": "DS_LIA_V",
            "length": "1",
            "format": "default",
            "dateCreated": "2013",
            "dateDeleted": "",
            "dateMissing": [],
            "observation": "",
            "regle_gestion": "",
            "type_oracle": "number"
        },
        {
            "name": "ACC_PST_COD",
            "description": "Présentation de lenfant",
            "type": "number",
            "nomenclature": "DS_PST_V",
            "length": "1",
            "format": "default",
            "dateCreated": "2013",
            "dateDeleted": "",
            "dateMissing": [],
            "observation": "",
            "regle_gestion": "",
            "type_oracle": "number"
        },
        {
            "name": "ACC_DEB_COD",
            "description": "Début du travail",
            "type": "number",
            "nomenclature": "DS_DEB_V",
            "length": "1",
            "format": "default",
            "dateCreated": "2013",
            "dateDeleted": "",
            "dateMissing": [],
            "observation": "",
            "regle_gestion": "",
            "type_oracle": "number"
        },
        {
            "name": "MOD_ACC_COD",
            "description": "Mode daccouchement",
            "type": "number",
            "nomenclature": "DS_ACC_V",
            "length": "1",
            "format": "default",
            "dateCreated": "2013",
            "dateDeleted": "",
            "dateMissing": [],
            "observation": "",
            "regle_gestion": "",
            "type_oracle": "number"
        },
        {
            "name": "HOS_TRF_TOP",
            "description": "Transfert ou hospitalisation particulière de lenfant",
            "type": "number",
            "nomenclature": "DS_TRF_V",
            "length": "1",
            "format": "default",
            "dateCreated": "2013",
            "dateDeleted": "",
            "dateMissing": [],
            "observation": "",
            "regle_gestion": "",
            "type_oracle": "number"
        },
        {
            "name": "MER_NAI_ANN",
            "description": "Année de naissance de la mère",
            "type": "string",
            "nomenclature": "-",
            "length": "4",
            "format": "default",
            "dateCreated": "2013",
            "dateDeleted": "",
            "dateMissing": [],
            "observation": "",
            "regle_gestion": "",
            "type_oracle": "string"
        },
        {
            "name": "MER_PFS_COD",
            "description": "Activité professionnelle de la mère",
            "type": "number",
            "nomenclature": "DS_PFS_V",
            "length": "1",
            "format": "default",
            "dateCreated": "2013",
            "dateDeleted": "",
            "dateMissing": [],
            "observation": "",
            "regle_gestion": "",
            "type_oracle": "number"
        },
        {
            "name": "MER_PFG_LIB",
            "description": "Profession de la mère exercée pendant la grossesse",
            "type": "string",
            "nomenclature": "-",
            "length": "50",
            "format": "default",
            "dateCreated": "2013",
            "dateDeleted": "",
            "dateMissing": [],
            "observation": "",
            "regle_gestion": "",
            "type_oracle": "string"
        },
        {
            "name": "MER_MAR_COD",
            "description": "Etat matrimonial de la mère",
            "type": "number",
            "nomenclature": "DS_MAR_V",
            "length": "1",
            "format": "default",
            "dateCreated": "",
            "dateDeleted": "",
            "dateMissing": [],
            "observation": "",
            "regle_gestion": "",
            "type_oracle": "number"
        },
        {
            "name": "MER_SIT_TOP",
            "description": "La mère vit elle en couple",
            "type": "number",
            "nomenclature": "DS_SIT_V",
            "length": "1",
            "format": "default",
            "dateCreated": "2013",
            "dateDeleted": "",
            "dateMissing": [],
            "observation": "",
            "regle_gestion": "",
            "type_oracle": "number"
        },
        {
            "name": "TOT_GRS_NBR",
            "description": "Nombre total de grossesses",
            "type": "number",
            "nomenclature": "-",
            "length": "2",
            "format": "default",
            "dateCreated": "2013",
            "dateDeleted": "",
            "dateMissing": [],
            "observation": "",
            "regle_gestion": "",
            "type_oracle": "number"
        },
        {
            "name": "TOT_ACC_NBR",
            "description": "Nombre total daccouchements",
            "type": "number",
            "nomenclature": "-",
            "length": "2",
            "format": "default",
            "dateCreated": "2013",
            "dateDeleted": "",
            "dateMissing": [],
            "observation": "",
            "regle_gestion": "",
            "type_oracle": "number"
        },
        {
            "name": "PER_PFS_COD",
            "description": "Activité professionnelle du père",
            "type": "number",
            "nomenclature": "DS_PFS_V",
            "length": "1",
            "format": "default",
            "dateCreated": "2013",
            "dateDeleted": "",
            "dateMissing": [],
            "observation": "",
            "regle_gestion": "",
            "type_oracle": "number"
        },
        {
            "name": "PER_PFG_LIB",
            "description": "Profession du père exercée pendant la grossesse",
            "type": "string",
            "nomenclature": "-",
            "length": "50",
            "format": "default",
            "dateCreated": "2013",
            "dateDeleted": "",
            "dateMissing": [],
            "observation": "",
            "regle_gestion": "",
            "type_oracle": "string"
        }
    ],
    "name": "KI_CCI_R",
    "title": "Table des circonstances et de la cause initiale de décès",
    "produit": "Causes de décès",
    "missingValues": [
        ""
    ],
    "foreignKeys": [
        {
            "fields": [
                "BEN_IDT_ANO"
            ],
            "reference": {
                "resource": "IR_BEN_R",
                "fields": [
                    "BEN_IDT_ANO"
                ]
            }
        },
        {
            "fields": [
                "BEN_IDT_ANO"
            ],
            "reference": {
                "resource": "IR_IBA_R",
                "fields": [
                    "BEN_IDT_ANO"
                ]
            }
        }
    ],
    "history": {
        "dateCreated": "2013",
        "dateDeleted": "",
        "dateMissing": []
    },
    "champ": "",
    "observation": ""
}