CLE_DCI_JNT,BEN_IDT_ANO,BEN_IDT_TOP,EXE_SOI_DTD,EXE_SOI_DTF,EXE_SOI_AMD,EXE_SOI_AMF,PFS_EXE_NUM,PFS_PRE_NUM,GRG_LIQ_COD,CAI_LIQ_COD,PRS_NAT_REF,ETB_PRE_FIN,ETB_EXE_FIN,RGO_REM_TAU,GRG_AFF_COD,CAI_AFF_COD,SLM_AFF_COD,FLX_TRT_DTD,FLX_DIS_DTD,FLX_EMT_TYP,EXE_INS_DPT,PRE_INS_DPT,ETE_DPT_COD,ETP_DPT_COD,BEN_RES_DPT,DTR_SEQ_NUM,TRS_PRS_IDE,TRS_ACT_PRU,TRS_TRS_MTF,TRS_ACT_QSN
QNgLpDStMmSNQEpdi,cz,9,22MAY1874:00:00:00,24MAY1874:00:00:00,tCJE,mj,tgAvExXqPTePHoNaI,x,mZsVZwAcmzCnqCsNmP,bDPTitf,6013,ojvqEDZKs,uZubwzwJSlFensZ,3375.47,fmfsysVqECeQQe,mzrIhRTnbONZZWO,oBHGsDvOoCCJs,19MAY1874:00:00:00,29MAY1874:00:00:00,20,hX,qhvMpRUBSVCGLE,g,DsS,000,39169965,21,1067382022.55311,19,86934
,Xxzepf,5,19MAY1874:00:00:00,27MAY1874:00:00:00,yZKCdMvUJmnfUF,Vl,JmN,EMyzBbusMVkoybHOxG,WteUplRMN,QgvtlLhHWPIkUxZ,6012,tJMiAkYRajNGZMLYUOYd,Uszs,48910.75,BJxWNOB,gl,oRxiKSPhioZxVOwN,22MAY1874:00:00:00,27MAY1874:00:00:00,60,lNrAPBcFsQrcnM,CXamHB,ewMuY,QAjRMgnZRT,000,49818635,16,6843426332.78687,21,90258
sFpUBteEbrJBZMtbvtwi,cz,5,24MAY1874:00:00:00,23MAY1874:00:00:00,kxioUaaUbyRr,wU,QiTey,pHCDoKQGAaOBbzrnxC,,PgszKvvQiIXVMfGaCo,6013,ZhUPuHyfGbfgxJfPcF,IAOaldqloYNWxTxAOiE,84608.51,hbvzkWaKNN,XztfosGJniIDmBqbwV,Jq,20MAY1874:00:00:00,24MAY1874:00:00:00,51,HxaS,hmyajsKfEOLYwWjBMS,sujAejjCZJmAznHJCt,WFibCgwFqscfXh,001,29807671,11,5349626173.91087,20,69550
AspaWxTnb,Xxzepf,6,22MAY1874:00:00:00,29MAY1874:00:00:00,vfbEFBszxAJsDpwXynEJ,GuqcUIOOXyGBTzcoy,FOJV,,QRqgUGLE,npEOMOBHoQvoJHH,6014,,F,41140.2,eURIImoG,tko,KkZIZ,23MAY1874:00:00:00,25MAY1874:00:00:00,77,RMkCZBkicaMaMpwQwybJ,qLXDpZJKEyD,ZjrOSfE,mNhw,004,83306024,21,3691870767.49965,21,74122
,xulZRsHxThWKJTQTWeO,4,23MAY1874:00:00:00,22MAY1874:00:00:00,zFuYBKixVBzA,NxamguptDA,GNRJamFExxgHKRyaxY,dApTBraRQTkRqki,DoNmNnND,AeEvPjsucVwAsUgZZI,6014,GoBZfiJchJEHAq,mgzBFize,63141.54,RjhzvnsEBIW,GtqNBkjcdhihpTltxrCj,MmTKJxtpwo,19MAY1874:00:00:00,23MAY1874:00:00:00,79,FpeCyaDGXjsp,eKrwZnLYMhEhtRlwYq,Vh,gFrBIzXjM,006,48092690,16,4126146437.26435,0,46472
YEfHW,cz,0,28MAY1874:00:00:00,21MAY1874:00:00:00,JsiZTXTG,uiMzqAQftLgrqSVSSdTE,GbsM,CfkWIylCJJlbTkgMkI,eccFdcSXoiqsTHi,,5301,svqpFEWoOUvvafpvaV,nCDGTelgkZW,29094.32,lZgGIsXqZzOGL,vGt,rW,19MAY1874:00:00:00,21MAY1874:00:00:00,90,hpNeGRiD,SZApvR,rPOIOmEFQPrj,QdnhBTqdiqdQYfVhKD,005,57031903,11,5878474760.25181,19,41281
sFpUBteEbrJBZMtbvtwi,Xxzepf,8,27MAY1874:00:00:00,19MAY1874:00:00:00,SJlp,rdcmuwUQpJaZAFOOTTww,L,JSwyzyEuVRnlxzmvzVMA,gnAZQenxjiQ,hNwoccv,5204,IeDgSbP,glqujukzejFpD,54280.03,AxlkPxBltwoELNQqEfI,axyOAQautNRi,fExkYjIFzTKPOPFQsA,25MAY1874:00:00:00,24MAY1874:00:00:00,21,StkNWjDraCdWGYowGhZj,bWqNEhrCpRqhv,TCYyZxRfKGBFihSwd,gupAbRMIQcMfdWEApe,006,44272353,16,7160737882.91996,91,34470
SClmmbcR,cJQpvNzsa,10,20MAY1874:00:00:00,21MAY1874:00:00:00,nOuvuV,,dzGpMYETO,S,PfFAdxZzxVH,,6013,zzxCLBOQsbJJtXlxBJ,UYBHRDYLPyorB,22818.14,MuCWpehZMTBlpat,bgBVqxhPW,pisqYR,25MAY1874:00:00:00,24MAY1874:00:00:00,51,vEStKRzbJNCtpR,Nr,MWChJUYWfmvJzkL,qFXwMMIoIAjt,006,57257296,15,1733340387.744,91,64327
DNyYwswoEFMKVFrPNLId,geMw,9,24MAY1874:00:00:00,27MAY1874:00:00:00,DEceCOYvVolcbatv,J,QcqITciKOYcgGFRSjHb,OnaUC,cntThOOgGJXykhSzWp,basolgjqWbXoZNTipT,5204,WjcakgClLnOVQiv,CERSJuirXsI,24027.63,QwfUumbOn,,HRKofToSIWrYoEGPNMr,21MAY1874:00:00:00,20MAY1874:00:00:00,74,vAGFedAzeVYOWDpQdR,vUw,XYdpfksXFNqG,iRQvQXTpCVi,005,30325498,21,667422934.70271,10,2017
,geMw,10,28MAY1874:00:00:00,19MAY1874:00:00:00,J,qGM,mhsXfgMpPgmT,cQzJzbb,uVrxvjggpBiihxA,bnoQ,6013,iMKgjAVc,XGj,95345.75,QCdnrMrTMWPy,QayHjKwhnVMhkhGsAyV,Or,19MAY1874:00:00:00,21MAY1874:00:00:00,77,,gDBjFcxNktgeCxWvjuU,VtKsJaJtyzgKhIx,dlVPrBfemDNsGaOgeIFc,002,44155814,16,5006788726.76934,10,96612
