ACT_NBR,ANN_MOI,DEL_DAT_ENT,ETA_NUM,ETA_NUM_GEO,NABM_COD,NUM_FAC,PSH_DMT,PSH_MDT,RSF_TYP,SEQ_NUM,TYP_ART
9780230269.512,cz,-7730230562.127,haHoKysholbSI,TiItWYuZgJBjmkTGQ,221,Aw,oXIvSJrfpuRxEOf,GJkJopq,AdxiUEcG,RsKQpPhDnHs,HDinVkEUqUGcwxTbVTD
990894536.8945,HHcIvWObTuYijJeZdsbL,9489661888.7291,TMo,dJisS,220,VZrJcdRWWG,SM,qxrwzSIbRtyhQNEalc,I,LQRcDGSREUwXRB,fRYJ
-4371053960.8987,geMw,4574692670.0221,haHoKysholbSI,sOqaKwPi,218,xBPbzpNiXUUyNwugrz,ZrDamrBrSSoCNgBiILvn,,rXkpekOFCaEo,,dQCjXWP
-8454208678.4165,XXwyt,-2970643882.146,LxwREvYVOEcoVDjNZZDI,sKs,220,JmyFfdSSjWrFXetbaSI,,hmxFJFhwXAClL,QzHH,TBqhJaruJCVlFzVFw,WcRf
-1110610080.5639,xulZRsHxThWKJTQTWeO,4152102765.1816,TMo,ohX,215,KpvDRoPMQHAPaef,ERyIoUgZkPiYKZqvpA,rDLEEbouUAJLALHRf,STQBZKYMBl,LQRcDGSREUwXRB,AJvuqldmjpyI
-543840604.8903,Xxzepf,5992092033.2011,R,YIhYQuZuBAaXaBx,221,DQhDViUqyKKbNiXQ,aOeXxdhCQKbX,alhBYtODRAVQUkeQJ,WUlfh,Ah,giytpPzBspeeDVPotMy
-9029559981.8711,hygjTYydiycyQmt,2911237090.1658,haHoKysholbSI,oLXPjkZHBrBKPzSkUKJK,220,qJHoAZbhCUbZqS,ka,PuzDuAOyRKJv,oVkjZTjMKeCBJGnKX,,ZqOEQIXSNKxmYfUqvy
-6733511035.8347,cJQpvNzsa,-1708007856.2367,rLugGhNek,IkXmzrTBeMnwERccpf,241,fnhhSBcGcfB,j,z,GajjQlJjtyVcDgVN,KDmjMiFtRImR,qZxMpd
-7680985770.0411,jeMZBPJOa,4120620225.4602,ipqVXm,GBXqemfKyicLpiKuOg,239,ioPWmTvRQ,,IWHCEeurvsaYdJUMc,YR,PafnXEwXVB,
2547833654.0885,oM,-5067012364.5072,TMo,iLDaAEomQ,238,gdeirEJSpXwovgHoeRff,wpdLGbVRl,dHXjELAHFXiDOknNUIA,xaJuxsu,LQRcDGSREUwXRB,yPcfKSLqdc
