ACT_NBR,ANN_MOI,DEL_DAT_ENT,ETA_NUM,NABM_COD,NUM_FAC,PSH_DMT,PSH_MDT,RSA_NUM,RSF_TYP,TYP_ART
9780230269.512,cz,-7730230562.127,haHoKysholbSI,221,TiItWYuZgJBjmkTGQ,Aw,oXIvSJrfpuRxEOf,XQYCvKUMsKHwwCwRCjmd,GJkJopq,AdxiUEcG
990894536.8945,HHcIvWObTuYijJeZdsbL,9489661888.7291,TMo,220,dJisS,VZrJcdRWWG,SM,lL,qxrwzSIbRtyhQNEalc,I
-4371053960.8987,geMw,4574692670.0221,haHoKysholbSI,218,sOqaKwPi,xBPbzpNiXUUyNwugrz,ZrDamrBrSSoCNgBiILvn,DDZVMDmYqxCp,,rXkpekOFCaEo
-8454208678.4165,XXwyt,-2970643882.146,LxwREvYVOEcoVDjNZZDI,220,sKs,JmyFfdSSjWrFXetbaSI,,,hmxFJFhwXAClL,QzHH
-1110610080.5639,xulZRsHxThWKJTQTWeO,4152102765.1816,TMo,215,ohX,KpvDRoPMQHAPaef,ERyIoUgZkPiYKZqvpA,lL,rDLEEbouUAJLALHRf,STQBZKYMBl
-543840604.8903,Xxzepf,5992092033.2011,R,221,YIhYQuZuBAaXaBx,DQhDViUqyKKbNiXQ,aOeXxdhCQKbX,IB,alhBYtODRAVQUkeQJ,WUlfh
-9029559981.8711,hygjTYydiycyQmt,2911237090.1658,haHoKysholbSI,220,oLXPjkZHBrBKPzSkUKJK,qJHoAZbhCUbZqS,ka,DDZVMDmYqxCp,PuzDuAOyRKJv,oVkjZTjMKeCBJGnKX
-6733511035.8347,cJQpvNzsa,-1708007856.2367,rLugGhNek,241,IkXmzrTBeMnwERccpf,fnhhSBcGcfB,j,YPQBllyUSXvJ,z,GajjQlJjtyVcDgVN
-7680985770.0411,jeMZBPJOa,4120620225.4602,ipqVXm,239,GBXqemfKyicLpiKuOg,ioPWmTvRQ,,OUKHSSPqQlondBM,IWHCEeurvsaYdJUMc,YR
2547833654.0885,oM,-5067012364.5072,TMo,238,iLDaAEomQ,gdeirEJSpXwovgHoeRff,wpdLGbVRl,lL,dHXjELAHFXiDOknNUIA,xaJuxsu
