DEL_DAT_ENT,ENT_ANN,ENT_MOI,ETA_NUM,ETA_NUM_GEO,FAC_MNT,LPP_COD,LPP_PRI_UNI,LPP_PU_DEV,LPP_QUA,MNT_UNI_ECA,NUM_FAC,RSF_TYP,SEQ_NUM,TIP_PRS_IDE,TOT_MNT_ECA,TYP_ART
9780230269.512,cz,KvGzDJyBNqe,haHoKysholbSI,TiItWYuZgJBjmkTGQ,-3980710882.8817,oXIvSJrfpuRxEOf,3514628310.071,6462206814.1958,6933248144.2027,-1596340657.1845,mj,tgAvExXqPTePHoNaI,RsKQpPhDnHs,2331043,-8253007141.9565,mZsVZwAcmzCnqCsNmP
990894536.8945,HHcIvWObTuYijJeZdsbL,HpwcpGC,TMo,dJisS,-5058763360.7637,SM,-9105756355.9411,-9477640368.6027,1223310805.3007,-2735210060.6983,Vl,JmN,LQRcDGSREUwXRB,2330977,-5390458008.9654,WteUplRMN
-4371053960.8987,geMw,UgYcxiv,haHoKysholbSI,sOqaKwPi,8526702701.1835,ZrDamrBrSSoCNgBiILvn,-3133926549.1482,-5784587201.3741,-902491951.8849,-6302466244.771,wU,QiTey,,2330470,-1778778587.2217,
-8454208678.4165,XXwyt,sMEnAwVXRh,LxwREvYVOEcoVDjNZZDI,sKs,7832068765.5553,,2880394540.3966,2368435386.9922,-2956501726.1608,365654563.3495,GuqcUIOOXyGBTzcoy,FOJV,TBqhJaruJCVlFzVFw,2330977,-3784346028.7983,QRqgUGLE
-1110610080.5639,xulZRsHxThWKJTQTWeO,yMUJqCnjoMFOhHzqZX,TMo,ohX,3665535199.4997,ERyIoUgZkPiYKZqvpA,-4315740025.1942,-8034310693.262,1717027682.6967,-9827890959.8246,NxamguptDA,GNRJamFExxgHKRyaxY,LQRcDGSREUwXRB,2330428,1319117815.2301,DoNmNnND
-543840604.8903,Xxzepf,bBEYliwpinKwulZgSKmU,R,YIhYQuZuBAaXaBx,1337693189.9934,aOeXxdhCQKbX,8986756133.0001,2402626197.5372,714994885.4615,9378724134.3897,uiMzqAQftLgrqSVSSdTE,GbsM,Ah,2331043,901274075.677,eccFdcSXoiqsTHi
-9029559981.8711,hygjTYydiycyQmt,OjKdlevacIpSTDKN,haHoKysholbSI,oLXPjkZHBrBKPzSkUKJK,939317604.8606,ka,-6846596624.5247,-8922195608.0311,6549125535.5869,6027625120.3292,rdcmuwUQpJaZAFOOTTww,L,,2330977,6141988856.6075,gnAZQenxjiQ
-6733511035.8347,cJQpvNzsa,GJMWKtiwhvfAAKdKeFF,rLugGhNek,IkXmzrTBeMnwERccpf,-5791523280.2647,j,-2240540751.5448,9213081156.0848,-4709156025.5593,5146239772.1731,,dzGpMYETO,KDmjMiFtRImR,2332114,8363102145.672,PfFAdxZzxVH
-7680985770.0411,jeMZBPJOa,,ipqVXm,GBXqemfKyicLpiKuOg,5395089363.7087,,1799873529.4463,9608587484.3015,-432418773.2257,3429686036.8365,J,QcqITciKOYcgGFRSjHb,PafnXEwXVB,2331557,441815056.8735,cntThOOgGJXykhSzWp
2547833654.0885,oM,IgbRDDrORSSsXJQmcq,TMo,iLDaAEomQ,7924602019.1395,wpdLGbVRl,-244084173.7432,422553005.4245,-3044299543.0856,-9406859823.5015,qGM,mhsXfgMpPgmT,LQRcDGSREUwXRB,2331540,-1506254772.2343,uVrxvjggpBiihxA
