ADM_ANN,ADM_MOIS,ADM_NBR,ADM_PRI_ADM,ANN,DAT_DELAI,ETA_NUM,ETA_NUM_ENT,INI_VAL_PRS,MOI,PRS_TYP,RSA_NUM,SEJ_NBR,TOP_UCD_AUTO,UCD_UCD_COD
tfFvqbAe,cz,-7730230562.127,-9650194581.3769,Aw,-107967089.2396,haHoKysholbSI,GJkJopq,AdxiUEcG,HDinVkEUqUGcwxTbVTD,tCJE,XQYCvKUMsKHwwCwRCjmd,-8137834266.5628,tgAvExXqPTePHoNaI,0000009232315
rBjdAcWVuSljeinYeNT,HHcIvWObTuYijJeZdsbL,9489661888.7291,7831465343.6052,VZrJcdRWWG,-5438337911.0133,TMo,qxrwzSIbRtyhQNEalc,I,fRYJ,yZKCdMvUJmnfUF,lL,9433118399.7958,JmN,0000009232143
FONjBbpYsnT,geMw,4574692670.0221,-4302776650.5216,xBPbzpNiXUUyNwugrz,-4890521524.8558,haHoKysholbSI,,rXkpekOFCaEo,dQCjXWP,kxioUaaUbyRr,DDZVMDmYqxCp,-322800390.7271,QiTey,0000009232120
G,XXwyt,-2970643882.146,-4020472450.8208,JmyFfdSSjWrFXetbaSI,-2073401805.5445,LxwREvYVOEcoVDjNZZDI,hmxFJFhwXAClL,QzHH,WcRf,vfbEFBszxAJsDpwXynEJ,,-5149545970.0387,FOJV,0000009232143
tgaIXNbdkzNOHQsrula,xulZRsHxThWKJTQTWeO,4152102765.1816,5840685213.1086,KpvDRoPMQHAPaef,-2453698046.1775,TMo,rDLEEbouUAJLALHRf,STQBZKYMBl,AJvuqldmjpyI,zFuYBKixVBzA,lL,622476596.1451,GNRJamFExxgHKRyaxY,0000009231824
YfenN,Xxzepf,5992092033.2011,-3510588050.4354,DQhDViUqyKKbNiXQ,9931484603.093,R,alhBYtODRAVQUkeQJ,WUlfh,giytpPzBspeeDVPotMy,JsiZTXTG,IB,-4289115290.704,GbsM,0000009232315
QS,hygjTYydiycyQmt,2911237090.1658,7294207733.8052,qJHoAZbhCUbZqS,-1836055993.3361,haHoKysholbSI,PuzDuAOyRKJv,oVkjZTjMKeCBJGnKX,ZqOEQIXSNKxmYfUqvy,SJlp,DDZVMDmYqxCp,7252607541.0328,L,0000009232143
uPTrzHyyXkeb,cJQpvNzsa,-1708007856.2367,-1049747355.7225,fnhhSBcGcfB,5437879896.7943,rLugGhNek,z,GajjQlJjtyVcDgVN,qZxMpd,nOuvuV,YPQBllyUSXvJ,-9177996930.7825,dzGpMYETO,0000009234254
KodQDOLPZocoL,jeMZBPJOa,4120620225.4602,964598127.0019,ioPWmTvRQ,5210733760.1777,ipqVXm,IWHCEeurvsaYdJUMc,YR,,DEceCOYvVolcbatv,OUKHSSPqQlondBM,-7833045320.9856,QcqITciKOYcgGFRSjHb,0000009234047
ycfQdpyVyDKx,oM,-5067012364.5072,-2856560103.4002,gdeirEJSpXwovgHoeRff,-3799813026.2934,TMo,dHXjELAHFXiDOknNUIA,xaJuxsu,yPcfKSLqdc,J,lL,5343200908.5739,mhsXfgMpPgmT,0000009233680
